40.0 APEX_CODE,DEBUG;APEX_PROFILING,INFO;CALLOUT,INFO;DB,INFO;SYSTEM,DEBUG;VALIDATION,INFO;VISUALFORCE,FINER;WAVE,INFO;WORKFLOW,INFO
11:00:59.0 (116994)|USER_INFO|[EXTERNAL]|005Q000000PbtzJ|amoodhangalorevadira@huronconsultinggroup.com.opsdev|Eastern Standard Time|GMT-05:00
11:00:59.0 (168925)|EXECUTION_STARTED
11:00:59.0 (173622)|CODE_UNIT_STARTED|[EXTERNAL]|066Q0000000AmBn|VF: /apex/PropertySurveyOverridePage
11:00:59.0 (2215502)|VF_DESERIALIZE_VIEWSTATE_BEGIN|066Q0000000AmBn
11:00:59.0 (37245551)|VF_DESERIALIZE_VIEWSTATE_END
11:00:59.42 (42488393)|VF_APEX_CALL_START|[EXTERNAL]|/apexpage/pagemessagescomponentcontroller.apex get(severities)
11:00:59.42 (42536472)|SYSTEM_MODE_ENTER|true
11:00:59.42 (42582724)|VF_APEX_CALL_START|[EXTERNAL]|PageMessagesComponentController invoke(getseverities)
11:00:59.43 (43668550)|VF_APEX_CALL_START|[EXTERNAL]|/apexpage/pagemessagescomponentcontroller.apex set(conEscape,null)
11:00:59.43 (43691335)|SYSTEM_MODE_ENTER|true
11:00:59.43 (43709541)|VF_APEX_CALL_START|[EXTERNAL]|PageMessagesComponentController set(conEscape,null)
11:00:59.43 (43734823)|VF_APEX_CALL_START|[EXTERNAL]|PageMessagesComponentController invoke(setconEscape)
11:00:59.0 (44323881)|VF_APEX_CALL_START|[EXTERNAL]|01pQ0000000I7sk|PropertySurveyOverrideController get(tempRecord)
11:00:59.0 (44344131)|SYSTEM_MODE_ENTER|true
11:00:59.0 (44366213)|VF_APEX_CALL_START|[EXTERNAL]|01pQ0000000I7sk|tempRecord
11:00:59.0 (44418872)|VF_APEX_CALL_END|tempRecord
11:00:59.0 (44441569)|VF_APEX_CALL_END|PropertySurveyOverrideController get(tempRecord)
11:00:59.0 (63573148)|VF_EVALUATE_FORMULA_BEGIN|066Q0000000AmBn|renderSVG();closePage(#{goodToClose});greyOutFields();greyLookups();toggleUtilityCap(); return false;
11:00:59.0 (63687285)|VF_APEX_CALL_START|[EXTERNAL]|01pQ0000000I7sk|PropertySurveyOverrideController get(goodToClose)
11:00:59.0 (63709033)|SYSTEM_MODE_ENTER|true
11:00:59.0 (63730047)|VF_APEX_CALL_START|[EXTERNAL]|01pQ0000000I7sk|goodToClose
11:00:59.0 (63760121)|VF_APEX_CALL_END|goodToClose
11:00:59.0 (63779236)|VF_APEX_CALL_END|PropertySurveyOverrideController get(goodToClose)
11:00:59.0 (63800658)|VF_EVALUATE_FORMULA_END
11:00:59.0 (63813963)|VF_EVALUATE_FORMULA_BEGIN|066Q0000000AmBn|renderSVG();closePage(#{goodToClose});greyOutFields();greyLookups();toggleUtilityCap(); return false;
11:00:59.0 (63851970)|VF_EVALUATE_FORMULA_END
11:00:59.0 (63865027)|VF_EVALUATE_FORMULA_BEGIN|066Q0000000AmBn|renderSVG();closePage(#{goodToClose});greyOutFields();greyLookups();toggleUtilityCap(); return false;
11:00:59.0 (63909886)|VF_EVALUATE_FORMULA_END
11:00:59.0 (64099413)|VF_EVALUATE_FORMULA_BEGIN|066Q0000000AmBn|renderSVG();closePage(#{goodToClose});greyOutFields();greyLookups();toggleUtilityCap(); return false;
11:00:59.0 (64140136)|VF_EVALUATE_FORMULA_END
11:00:59.0 (64150481)|VF_EVALUATE_FORMULA_BEGIN|066Q0000000AmBn|renderSVG();closePage(#{goodToClose});greyOutFields();greyLookups();toggleUtilityCap(); return false;
11:00:59.0 (64192565)|VF_EVALUATE_FORMULA_END
11:00:59.0 (64203410)|VF_EVALUATE_FORMULA_BEGIN|066Q0000000AmBn|renderSVG();closePage(#{goodToClose});greyOutFields();greyLookups();toggleUtilityCap(); return false;
11:00:59.0 (64240724)|VF_EVALUATE_FORMULA_END
11:00:59.0 (64363257)|VF_EVALUATE_FORMULA_BEGIN|066Q0000000AmBn|renderSVG();closePage(#{goodToClose});greyOutFields();greyLookups();toggleUtilityCap(); return false;
11:00:59.0 (64402751)|VF_EVALUATE_FORMULA_END
11:00:59.0 (64412541)|VF_EVALUATE_FORMULA_BEGIN|066Q0000000AmBn|renderSVG();closePage(#{goodToClose});greyOutFields();greyLookups();toggleUtilityCap(); return false;
11:00:59.0 (64445231)|VF_EVALUATE_FORMULA_END
11:00:59.0 (64454785)|VF_EVALUATE_FORMULA_BEGIN|066Q0000000AmBn|renderSVG();closePage(#{goodToClose});greyOutFields();greyLookups();toggleUtilityCap(); return false;
11:00:59.0 (64486433)|VF_EVALUATE_FORMULA_END
11:00:59.0 (65548644)|VF_APEX_CALL_START|[EXTERNAL]|01pQ0000000I7sk|PropertySurveyOverrideController get(SurveyContactFields)
11:00:59.0 (65576614)|SYSTEM_MODE_ENTER|true
11:00:59.0 (65816890)|VF_APEX_CALL_START|[EXTERNAL]|01pQ0000000I7sk|PropertySurveyOverrideController invoke(getSurveyContactFields)
11:00:59.0 (68376618)|VF_APEX_CALL_END|PropertySurveyOverrideController invoke(getSurveyContactFields)
11:00:59.0 (68410939)|VF_APEX_CALL_END|PropertySurveyOverrideController get(SurveyContactFields)
11:00:59.0 (69102052)|VF_APEX_CALL_START|[EXTERNAL]|01pQ0000000I7sk|PropertySurveyOverrideController get(contactList)
11:00:59.0 (69120573)|SYSTEM_MODE_ENTER|true
11:00:59.0 (69134938)|VF_APEX_CALL_START|[EXTERNAL]|01pQ0000000I7sk|contactList
11:00:59.0 (69152624)|VF_APEX_CALL_END|contactList
11:00:59.0 (69168078)|VF_APEX_CALL_END|PropertySurveyOverrideController get(contactList)
11:00:59.0 (69408753)|VF_APEX_CALL_START|[EXTERNAL]|01pQ0000000RFtf|con
11:00:59.0 (69446593)|VF_APEX_CALL_END|con
11:00:59.0 (72425646)|VF_APEX_CALL_START|[EXTERNAL]|01pQ0000000RFtf|rcon
11:00:59.0 (72446684)|VF_APEX_CALL_END|rcon
11:00:59.0 (73653720)|VF_APEX_CALL_START|[EXTERNAL]|01pQ0000000I7sk|PropertySurveyOverrideController get(ReisContactFields)
11:00:59.0 (73672603)|SYSTEM_MODE_ENTER|true
11:00:59.0 (73690153)|VF_APEX_CALL_START|[EXTERNAL]|01pQ0000000I7sk|PropertySurveyOverrideController invoke(getReisContactFields)
11:00:59.0 (75389992)|VF_APEX_CALL_END|PropertySurveyOverrideController invoke(getReisContactFields)
11:00:59.0 (75416356)|VF_APEX_CALL_END|PropertySurveyOverrideController get(ReisContactFields)
11:00:59.0 (78019014)|VF_EVALUATE_FORMULA_BEGIN|066Q0000000AmBn|#{f.fieldPath == 'Work_Phone__c' &#124;&#124; f.fieldPath == 'Mobile_Phone__c'}
11:00:59.0 (78086099)|VF_EVALUATE_FORMULA_END
11:00:59.0 (78728272)|VF_EVALUATE_FORMULA_BEGIN|066Q0000000AmBn|#{f.fieldPath == 'Work_Phone__c' &#124;&#124; f.fieldPath == 'Mobile_Phone__c'}
11:00:59.0 (78765742)|VF_EVALUATE_FORMULA_END
11:00:59.0 (79113916)|VF_EVALUATE_FORMULA_BEGIN|066Q0000000AmBn|#{con.rcon[f.FieldPath]}
11:00:59.0 (79439773)|VF_EVALUATE_FORMULA_END
11:00:59.0 (80051497)|VF_EVALUATE_FORMULA_BEGIN|066Q0000000AmBn|#{f.fieldPath == 'Work_Phone__c' &#124;&#124; f.fieldPath == 'Mobile_Phone__c'}
11:00:59.0 (80098695)|VF_EVALUATE_FORMULA_END
11:00:59.0 (80288437)|VF_EVALUATE_FORMULA_BEGIN|066Q0000000AmBn|#{con.rcon[f.FieldPath]}
11:00:59.0 (80611833)|VF_EVALUATE_FORMULA_END
11:00:59.0 (81180429)|VF_EVALUATE_FORMULA_BEGIN|066Q0000000AmBn|#{f.fieldPath == 'Work_Phone__c' &#124;&#124; f.fieldPath == 'Mobile_Phone__c'}
11:00:59.0 (81237544)|VF_EVALUATE_FORMULA_END
11:00:59.0 (83090382)|VF_EVALUATE_FORMULA_BEGIN|066Q0000000AmBn|#{f.fieldPath == 'Work_Phone__c' &#124;&#124; f.fieldPath == 'Mobile_Phone__c'}
11:00:59.0 (83155951)|VF_EVALUATE_FORMULA_END
11:00:59.0 (83260802)|VF_APEX_CALL_START|[EXTERNAL]|01pQ0000000RFtf|con
11:00:59.0 (83289631)|VF_APEX_CALL_END|con
11:00:59.0 (85045949)|VF_APEX_CALL_START|[EXTERNAL]|01pQ0000000RFtf|rcon
11:00:59.0 (85070747)|VF_APEX_CALL_END|rcon
11:00:59.0 (86723563)|VF_EVALUATE_FORMULA_BEGIN|066Q0000000AmBn|#{f.fieldPath == 'Work_Phone__c' &#124;&#124; f.fieldPath == 'Mobile_Phone__c'}
11:00:59.0 (86785713)|VF_EVALUATE_FORMULA_END
11:00:59.0 (87310013)|VF_EVALUATE_FORMULA_BEGIN|066Q0000000AmBn|#{f.fieldPath == 'Work_Phone__c' &#124;&#124; f.fieldPath == 'Mobile_Phone__c'}
11:00:59.0 (87353871)|VF_EVALUATE_FORMULA_END
11:00:59.0 (87587848)|VF_EVALUATE_FORMULA_BEGIN|066Q0000000AmBn|#{con.rcon[f.FieldPath]}
11:00:59.0 (87908397)|VF_EVALUATE_FORMULA_END
11:00:59.0 (88431252)|VF_EVALUATE_FORMULA_BEGIN|066Q0000000AmBn|#{f.fieldPath == 'Work_Phone__c' &#124;&#124; f.fieldPath == 'Mobile_Phone__c'}
11:00:59.0 (88485629)|VF_EVALUATE_FORMULA_END
11:00:59.0 (88668947)|VF_EVALUATE_FORMULA_BEGIN|066Q0000000AmBn|#{con.rcon[f.FieldPath]}
11:00:59.0 (88986155)|VF_EVALUATE_FORMULA_END
11:00:59.0 (89550317)|VF_EVALUATE_FORMULA_BEGIN|066Q0000000AmBn|#{f.fieldPath == 'Work_Phone__c' &#124;&#124; f.fieldPath == 'Mobile_Phone__c'}
11:00:59.0 (89614935)|VF_EVALUATE_FORMULA_END
11:00:59.0 (90310846)|VF_EVALUATE_FORMULA_BEGIN|066Q0000000AmBn|#{f.fieldPath == 'Work_Phone__c' &#124;&#124; f.fieldPath == 'Mobile_Phone__c'}
11:00:59.0 (90362327)|VF_EVALUATE_FORMULA_END
11:00:59.0 (90453736)|VF_APEX_CALL_START|[EXTERNAL]|01pQ0000000RFtf|con
11:00:59.0 (90476017)|VF_APEX_CALL_END|con
11:00:59.0 (91401207)|VF_APEX_CALL_START|[EXTERNAL]|01pQ0000000RFtf|rcon
11:00:59.0 (91424683)|VF_APEX_CALL_END|rcon
11:00:59.0 (93705621)|VF_EVALUATE_FORMULA_BEGIN|066Q0000000AmBn|#{f.fieldPath == 'Work_Phone__c' &#124;&#124; f.fieldPath == 'Mobile_Phone__c'}
11:00:59.0 (93769642)|VF_EVALUATE_FORMULA_END
11:00:59.0 (94624106)|VF_EVALUATE_FORMULA_BEGIN|066Q0000000AmBn|#{f.fieldPath == 'Work_Phone__c' &#124;&#124; f.fieldPath == 'Mobile_Phone__c'}
11:00:59.0 (94664710)|VF_EVALUATE_FORMULA_END
11:00:59.0 (94868205)|VF_EVALUATE_FORMULA_BEGIN|066Q0000000AmBn|#{con.rcon[f.FieldPath]}
11:00:59.0 (95181399)|VF_EVALUATE_FORMULA_END
11:00:59.0 (95995349)|VF_EVALUATE_FORMULA_BEGIN|066Q0000000AmBn|#{f.fieldPath == 'Work_Phone__c' &#124;&#124; f.fieldPath == 'Mobile_Phone__c'}
11:00:59.0 (96052513)|VF_EVALUATE_FORMULA_END
11:00:59.0 (96212346)|VF_EVALUATE_FORMULA_BEGIN|066Q0000000AmBn|#{con.rcon[f.FieldPath]}
11:00:59.0 (96504404)|VF_EVALUATE_FORMULA_END
11:00:59.0 (97301502)|VF_EVALUATE_FORMULA_BEGIN|066Q0000000AmBn|#{f.fieldPath == 'Work_Phone__c' &#124;&#124; f.fieldPath == 'Mobile_Phone__c'}
11:00:59.0 (97356860)|VF_EVALUATE_FORMULA_END
11:00:59.0 (98274239)|VF_EVALUATE_FORMULA_BEGIN|066Q0000000AmBn|#{f.fieldPath == 'Work_Phone__c' &#124;&#124; f.fieldPath == 'Mobile_Phone__c'}
11:00:59.0 (98327713)|VF_EVALUATE_FORMULA_END
11:00:59.0 (98493953)|VF_APEX_CALL_START|[EXTERNAL]|01pQ0000000I7sk|PropertySurveyOverrideController get(LocationFields)
11:00:59.0 (98518238)|SYSTEM_MODE_ENTER|true
11:00:59.0 (98541480)|VF_APEX_CALL_START|[EXTERNAL]|01pQ0000000I7sk|PropertySurveyOverrideController invoke(getLocationFields)
11:00:59.0 (101015496)|VF_APEX_CALL_END|PropertySurveyOverrideController invoke(getLocationFields)
11:00:59.0 (101042697)|VF_APEX_CALL_END|PropertySurveyOverrideController get(LocationFields)
11:00:59.0 (162324233)|VF_APEX_CALL_START|[EXTERNAL]|01pQ0000000I7sk|PropertySurveyOverrideController get(InformationFields)
11:00:59.0 (162366751)|SYSTEM_MODE_ENTER|true
11:00:59.0 (162398883)|VF_APEX_CALL_START|[EXTERNAL]|01pQ0000000I7sk|PropertySurveyOverrideController invoke(getInformationFields)
11:00:59.0 (164661712)|VF_APEX_CALL_END|PropertySurveyOverrideController invoke(getInformationFields)
11:00:59.0 (164701439)|VF_APEX_CALL_END|PropertySurveyOverrideController get(InformationFields)
11:00:59.0 (202935376)|VF_EVALUATE_FORMULA_BEGIN|066Q0000000AmBn|#{tempRecord.RecordType.name == 'Self Storage'}
11:00:59.0 (203658766)|VF_EVALUATE_FORMULA_END
11:00:59.0 (203688865)|VF_EVALUATE_FORMULA_BEGIN|066Q0000000AmBn|#{tempRecord.RecordType.name == 'Senior Housing'}
11:00:59.0 (203991756)|VF_EVALUATE_FORMULA_END
11:00:59.0 (204006703)|VF_EVALUATE_FORMULA_BEGIN|066Q0000000AmBn|#{tempRecord.RecordType.name == 'Student Housing'}
11:00:59.0 (204238992)|VF_EVALUATE_FORMULA_END
11:00:59.0 (204254995)|VF_EVALUATE_FORMULA_BEGIN|066Q0000000AmBn|#{if(tempRecord.RecordType.name = 'Senior Housing', TRUE, FALSE)}
11:00:59.0 (204567174)|VF_EVALUATE_FORMULA_END
11:00:59.0 (204581629)|VF_EVALUATE_FORMULA_BEGIN|066Q0000000AmBn|#{tempRecord.RecordType.name == 'Retail'}
11:00:59.0 (204820300)|VF_EVALUATE_FORMULA_END
11:00:59.0 (204835783)|VF_EVALUATE_FORMULA_BEGIN|066Q0000000AmBn|#{tempRecord.RecordType.name == 'Office' &#124;&#124; tempRecord.RecordType.name == 'Industrial'}
11:00:59.0 (205472940)|VF_EVALUATE_FORMULA_END
11:00:59.0 (205494214)|VF_EVALUATE_FORMULA_BEGIN|066Q0000000AmBn|#{tempRecord.RecordType.name == 'Apartments'}
11:00:59.0 (205781817)|VF_EVALUATE_FORMULA_END
11:00:59.0 (205948676)|VF_APEX_CALL_START|[EXTERNAL]|01pQ0000000I7sk|PropertySurveyOverrideController get(FloorpanHeaderFields)
11:00:59.0 (205973991)|SYSTEM_MODE_ENTER|true
11:00:59.0 (205999174)|VF_APEX_CALL_START|[EXTERNAL]|01pQ0000000I7sk|PropertySurveyOverrideController invoke(getFloorpanHeaderFields)
11:00:59.0 (208868848)|VF_APEX_CALL_END|PropertySurveyOverrideController invoke(getFloorpanHeaderFields)
11:00:59.0 (208895030)|VF_APEX_CALL_END|PropertySurveyOverrideController get(FloorpanHeaderFields)
11:00:59.0 (209611429)|VF_APEX_CALL_START|[EXTERNAL]|01pQ0000000I7sk|PropertySurveyOverrideController get(floorplans)
11:00:59.0 (209668974)|SYSTEM_MODE_ENTER|true
11:00:59.0 (209694902)|VF_APEX_CALL_START|[EXTERNAL]|01pQ0000000I7sk|floorplans
11:00:59.0 (209784859)|VF_APEX_CALL_END|floorplans
11:00:59.0 (209820104)|VF_APEX_CALL_END|PropertySurveyOverrideController get(floorplans)
11:00:59.0 (210114544)|VF_APEX_CALL_START|[EXTERNAL]|01pQ0000000I7sk|sst
11:00:59.0 (210151110)|VF_APEX_CALL_END|sst
11:00:59.0 (214097074)|VF_APEX_CALL_START|[EXTERNAL]|01pQ0000000I7sk|PropertySurveyOverrideController get(FloorPlanFields)
11:00:59.0 (214122557)|SYSTEM_MODE_ENTER|true
11:00:59.0 (214147285)|VF_APEX_CALL_START|[EXTERNAL]|01pQ0000000I7sk|PropertySurveyOverrideController invoke(getFloorPlanFields)
11:00:59.0 (219777388)|VF_APEX_CALL_END|PropertySurveyOverrideController invoke(getFloorPlanFields)
11:00:59.0 (219833939)|VF_APEX_CALL_END|PropertySurveyOverrideController get(FloorPlanFields)
11:00:59.0 (220897466)|VF_APEX_CALL_START|[EXTERNAL]|01pQ0000000I7sk|afield
11:00:59.0 (220927538)|VF_APEX_CALL_END|afield
11:00:59.0 (221627619)|VF_APEX_CALL_START|[EXTERNAL]|01pQ0000000I7sk|bfield
11:00:59.0 (221646693)|VF_APEX_CALL_END|bfield
11:00:59.0 (222225637)|VF_APEX_CALL_START|[EXTERNAL]|01pQ0000000I7sk|afield
11:00:59.0 (222246820)|VF_APEX_CALL_END|afield
11:00:59.0 (222745299)|VF_APEX_CALL_START|[EXTERNAL]|01pQ0000000I7sk|bfield
11:00:59.0 (222766063)|VF_APEX_CALL_END|bfield
11:00:59.0 (223259070)|VF_APEX_CALL_START|[EXTERNAL]|01pQ0000000I7sk|afield
11:00:59.0 (223280758)|VF_APEX_CALL_END|afield
11:00:59.0 (223775284)|VF_APEX_CALL_START|[EXTERNAL]|01pQ0000000I7sk|bfield
11:00:59.0 (223791824)|VF_APEX_CALL_END|bfield
11:00:59.0 (224300183)|VF_APEX_CALL_START|[EXTERNAL]|01pQ0000000I7sk|afield
11:00:59.0 (224317656)|VF_APEX_CALL_END|afield
11:00:59.0 (224874665)|VF_APEX_CALL_START|[EXTERNAL]|01pQ0000000I7sk|bfield
11:00:59.0 (224895248)|VF_APEX_CALL_END|bfield
11:00:59.0 (225386539)|VF_APEX_CALL_START|[EXTERNAL]|01pQ0000000I7sk|afield
11:00:59.0 (225407739)|VF_APEX_CALL_END|afield
11:00:59.0 (225909618)|VF_APEX_CALL_START|[EXTERNAL]|01pQ0000000I7sk|bfield
11:00:59.0 (225929776)|VF_APEX_CALL_END|bfield
11:00:59.0 (226423406)|VF_APEX_CALL_START|[EXTERNAL]|01pQ0000000I7sk|afield
11:00:59.0 (226443998)|VF_APEX_CALL_END|afield
11:00:59.0 (226931126)|VF_APEX_CALL_START|[EXTERNAL]|01pQ0000000I7sk|bfield
11:00:59.0 (226948158)|VF_APEX_CALL_END|bfield
11:00:59.0 (227440493)|VF_APEX_CALL_START|[EXTERNAL]|01pQ0000000I7sk|afield
11:00:59.0 (227462180)|VF_APEX_CALL_END|afield
11:00:59.0 (227949504)|VF_APEX_CALL_START|[EXTERNAL]|01pQ0000000I7sk|bfield
11:00:59.0 (227969128)|VF_APEX_CALL_END|bfield
11:00:59.0 (228784985)|VF_APEX_CALL_START|[EXTERNAL]|01pQ0000000I7sk|afield
11:00:59.0 (228803122)|VF_APEX_CALL_END|afield
11:00:59.0 (229291175)|VF_APEX_CALL_START|[EXTERNAL]|01pQ0000000I7sk|bfield
11:00:59.0 (229312283)|VF_APEX_CALL_END|bfield
11:00:59.0 (229897139)|VF_APEX_CALL_START|[EXTERNAL]|01pQ0000000I7sk|afield
11:00:59.0 (229918098)|VF_APEX_CALL_END|afield
11:00:59.0 (230393009)|VF_APEX_CALL_START|[EXTERNAL]|01pQ0000000I7sk|bfield
11:00:59.0 (230414034)|VF_APEX_CALL_END|bfield
11:00:59.0 (230910412)|VF_APEX_CALL_START|[EXTERNAL]|01pQ0000000I7sk|afield
11:00:59.0 (230929000)|VF_APEX_CALL_END|afield
11:00:59.0 (231405954)|VF_APEX_CALL_START|[EXTERNAL]|01pQ0000000I7sk|bfield
11:00:59.0 (231426539)|VF_APEX_CALL_END|bfield
11:00:59.0 (232399820)|VF_APEX_CALL_START|[EXTERNAL]|01pQ0000000I7sk|sst
11:00:59.0 (232428324)|VF_APEX_CALL_END|sst
11:00:59.0 (247670027)|VF_APEX_CALL_START|[EXTERNAL]|01pQ0000000I7sk|sst
11:00:59.0 (247708485)|VF_APEX_CALL_END|sst
11:00:59.0 (273088686)|VF_EVALUATE_FORMULA_BEGIN|066Q0000000AmBn|#{tempRecord.RecordType.name == 'Affordable'}
11:00:59.0 (273424253)|VF_EVALUATE_FORMULA_END
11:00:59.0 (273445120)|VF_EVALUATE_FORMULA_BEGIN|066Q0000000AmBn|#{tempRecord.RecordType.name == 'Industrial' &#124;&#124; tempRecord.RecordType.name == 'Apartments' &#124;&#124; tempRecord.RecordType.name == 'Affordable' &#124;&#124; tempRecord.RecordType.name == 'Senior Housing' &#124;&#124; tempRecord.RecordType.name == 'Self Storage' &#124;&#124; tempRecord.RecordType.name == 'Student Housing'}
11:00:59.0 (273949177)|VF_EVALUATE_FORMULA_END
11:00:59.0 (274067401)|VF_APEX_CALL_START|[EXTERNAL]|01pQ0000000I7sk|PropertySurveyOverrideController get(newAm)
11:00:59.0 (274088378)|SYSTEM_MODE_ENTER|true
11:00:59.0 (274109392)|VF_APEX_CALL_START|[EXTERNAL]|01pQ0000000I7sk|newAm
11:00:59.0 (274131787)|VF_APEX_CALL_END|newAm
11:00:59.0 (274154622)|VF_APEX_CALL_END|PropertySurveyOverrideController get(newAm)
11:00:59.0 (280280978)|VF_EVALUATE_FORMULA_BEGIN|066Q0000000AmBn|#{if(tempRecord.RecordType.name = 'Affordable', TRUE, FALSE)}
11:00:59.0 (280609099)|VF_EVALUATE_FORMULA_END
11:00:59.0 (280637584)|VF_EVALUATE_FORMULA_BEGIN|066Q0000000AmBn|#{amenitiesList['Complex']}
11:00:59.0 (280785521)|VF_APEX_CALL_START|[EXTERNAL]|01pQ0000000I7sk|PropertySurveyOverrideController get(amenitiesList)
11:00:59.0 (280809953)|SYSTEM_MODE_ENTER|true
11:00:59.0 (280831686)|VF_APEX_CALL_START|[EXTERNAL]|01pQ0000000I7sk|amenitiesList
11:00:59.0 (280854910)|VF_APEX_CALL_END|amenitiesList
11:00:59.0 (280872472)|VF_APEX_CALL_END|PropertySurveyOverrideController get(amenitiesList)
11:00:59.0 (280905525)|VF_EVALUATE_FORMULA_END
11:00:59.0 (280916732)|VF_EVALUATE_FORMULA_BEGIN|066Q0000000AmBn|#{amenitiesList['Complex']}
11:00:59.0 (280960981)|VF_EVALUATE_FORMULA_END
11:00:59.0 (281222311)|VF_APEX_CALL_START|[EXTERNAL]|01pQ0000000I7sk|sa
11:00:59.0 (281259428)|VF_APEX_CALL_END|sa
11:00:59.0 (286938931)|VF_APEX_CALL_START|[EXTERNAL]|01pQ0000000I7sk|sa
11:00:59.0 (286973695)|VF_APEX_CALL_END|sa
11:00:59.0 (292626497)|VF_APEX_CALL_START|[EXTERNAL]|01pQ0000000I7sk|sa
11:00:59.0 (292652670)|VF_APEX_CALL_END|sa
11:00:59.0 (297722495)|VF_APEX_CALL_START|[EXTERNAL]|01pQ0000000I7sk|sa
11:00:59.0 (297746404)|VF_APEX_CALL_END|sa
11:00:59.0 (302849908)|VF_EVALUATE_FORMULA_BEGIN|066Q0000000AmBn|#{amenitiesList['Unit']}
11:00:59.0 (302968793)|VF_EVALUATE_FORMULA_END
11:00:59.0 (302990625)|VF_EVALUATE_FORMULA_BEGIN|066Q0000000AmBn|#{amenitiesList['Unit']}
11:00:59.0 (303063376)|VF_EVALUATE_FORMULA_END
11:00:59.0 (303231119)|VF_APEX_CALL_START|[EXTERNAL]|01pQ0000000I7sk|sa
11:00:59.0 (303257761)|VF_APEX_CALL_END|sa
11:00:59.0 (309806864)|VF_APEX_CALL_START|[EXTERNAL]|01pQ0000000I7sk|sa
11:00:59.0 (309852284)|VF_APEX_CALL_END|sa
11:00:59.0 (316516356)|VF_APEX_CALL_START|[EXTERNAL]|01pQ0000000I7sk|sa
11:00:59.0 (316566534)|VF_APEX_CALL_END|sa
11:00:59.0 (322643184)|VF_APEX_CALL_START|[EXTERNAL]|01pQ0000000I7sk|sa
11:00:59.0 (322684869)|VF_APEX_CALL_END|sa
11:00:59.0 (327571725)|VF_APEX_CALL_START|[EXTERNAL]|01pQ0000000I7sk|sa
11:00:59.0 (327603702)|VF_APEX_CALL_END|sa
11:00:59.0 (332388810)|VF_EVALUATE_FORMULA_BEGIN|066Q0000000AmBn|#{IF(tempRecord.RecordType.name == 'Apartments' &#124;&#124; tempRecord.RecordType.name == 'Affordable', TRUE, FALSE)}
11:00:59.0 (332723203)|VF_EVALUATE_FORMULA_END
11:00:59.0 (332752268)|VF_EVALUATE_FORMULA_BEGIN|066Q0000000AmBn|#{amenitiesList['Utilities']}
11:00:59.0 (332825853)|VF_EVALUATE_FORMULA_END
11:00:59.0 (332839564)|VF_EVALUATE_FORMULA_BEGIN|066Q0000000AmBn|#{amenitiesList['Utilities']}
11:00:59.0 (332878344)|VF_EVALUATE_FORMULA_END
11:00:59.0 (333009087)|VF_APEX_CALL_START|[EXTERNAL]|01pQ0000000I7sk|sa
11:00:59.0 (333036206)|VF_APEX_CALL_END|sa
11:00:59.0 (336871127)|VF_APEX_CALL_START|[EXTERNAL]|01pQ0000000I7sk|sa
11:00:59.0 (336898537)|VF_APEX_CALL_END|sa
11:00:59.0 (340582885)|VF_EVALUATE_FORMULA_BEGIN|066Q0000000AmBn|#{IF(tempRecord.RecordType.name == 'Apartments' &#124;&#124; tempRecord.RecordType.name == 'Affordable', TRUE, FALSE)}
11:00:59.0 (341036975)|VF_EVALUATE_FORMULA_END
11:00:59.0 (345772387)|VF_EVALUATE_FORMULA_BEGIN|066Q0000000AmBn|#{con.rcon[f.FieldPath]}
11:00:59.0 (346214781)|VF_EVALUATE_FORMULA_END
11:00:59.0 (346278802)|VF_EVALUATE_FORMULA_BEGIN|066Q0000000AmBn|#{f.fieldPath == 'Work_Phone__c' &#124;&#124; f.fieldPath == 'Mobile_Phone__c'}
11:00:59.0 (346340280)|VF_EVALUATE_FORMULA_END
11:00:59.0 (346500827)|VF_EVALUATE_FORMULA_BEGIN|066Q0000000AmBn|#{con.rcon[f.FieldPath]}
11:00:59.0 (346743829)|VF_EVALUATE_FORMULA_END
11:00:59.0 (346770781)|VF_EVALUATE_FORMULA_BEGIN|066Q0000000AmBn|#{f.fieldPath == 'Work_Phone__c' &#124;&#124; f.fieldPath == 'Mobile_Phone__c'}
11:00:59.0 (346811803)|VF_EVALUATE_FORMULA_END
11:00:59.0 (346916206)|VF_EVALUATE_FORMULA_BEGIN|066Q0000000AmBn|#{con.rcon[f.FieldPath]}
11:00:59.0 (347262495)|VF_EVALUATE_FORMULA_END
11:00:59.0 (347297760)|VF_EVALUATE_FORMULA_BEGIN|066Q0000000AmBn|#{f.fieldPath == 'Work_Phone__c' &#124;&#124; f.fieldPath == 'Mobile_Phone__c'}
11:00:59.0 (347389893)|VF_EVALUATE_FORMULA_END
11:00:59.0 (347510565)|VF_EVALUATE_FORMULA_BEGIN|066Q0000000AmBn|#{con.rcon[f.FieldPath]}
11:00:59.0 (347867967)|VF_EVALUATE_FORMULA_END
11:00:59.0 (347897402)|VF_EVALUATE_FORMULA_BEGIN|066Q0000000AmBn|#{f.fieldPath == 'Work_Phone__c' &#124;&#124; f.fieldPath == 'Mobile_Phone__c'}
11:00:59.0 (347947901)|VF_EVALUATE_FORMULA_END
11:00:59.0 (348326801)|VF_EVALUATE_FORMULA_BEGIN|066Q0000000AmBn|#{con.rcon[f.FieldPath]}
11:00:59.0 (348819232)|VF_EVALUATE_FORMULA_END
11:00:59.0 (348862350)|VF_EVALUATE_FORMULA_BEGIN|066Q0000000AmBn|#{f.fieldPath == 'Work_Phone__c' &#124;&#124; f.fieldPath == 'Mobile_Phone__c'}
11:00:59.0 (348949920)|VF_EVALUATE_FORMULA_END
11:00:59.0 (350963691)|VF_EVALUATE_FORMULA_BEGIN|066Q0000000AmBn|#{con.rcon[f.FieldPath]}
11:00:59.0 (351345833)|VF_EVALUATE_FORMULA_END
11:00:59.0 (351385924)|VF_EVALUATE_FORMULA_BEGIN|066Q0000000AmBn|#{f.fieldPath == 'Work_Phone__c' &#124;&#124; f.fieldPath == 'Mobile_Phone__c'}
11:00:59.0 (351456880)|VF_EVALUATE_FORMULA_END
11:00:59.0 (351589895)|VF_EVALUATE_FORMULA_BEGIN|066Q0000000AmBn|#{con.rcon[f.FieldPath]}
11:00:59.0 (351815860)|VF_EVALUATE_FORMULA_END
11:00:59.0 (351842888)|VF_EVALUATE_FORMULA_BEGIN|066Q0000000AmBn|#{f.fieldPath == 'Work_Phone__c' &#124;&#124; f.fieldPath == 'Mobile_Phone__c'}
11:00:59.0 (351886843)|VF_EVALUATE_FORMULA_END
11:00:59.0 (351982282)|VF_EVALUATE_FORMULA_BEGIN|066Q0000000AmBn|#{con.rcon[f.FieldPath]}
11:00:59.0 (352210276)|VF_EVALUATE_FORMULA_END
11:00:59.0 (352238873)|VF_EVALUATE_FORMULA_BEGIN|066Q0000000AmBn|#{f.fieldPath == 'Work_Phone__c' &#124;&#124; f.fieldPath == 'Mobile_Phone__c'}
11:00:59.0 (352324535)|VF_EVALUATE_FORMULA_END
11:00:59.0 (352463090)|VF_EVALUATE_FORMULA_BEGIN|066Q0000000AmBn|#{con.rcon[f.FieldPath]}
11:00:59.0 (352864364)|VF_EVALUATE_FORMULA_END
11:00:59.0 (352893147)|VF_EVALUATE_FORMULA_BEGIN|066Q0000000AmBn|#{f.fieldPath == 'Work_Phone__c' &#124;&#124; f.fieldPath == 'Mobile_Phone__c'}
11:00:59.0 (352945918)|VF_EVALUATE_FORMULA_END
11:00:59.0 (353378970)|VF_EVALUATE_FORMULA_BEGIN|066Q0000000AmBn|#{con.rcon[f.FieldPath]}
11:00:59.0 (353777162)|VF_EVALUATE_FORMULA_END
11:00:59.0 (353808464)|VF_EVALUATE_FORMULA_BEGIN|066Q0000000AmBn|#{f.fieldPath == 'Work_Phone__c' &#124;&#124; f.fieldPath == 'Mobile_Phone__c'}
11:00:59.0 (353863412)|VF_EVALUATE_FORMULA_END
11:00:59.0 (355452053)|VF_EVALUATE_FORMULA_BEGIN|066Q0000000AmBn|#{con.rcon[f.FieldPath]}
11:00:59.0 (355852521)|VF_EVALUATE_FORMULA_END
11:00:59.0 (355884038)|VF_EVALUATE_FORMULA_BEGIN|066Q0000000AmBn|#{f.fieldPath == 'Work_Phone__c' &#124;&#124; f.fieldPath == 'Mobile_Phone__c'}
11:00:59.0 (355938700)|VF_EVALUATE_FORMULA_END
11:00:59.0 (356036183)|VF_EVALUATE_FORMULA_BEGIN|066Q0000000AmBn|#{con.rcon[f.FieldPath]}
11:00:59.0 (356263579)|VF_EVALUATE_FORMULA_END
11:00:59.0 (356288831)|VF_EVALUATE_FORMULA_BEGIN|066Q0000000AmBn|#{f.fieldPath == 'Work_Phone__c' &#124;&#124; f.fieldPath == 'Mobile_Phone__c'}
11:00:59.0 (356324950)|VF_EVALUATE_FORMULA_END
11:00:59.0 (356430961)|VF_EVALUATE_FORMULA_BEGIN|066Q0000000AmBn|#{con.rcon[f.FieldPath]}
11:00:59.0 (356661109)|VF_EVALUATE_FORMULA_END
11:00:59.0 (356684299)|VF_EVALUATE_FORMULA_BEGIN|066Q0000000AmBn|#{f.fieldPath == 'Work_Phone__c' &#124;&#124; f.fieldPath == 'Mobile_Phone__c'}
11:00:59.0 (356739708)|VF_EVALUATE_FORMULA_END
11:00:59.0 (356835730)|VF_EVALUATE_FORMULA_BEGIN|066Q0000000AmBn|#{con.rcon[f.FieldPath]}
11:00:59.0 (357138026)|VF_EVALUATE_FORMULA_END
11:00:59.0 (357160929)|VF_EVALUATE_FORMULA_BEGIN|066Q0000000AmBn|#{f.fieldPath == 'Work_Phone__c' &#124;&#124; f.fieldPath == 'Mobile_Phone__c'}
11:00:59.0 (357215007)|VF_EVALUATE_FORMULA_END
11:00:59.0 (357598623)|VF_EVALUATE_FORMULA_BEGIN|066Q0000000AmBn|#{con.rcon[f.FieldPath]}
11:00:59.0 (357947538)|VF_EVALUATE_FORMULA_END
11:00:59.0 (357972751)|VF_EVALUATE_FORMULA_BEGIN|066Q0000000AmBn|#{f.fieldPath == 'Work_Phone__c' &#124;&#124; f.fieldPath == 'Mobile_Phone__c'}
11:00:59.0 (358023439)|VF_EVALUATE_FORMULA_END
11:00:59.0 (358265220)|VF_EVALUATE_FORMULA_BEGIN|066Q0000000AmBn|#{tempRecord[f.FieldPath]}
11:00:59.0 (358803471)|VF_EVALUATE_FORMULA_END
11:00:59.0 (392021668)|VF_EVALUATE_FORMULA_BEGIN|066Q0000000AmBn|#{tempRecord[f.FieldPath]}
11:00:59.0 (392610367)|VF_EVALUATE_FORMULA_END
11:00:59.0 (392866087)|VF_EVALUATE_FORMULA_BEGIN|066Q0000000AmBn|#{tempRecord[f.FieldPath]}
11:00:59.0 (393296125)|VF_EVALUATE_FORMULA_END
11:00:59.0 (393411896)|VF_EVALUATE_FORMULA_BEGIN|066Q0000000AmBn|#{tempRecord[f.FieldPath]}
11:00:59.0 (393761073)|VF_EVALUATE_FORMULA_END
11:00:59.0 (393917509)|VF_EVALUATE_FORMULA_BEGIN|066Q0000000AmBn|#{tempRecord[f.FieldPath]}
11:00:59.0 (394256544)|VF_EVALUATE_FORMULA_END
11:00:59.0 (394366327)|VF_EVALUATE_FORMULA_BEGIN|066Q0000000AmBn|#{tempRecord[f.FieldPath]}
11:00:59.0 (394739899)|VF_EVALUATE_FORMULA_END
11:00:59.0 (394897037)|VF_EVALUATE_FORMULA_BEGIN|066Q0000000AmBn|#{tempRecord[f.FieldPath]}
11:00:59.0 (395230255)|VF_EVALUATE_FORMULA_END
11:00:59.0 (395347159)|VF_EVALUATE_FORMULA_BEGIN|066Q0000000AmBn|#{tempRecord[f.FieldPath]}
11:00:59.0 (395684424)|VF_EVALUATE_FORMULA_END
11:00:59.0 (395791537)|VF_EVALUATE_FORMULA_BEGIN|066Q0000000AmBn|#{tempRecord[f.FieldPath]}
11:00:59.0 (396387280)|VF_EVALUATE_FORMULA_END
11:00:59.0 (396538873)|VF_EVALUATE_FORMULA_BEGIN|066Q0000000AmBn|#{tempRecord[f.FieldPath]}
11:00:59.0 (397227168)|VF_EVALUATE_FORMULA_END
11:00:59.0 (397372839)|VF_EVALUATE_FORMULA_BEGIN|066Q0000000AmBn|#{tempRecord[f.FieldPath]}
11:00:59.0 (397812314)|VF_EVALUATE_FORMULA_END
11:00:59.0 (397930063)|VF_EVALUATE_FORMULA_BEGIN|066Q0000000AmBn|#{tempRecord[f.FieldPath]}
11:00:59.0 (398310857)|VF_EVALUATE_FORMULA_END
11:00:59.0 (398448685)|VF_EVALUATE_FORMULA_BEGIN|066Q0000000AmBn|#{tempRecord[f.FieldPath]}
11:00:59.0 (398743480)|VF_EVALUATE_FORMULA_END
11:00:59.0 (398833979)|VF_EVALUATE_FORMULA_BEGIN|066Q0000000AmBn|#{tempRecord[f.FieldPath]}
11:00:59.0 (399244303)|VF_EVALUATE_FORMULA_END
11:00:59.0 (399395298)|VF_EVALUATE_FORMULA_BEGIN|066Q0000000AmBn|#{tempRecord[f.FieldPath]}
11:00:59.0 (399874544)|VF_EVALUATE_FORMULA_END
11:00:59.0 (399982395)|VF_EVALUATE_FORMULA_BEGIN|066Q0000000AmBn|#{tempRecord[f.FieldPath]}
11:00:59.0 (400492133)|VF_EVALUATE_FORMULA_END
11:00:59.0 (400636918)|VF_EVALUATE_FORMULA_BEGIN|066Q0000000AmBn|#{tempRecord[f.FieldPath]}
11:00:59.0 (401107700)|VF_EVALUATE_FORMULA_END
11:00:59.0 (401215101)|VF_EVALUATE_FORMULA_BEGIN|066Q0000000AmBn|#{tempRecord[f.FieldPath]}
11:00:59.0 (401713906)|VF_EVALUATE_FORMULA_END
11:00:59.0 (401908174)|VF_EVALUATE_FORMULA_BEGIN|066Q0000000AmBn|#{tempRecord[f.FieldPath]}
11:00:59.0 (402387585)|VF_EVALUATE_FORMULA_END
11:00:59.0 (402540556)|VF_EVALUATE_FORMULA_BEGIN|066Q0000000AmBn|#{tempRecord[f.FieldPath]}
11:00:59.0 (402983766)|VF_EVALUATE_FORMULA_END
11:00:59.0 (403107873)|VF_EVALUATE_FORMULA_BEGIN|066Q0000000AmBn|#{tempRecord[f.FieldPath]}
11:00:59.0 (403537692)|VF_EVALUATE_FORMULA_END
11:00:59.0 (404210197)|VF_EVALUATE_FORMULA_BEGIN|066Q0000000AmBn|#{tempRecord[f.FieldPath]}
11:00:59.0 (404722426)|VF_EVALUATE_FORMULA_END
11:00:59.0 (405181121)|VF_EVALUATE_FORMULA_BEGIN|066Q0000000AmBn|#{tempRecord[f.FieldPath]}
11:00:59.0 (405721285)|VF_EVALUATE_FORMULA_END
11:00:59.0 (405855930)|VF_EVALUATE_FORMULA_BEGIN|066Q0000000AmBn|#{tempRecord[f.FieldPath]}
11:00:59.0 (406340425)|VF_EVALUATE_FORMULA_END
11:00:59.0 (406474313)|VF_EVALUATE_FORMULA_BEGIN|066Q0000000AmBn|#{tempRecord[f.FieldPath]}
11:00:59.0 (406980250)|VF_EVALUATE_FORMULA_END
11:00:59.0 (407083002)|VF_EVALUATE_FORMULA_BEGIN|066Q0000000AmBn|#{tempRecord[f.FieldPath]}
11:00:59.0 (407368220)|VF_EVALUATE_FORMULA_END
11:00:59.0 (407508186)|VF_EVALUATE_FORMULA_BEGIN|066Q0000000AmBn|#{tempRecord[f.FieldPath]}
11:00:59.0 (407785656)|VF_EVALUATE_FORMULA_END
11:00:59.0 (408106174)|VF_EVALUATE_FORMULA_BEGIN|066Q0000000AmBn|#{tempRecord[f.FieldPath]}
11:00:59.0 (408497682)|VF_EVALUATE_FORMULA_END
11:00:59.0 (408884457)|VF_EVALUATE_FORMULA_BEGIN|066Q0000000AmBn|#{tempRecord[f.FieldPath]}
11:00:59.0 (409178792)|VF_EVALUATE_FORMULA_END
11:00:59.0 (409277966)|VF_EVALUATE_FORMULA_BEGIN|066Q0000000AmBn|#{tempRecord[f.FieldPath]}
11:00:59.0 (409576571)|VF_EVALUATE_FORMULA_END
11:00:59.0 (409819085)|VF_EVALUATE_FORMULA_BEGIN|066Q0000000AmBn|#{tempRecord[f.FieldPath]}
11:00:59.0 (410115356)|VF_EVALUATE_FORMULA_END
11:00:59.0 (410265838)|VF_EVALUATE_FORMULA_BEGIN|066Q0000000AmBn|#{tempRecord[f.FieldPath]}
11:00:59.0 (410591332)|VF_EVALUATE_FORMULA_END
11:00:59.0 (410737807)|VF_EVALUATE_FORMULA_BEGIN|066Q0000000AmBn|#{tempRecord[f.FieldPath]}
11:00:59.0 (411016422)|VF_EVALUATE_FORMULA_END
11:00:59.0 (411089799)|VF_EVALUATE_FORMULA_BEGIN|066Q0000000AmBn|#{tempRecord[f.FieldPath]}
11:00:59.0 (411376508)|VF_EVALUATE_FORMULA_END
11:00:59.0 (411450320)|VF_EVALUATE_FORMULA_BEGIN|066Q0000000AmBn|#{tempRecord[f.FieldPath]}
11:00:59.0 (411743932)|VF_EVALUATE_FORMULA_END
11:00:59.0 (411812269)|VF_EVALUATE_FORMULA_BEGIN|066Q0000000AmBn|#{tempRecord[f.FieldPath]}
11:00:59.0 (412097349)|VF_EVALUATE_FORMULA_END
11:00:59.0 (412268675)|VF_EVALUATE_FORMULA_BEGIN|066Q0000000AmBn|#{tempRecord[f.FieldPath]}
11:00:59.0 (412555583)|VF_EVALUATE_FORMULA_END
11:00:59.0 (412651121)|VF_EVALUATE_FORMULA_BEGIN|066Q0000000AmBn|#{tempRecord[f.FieldPath]}
11:00:59.0 (412948257)|VF_EVALUATE_FORMULA_END
11:00:59.0 (413021412)|VF_EVALUATE_FORMULA_BEGIN|066Q0000000AmBn|#{tempRecord[f.FieldPath]}
11:00:59.0 (413300458)|VF_EVALUATE_FORMULA_END
11:00:59.0 (413387073)|VF_EVALUATE_FORMULA_BEGIN|066Q0000000AmBn|#{tempRecord[f.FieldPath]}
11:00:59.0 (413820280)|VF_EVALUATE_FORMULA_END
11:00:59.0 (413957658)|VF_EVALUATE_FORMULA_BEGIN|066Q0000000AmBn|#{tempRecord[f.FieldPath]}
11:00:59.0 (414233820)|VF_EVALUATE_FORMULA_END
11:00:59.0 (414322254)|VF_EVALUATE_FORMULA_BEGIN|066Q0000000AmBn|#{tempRecord[f.FieldPath]}
11:00:59.0 (414616899)|VF_EVALUATE_FORMULA_END
11:00:59.0 (414704686)|VF_EVALUATE_FORMULA_BEGIN|066Q0000000AmBn|#{tempRecord[f.FieldPath]}
11:00:59.0 (414983779)|VF_EVALUATE_FORMULA_END
11:00:59.0 (415069763)|VF_EVALUATE_FORMULA_BEGIN|066Q0000000AmBn|#{tempRecord[f.FieldPath]}
11:00:59.0 (415403597)|VF_EVALUATE_FORMULA_END
11:00:59.0 (415534911)|VF_EVALUATE_FORMULA_BEGIN|066Q0000000AmBn|#{tempRecord[f.FieldPath]}
11:00:59.0 (415809908)|VF_EVALUATE_FORMULA_END
11:00:59.0 (415842370)|VF_EVALUATE_FORMULA_BEGIN|066Q0000000AmBn|#{tempRecord.RecordType.name == 'Self Storage'}
11:00:59.0 (416097616)|VF_EVALUATE_FORMULA_END
11:00:59.0 (416112998)|VF_EVALUATE_FORMULA_BEGIN|066Q0000000AmBn|#{tempRecord.RecordType.name == 'Senior Housing'}
11:00:59.0 (416306159)|VF_EVALUATE_FORMULA_END
11:00:59.0 (416319577)|VF_EVALUATE_FORMULA_BEGIN|066Q0000000AmBn|#{tempRecord.RecordType.name == 'Student Housing'}
11:00:59.0 (416515209)|VF_EVALUATE_FORMULA_END
11:00:59.0 (416529100)|VF_EVALUATE_FORMULA_BEGIN|066Q0000000AmBn|#{if(tempRecord.RecordType.name = 'Senior Housing', TRUE, FALSE)}
11:00:59.0 (416724479)|VF_EVALUATE_FORMULA_END
11:00:59.0 (416737461)|VF_EVALUATE_FORMULA_BEGIN|066Q0000000AmBn|#{tempRecord.RecordType.name == 'Retail'}
11:00:59.0 (416926137)|VF_EVALUATE_FORMULA_END
11:00:59.0 (416939607)|VF_EVALUATE_FORMULA_BEGIN|066Q0000000AmBn|#{tempRecord.RecordType.name == 'Office' &#124;&#124; tempRecord.RecordType.name == 'Industrial'}
11:00:59.0 (417452259)|VF_EVALUATE_FORMULA_END
11:00:59.0 (417478836)|VF_EVALUATE_FORMULA_BEGIN|066Q0000000AmBn|#{tempRecord.RecordType.name == 'Apartments'}
11:00:59.0 (417802877)|VF_EVALUATE_FORMULA_END
11:00:59.0 (419643322)|VF_EVALUATE_FORMULA_BEGIN|066Q0000000AmBn|#{con.sst[f.afield]}
11:00:59.0 (419968302)|VF_EVALUATE_FORMULA_END
11:00:59.0 (420105122)|VF_EVALUATE_FORMULA_BEGIN|066Q0000000AmBn|#{con.sst[f.bfield]}
11:00:59.0 (420335824)|VF_EVALUATE_FORMULA_END
11:00:59.0 (420408478)|VF_EVALUATE_FORMULA_BEGIN|066Q0000000AmBn|#{con.sst[f.afield]}
11:00:59.0 (420644834)|VF_EVALUATE_FORMULA_END
11:00:59.0 (420702775)|VF_EVALUATE_FORMULA_BEGIN|066Q0000000AmBn|#{con.sst[f.bfield]}
11:00:59.0 (420944194)|VF_EVALUATE_FORMULA_END
11:00:59.0 (421011927)|VF_EVALUATE_FORMULA_BEGIN|066Q0000000AmBn|#{con.sst[f.afield]}
11:00:59.0 (421232445)|VF_EVALUATE_FORMULA_END
11:00:59.0 (421288147)|VF_EVALUATE_FORMULA_BEGIN|066Q0000000AmBn|#{con.sst[f.bfield]}
11:00:59.0 (421517838)|VF_EVALUATE_FORMULA_END
11:00:59.0 (421662074)|VF_EVALUATE_FORMULA_BEGIN|066Q0000000AmBn|#{con.sst[f.afield]}
11:00:59.0 (421875570)|VF_EVALUATE_FORMULA_END
11:00:59.0 (421932962)|VF_EVALUATE_FORMULA_BEGIN|066Q0000000AmBn|#{con.sst[f.bfield]}
11:00:59.0 (422163257)|VF_EVALUATE_FORMULA_END
11:00:59.0 (422237175)|VF_EVALUATE_FORMULA_BEGIN|066Q0000000AmBn|#{con.sst[f.afield]}
11:00:59.0 (422462838)|VF_EVALUATE_FORMULA_END
11:00:59.0 (422520677)|VF_EVALUATE_FORMULA_BEGIN|066Q0000000AmBn|#{con.sst[f.bfield]}
11:00:59.0 (422781178)|VF_EVALUATE_FORMULA_END
11:00:59.0 (422869489)|VF_EVALUATE_FORMULA_BEGIN|066Q0000000AmBn|#{con.sst[f.afield]}
11:00:59.0 (423091302)|VF_EVALUATE_FORMULA_END
11:00:59.0 (423167865)|VF_EVALUATE_FORMULA_BEGIN|066Q0000000AmBn|#{con.sst[f.bfield]}
11:00:59.0 (423487175)|VF_EVALUATE_FORMULA_END
11:00:59.0 (423572289)|VF_EVALUATE_FORMULA_BEGIN|066Q0000000AmBn|#{con.sst[f.afield]}
11:00:59.0 (423838174)|VF_EVALUATE_FORMULA_END
11:00:59.0 (424126414)|VF_EVALUATE_FORMULA_BEGIN|066Q0000000AmBn|#{con.sst[f.bfield]}
11:00:59.0 (424342718)|VF_EVALUATE_FORMULA_END
11:00:59.0 (424411862)|VF_EVALUATE_FORMULA_BEGIN|066Q0000000AmBn|#{con.sst[f.afield]}
11:00:59.0 (424711333)|VF_EVALUATE_FORMULA_END
11:00:59.0 (424840971)|VF_EVALUATE_FORMULA_BEGIN|066Q0000000AmBn|#{con.sst[f.bfield]}
11:00:59.0 (425058443)|VF_EVALUATE_FORMULA_END
11:00:59.0 (425132129)|VF_EVALUATE_FORMULA_BEGIN|066Q0000000AmBn|#{con.sst[f.afield]}
11:00:59.0 (425351460)|VF_EVALUATE_FORMULA_END
11:00:59.0 (425410744)|VF_EVALUATE_FORMULA_BEGIN|066Q0000000AmBn|#{con.sst[f.bfield]}
11:00:59.0 (425637866)|VF_EVALUATE_FORMULA_END
11:00:59.0 (425706434)|VF_EVALUATE_FORMULA_BEGIN|066Q0000000AmBn|#{con.sst[f.afield]}
11:00:59.0 (425925768)|VF_EVALUATE_FORMULA_END
11:00:59.0 (425985218)|VF_EVALUATE_FORMULA_BEGIN|066Q0000000AmBn|#{con.sst[f.bfield]}
11:00:59.0 (426196548)|VF_EVALUATE_FORMULA_END
11:00:59.0 (427363684)|VF_EVALUATE_FORMULA_BEGIN|066Q0000000AmBn|#{con.sst[f.afield]}
11:00:59.0 (427577978)|VF_EVALUATE_FORMULA_END
11:00:59.0 (427707091)|VF_EVALUATE_FORMULA_BEGIN|066Q0000000AmBn|#{con.sst[f.bfield]}
11:00:59.0 (427911855)|VF_EVALUATE_FORMULA_END
11:00:59.0 (428050794)|VF_EVALUATE_FORMULA_BEGIN|066Q0000000AmBn|#{con.sst[f.afield]}
11:00:59.0 (428257985)|VF_EVALUATE_FORMULA_END
11:00:59.0 (428314719)|VF_EVALUATE_FORMULA_BEGIN|066Q0000000AmBn|#{con.sst[f.bfield]}
11:00:59.0 (428535950)|VF_EVALUATE_FORMULA_END
11:00:59.0 (428677663)|VF_EVALUATE_FORMULA_BEGIN|066Q0000000AmBn|#{con.sst[f.afield]}
11:00:59.0 (428882098)|VF_EVALUATE_FORMULA_END
11:00:59.0 (428938477)|VF_EVALUATE_FORMULA_BEGIN|066Q0000000AmBn|#{con.sst[f.bfield]}
11:00:59.0 (429230772)|VF_EVALUATE_FORMULA_END
11:00:59.0 (429386962)|VF_EVALUATE_FORMULA_BEGIN|066Q0000000AmBn|#{con.sst[f.afield]}
11:00:59.0 (429641144)|VF_EVALUATE_FORMULA_END
11:00:59.0 (429802447)|VF_EVALUATE_FORMULA_BEGIN|066Q0000000AmBn|#{con.sst[f.bfield]}
11:00:59.0 (430149850)|VF_EVALUATE_FORMULA_END
11:00:59.0 (430227725)|VF_EVALUATE_FORMULA_BEGIN|066Q0000000AmBn|#{con.sst[f.afield]}
11:00:59.0 (430545040)|VF_EVALUATE_FORMULA_END
11:00:59.0 (430606512)|VF_EVALUATE_FORMULA_BEGIN|066Q0000000AmBn|#{con.sst[f.bfield]}
11:00:59.0 (430823340)|VF_EVALUATE_FORMULA_END
11:00:59.0 (430892760)|VF_EVALUATE_FORMULA_BEGIN|066Q0000000AmBn|#{con.sst[f.afield]}
11:00:59.0 (431150496)|VF_EVALUATE_FORMULA_END
11:00:59.0 (431211283)|VF_EVALUATE_FORMULA_BEGIN|066Q0000000AmBn|#{con.sst[f.bfield]}
11:00:59.0 (431586387)|VF_EVALUATE_FORMULA_END
11:00:59.0 (431683590)|VF_EVALUATE_FORMULA_BEGIN|066Q0000000AmBn|#{con.sst[f.afield]}
11:00:59.0 (432054779)|VF_EVALUATE_FORMULA_END
11:00:59.0 (432451466)|VF_EVALUATE_FORMULA_BEGIN|066Q0000000AmBn|#{con.sst[f.bfield]}
11:00:59.0 (432842026)|VF_EVALUATE_FORMULA_END
11:00:59.0 (432941451)|VF_EVALUATE_FORMULA_BEGIN|066Q0000000AmBn|#{con.sst[f.afield]}
11:00:59.0 (433333149)|VF_EVALUATE_FORMULA_END
11:00:59.0 (433543374)|VF_EVALUATE_FORMULA_BEGIN|066Q0000000AmBn|#{con.sst[f.bfield]}
11:00:59.0 (433914597)|VF_EVALUATE_FORMULA_END
11:00:59.0 (433991327)|VF_EVALUATE_FORMULA_BEGIN|066Q0000000AmBn|#{con.sst[f.afield]}
11:00:59.0 (434213437)|VF_EVALUATE_FORMULA_END
11:00:59.0 (434271509)|VF_EVALUATE_FORMULA_BEGIN|066Q0000000AmBn|#{con.sst[f.bfield]}
11:00:59.0 (434492896)|VF_EVALUATE_FORMULA_END
11:00:59.0 (434561728)|VF_EVALUATE_FORMULA_BEGIN|066Q0000000AmBn|#{con.sst[f.afield]}
11:00:59.0 (434784789)|VF_EVALUATE_FORMULA_END
11:00:59.0 (434845232)|VF_EVALUATE_FORMULA_BEGIN|066Q0000000AmBn|#{con.sst[f.bfield]}
11:00:59.0 (435097735)|VF_EVALUATE_FORMULA_END
11:00:59.0 (436273296)|VF_EVALUATE_FORMULA_BEGIN|066Q0000000AmBn|#{con.sst[f.afield]}
11:00:59.0 (436565189)|VF_EVALUATE_FORMULA_END
11:00:59.0 (436721477)|VF_EVALUATE_FORMULA_BEGIN|066Q0000000AmBn|#{con.sst[f.bfield]}
11:00:59.0 (436935362)|VF_EVALUATE_FORMULA_END
11:00:59.0 (437006955)|VF_EVALUATE_FORMULA_BEGIN|066Q0000000AmBn|#{con.sst[f.afield]}
11:00:59.0 (437224554)|VF_EVALUATE_FORMULA_END
11:00:59.0 (437280742)|VF_EVALUATE_FORMULA_BEGIN|066Q0000000AmBn|#{con.sst[f.bfield]}
11:00:59.0 (437500952)|VF_EVALUATE_FORMULA_END
11:00:59.0 (437567207)|VF_EVALUATE_FORMULA_BEGIN|066Q0000000AmBn|#{con.sst[f.afield]}
11:00:59.0 (437788883)|VF_EVALUATE_FORMULA_END
11:00:59.0 (437871744)|VF_EVALUATE_FORMULA_BEGIN|066Q0000000AmBn|#{con.sst[f.bfield]}
11:00:59.0 (438126876)|VF_EVALUATE_FORMULA_END
11:00:59.0 (438196928)|VF_EVALUATE_FORMULA_BEGIN|066Q0000000AmBn|#{con.sst[f.afield]}
11:00:59.0 (438412756)|VF_EVALUATE_FORMULA_END
11:00:59.0 (438475198)|VF_EVALUATE_FORMULA_BEGIN|066Q0000000AmBn|#{con.sst[f.bfield]}
11:00:59.0 (438733459)|VF_EVALUATE_FORMULA_END
11:00:59.0 (438805441)|VF_EVALUATE_FORMULA_BEGIN|066Q0000000AmBn|#{con.sst[f.afield]}
11:00:59.0 (439108707)|VF_EVALUATE_FORMULA_END
11:00:59.0 (439177097)|VF_EVALUATE_FORMULA_BEGIN|066Q0000000AmBn|#{con.sst[f.bfield]}
11:00:59.0 (439465088)|VF_EVALUATE_FORMULA_END
11:00:59.0 (439570392)|VF_EVALUATE_FORMULA_BEGIN|066Q0000000AmBn|#{con.sst[f.afield]}
11:00:59.0 (439942715)|VF_EVALUATE_FORMULA_END
11:00:59.0 (440031082)|VF_EVALUATE_FORMULA_BEGIN|066Q0000000AmBn|#{con.sst[f.bfield]}
11:00:59.0 (440432719)|VF_EVALUATE_FORMULA_END
11:00:59.0 (440544374)|VF_EVALUATE_FORMULA_BEGIN|066Q0000000AmBn|#{con.sst[f.afield]}
11:00:59.0 (440933572)|VF_EVALUATE_FORMULA_END
11:00:59.0 (441436415)|VF_EVALUATE_FORMULA_BEGIN|066Q0000000AmBn|#{con.sst[f.bfield]}
11:00:59.0 (441817461)|VF_EVALUATE_FORMULA_END
11:00:59.0 (441920736)|VF_EVALUATE_FORMULA_BEGIN|066Q0000000AmBn|#{con.sst[f.afield]}
11:00:59.0 (442321511)|VF_EVALUATE_FORMULA_END
11:00:59.0 (442462921)|VF_EVALUATE_FORMULA_BEGIN|066Q0000000AmBn|#{con.sst[f.bfield]}
11:00:59.0 (442683401)|VF_EVALUATE_FORMULA_END
11:00:59.0 (442758993)|VF_EVALUATE_FORMULA_BEGIN|066Q0000000AmBn|#{con.sst[f.afield]}
11:00:59.0 (442974827)|VF_EVALUATE_FORMULA_END
11:00:59.0 (443032191)|VF_EVALUATE_FORMULA_BEGIN|066Q0000000AmBn|#{con.sst[f.bfield]}
11:00:59.0 (443249675)|VF_EVALUATE_FORMULA_END
11:00:59.0 (443318131)|VF_EVALUATE_FORMULA_BEGIN|066Q0000000AmBn|#{con.sst[f.afield]}
11:00:59.0 (443540853)|VF_EVALUATE_FORMULA_END
11:00:59.0 (443602553)|VF_EVALUATE_FORMULA_BEGIN|066Q0000000AmBn|#{con.sst[f.bfield]}
11:00:59.0 (443931849)|VF_EVALUATE_FORMULA_END
11:00:59.0 (449643243)|VF_EVALUATE_FORMULA_BEGIN|066Q0000000AmBn|#{tempRecord.RecordType.name == 'Affordable'}
11:00:59.0 (449954354)|VF_EVALUATE_FORMULA_END
11:00:59.0 (449972833)|VF_EVALUATE_FORMULA_BEGIN|066Q0000000AmBn|#{tempRecord.RecordType.name == 'Industrial' &#124;&#124; tempRecord.RecordType.name == 'Apartments' &#124;&#124; tempRecord.RecordType.name == 'Affordable' &#124;&#124; tempRecord.RecordType.name == 'Senior Housing' &#124;&#124; tempRecord.RecordType.name == 'Self Storage' &#124;&#124; tempRecord.RecordType.name == 'Student Housing'}
11:00:59.0 (450357956)|VF_EVALUATE_FORMULA_END
11:00:59.0 (453485699)|VF_EVALUATE_FORMULA_BEGIN|066Q0000000AmBn|#{if(tempRecord.RecordType.name = 'Affordable', TRUE, FALSE)}
11:00:59.0 (453837927)|VF_EVALUATE_FORMULA_END
11:00:59.0 (481931507)|VF_EVALUATE_FORMULA_BEGIN|066Q0000000AmBn|#{IF(tempRecord.RecordType.name == 'Apartments' &#124;&#124; tempRecord.RecordType.name == 'Affordable', TRUE, FALSE)}
11:00:59.0 (482296044)|VF_EVALUATE_FORMULA_END
11:00:59.487 (487785796)|VF_APEX_CALL_START|[EXTERNAL]|/apexpage/pagemessagescomponentcontroller.apex set(conEscape,null)
11:00:59.487 (488134318)|SYSTEM_MODE_ENTER|true
11:00:59.487 (488165842)|VF_APEX_CALL_START|[EXTERNAL]|PageMessagesComponentController set(conEscape,null)
11:00:59.487 (488217827)|VF_APEX_CALL_START|[EXTERNAL]|PageMessagesComponentController invoke(setconEscape)
11:00:59.0 (490485441)|VF_EVALUATE_FORMULA_BEGIN|066Q0000000AmBn|#{f.fieldPath == 'Work_Phone__c' &#124;&#124; f.fieldPath == 'Mobile_Phone__c'}
11:00:59.0 (490560720)|VF_EVALUATE_FORMULA_END
11:00:59.0 (490835935)|VF_EVALUATE_FORMULA_BEGIN|066Q0000000AmBn|#{f.fieldPath == 'Work_Phone__c' &#124;&#124; f.fieldPath == 'Mobile_Phone__c'}
11:00:59.0 (490889313)|VF_EVALUATE_FORMULA_END
11:00:59.0 (491111734)|VF_EVALUATE_FORMULA_BEGIN|066Q0000000AmBn|#{con.rcon[f.FieldPath]}
11:00:59.0 (491315542)|VF_EVALUATE_FORMULA_END
11:00:59.0 (491652830)|VF_EVALUATE_FORMULA_BEGIN|066Q0000000AmBn|#{f.fieldPath == 'Work_Phone__c' &#124;&#124; f.fieldPath == 'Mobile_Phone__c'}
11:00:59.0 (491697684)|VF_EVALUATE_FORMULA_END
11:00:59.0 (491864871)|VF_EVALUATE_FORMULA_BEGIN|066Q0000000AmBn|#{con.rcon[f.FieldPath]}
11:00:59.0 (492060688)|VF_EVALUATE_FORMULA_END
11:00:59.0 (492419373)|VF_EVALUATE_FORMULA_BEGIN|066Q0000000AmBn|#{f.fieldPath == 'Work_Phone__c' &#124;&#124; f.fieldPath == 'Mobile_Phone__c'}
11:00:59.0 (492496192)|VF_EVALUATE_FORMULA_END
11:00:59.0 (492762794)|VF_EVALUATE_FORMULA_BEGIN|066Q0000000AmBn|#{f.fieldPath == 'Work_Phone__c' &#124;&#124; f.fieldPath == 'Mobile_Phone__c'}
11:00:59.0 (492805711)|VF_EVALUATE_FORMULA_END
11:00:59.0 (493617096)|VF_EVALUATE_FORMULA_BEGIN|066Q0000000AmBn|#{f.fieldPath == 'Work_Phone__c' &#124;&#124; f.fieldPath == 'Mobile_Phone__c'}
11:00:59.0 (493663519)|VF_EVALUATE_FORMULA_END
11:00:59.0 (493894040)|VF_EVALUATE_FORMULA_BEGIN|066Q0000000AmBn|#{f.fieldPath == 'Work_Phone__c' &#124;&#124; f.fieldPath == 'Mobile_Phone__c'}
11:00:59.0 (493926810)|VF_EVALUATE_FORMULA_END
11:00:59.0 (494084815)|VF_EVALUATE_FORMULA_BEGIN|066Q0000000AmBn|#{con.rcon[f.FieldPath]}
11:00:59.0 (494272639)|VF_EVALUATE_FORMULA_END
11:00:59.0 (494565924)|VF_EVALUATE_FORMULA_BEGIN|066Q0000000AmBn|#{f.fieldPath == 'Work_Phone__c' &#124;&#124; f.fieldPath == 'Mobile_Phone__c'}
11:00:59.0 (494608696)|VF_EVALUATE_FORMULA_END
11:00:59.0 (494769946)|VF_EVALUATE_FORMULA_BEGIN|066Q0000000AmBn|#{con.rcon[f.FieldPath]}
11:00:59.0 (494955368)|VF_EVALUATE_FORMULA_END
11:00:59.0 (495234107)|VF_EVALUATE_FORMULA_BEGIN|066Q0000000AmBn|#{f.fieldPath == 'Work_Phone__c' &#124;&#124; f.fieldPath == 'Mobile_Phone__c'}
11:00:59.0 (495277957)|VF_EVALUATE_FORMULA_END
11:00:59.0 (495587061)|VF_EVALUATE_FORMULA_BEGIN|066Q0000000AmBn|#{f.fieldPath == 'Work_Phone__c' &#124;&#124; f.fieldPath == 'Mobile_Phone__c'}
11:00:59.0 (495638100)|VF_EVALUATE_FORMULA_END
11:00:59.0 (496919287)|VF_EVALUATE_FORMULA_BEGIN|066Q0000000AmBn|#{f.fieldPath == 'Work_Phone__c' &#124;&#124; f.fieldPath == 'Mobile_Phone__c'}
11:00:59.0 (496999311)|VF_EVALUATE_FORMULA_END
11:00:59.0 (497354564)|VF_EVALUATE_FORMULA_BEGIN|066Q0000000AmBn|#{f.fieldPath == 'Work_Phone__c' &#124;&#124; f.fieldPath == 'Mobile_Phone__c'}
11:00:59.0 (497390441)|VF_EVALUATE_FORMULA_END
11:00:59.0 (497591614)|VF_EVALUATE_FORMULA_BEGIN|066Q0000000AmBn|#{con.rcon[f.FieldPath]}
11:00:59.0 (497823279)|VF_EVALUATE_FORMULA_END
11:00:59.0 (498110159)|VF_EVALUATE_FORMULA_BEGIN|066Q0000000AmBn|#{f.fieldPath == 'Work_Phone__c' &#124;&#124; f.fieldPath == 'Mobile_Phone__c'}
11:00:59.0 (498154817)|VF_EVALUATE_FORMULA_END
11:00:59.0 (498308120)|VF_EVALUATE_FORMULA_BEGIN|066Q0000000AmBn|#{con.rcon[f.FieldPath]}
11:00:59.0 (498510091)|VF_EVALUATE_FORMULA_END
11:00:59.0 (498792342)|VF_EVALUATE_FORMULA_BEGIN|066Q0000000AmBn|#{f.fieldPath == 'Work_Phone__c' &#124;&#124; f.fieldPath == 'Mobile_Phone__c'}
11:00:59.0 (498840240)|VF_EVALUATE_FORMULA_END
11:00:59.0 (499084798)|VF_EVALUATE_FORMULA_BEGIN|066Q0000000AmBn|#{f.fieldPath == 'Work_Phone__c' &#124;&#124; f.fieldPath == 'Mobile_Phone__c'}
11:00:59.0 (499128340)|VF_EVALUATE_FORMULA_END
11:00:59.0 (512516116)|VF_EVALUATE_FORMULA_BEGIN|066Q0000000AmBn|#{tempRecord.RecordType.name == 'Self Storage'}
11:00:59.0 (512855748)|VF_EVALUATE_FORMULA_END
11:00:59.0 (512875976)|VF_EVALUATE_FORMULA_BEGIN|066Q0000000AmBn|#{tempRecord.RecordType.name == 'Senior Housing'}
11:00:59.0 (513108072)|VF_EVALUATE_FORMULA_END
11:00:59.0 (513126662)|VF_EVALUATE_FORMULA_BEGIN|066Q0000000AmBn|#{tempRecord.RecordType.name == 'Student Housing'}
11:00:59.0 (513342085)|VF_EVALUATE_FORMULA_END
11:00:59.0 (513356430)|VF_EVALUATE_FORMULA_BEGIN|066Q0000000AmBn|#{if(tempRecord.RecordType.name = 'Senior Housing', TRUE, FALSE)}
11:00:59.0 (513678897)|VF_EVALUATE_FORMULA_END
11:00:59.0 (513697785)|VF_EVALUATE_FORMULA_BEGIN|066Q0000000AmBn|#{tempRecord.RecordType.name == 'Retail'}
11:00:59.0 (513924473)|VF_EVALUATE_FORMULA_END
11:00:59.0 (513938643)|VF_EVALUATE_FORMULA_BEGIN|066Q0000000AmBn|#{tempRecord.RecordType.name == 'Office' &#124;&#124; tempRecord.RecordType.name == 'Industrial'}
11:00:59.0 (514389430)|VF_EVALUATE_FORMULA_END
11:00:59.0 (514414184)|VF_EVALUATE_FORMULA_BEGIN|066Q0000000AmBn|#{tempRecord.RecordType.name == 'Apartments'}
11:00:59.0 (514654444)|VF_EVALUATE_FORMULA_END
11:00:59.0 (529382124)|VF_EVALUATE_FORMULA_BEGIN|066Q0000000AmBn|#{tempRecord.RecordType.name == 'Affordable'}
11:00:59.0 (529658185)|VF_EVALUATE_FORMULA_END
11:00:59.0 (529675665)|VF_EVALUATE_FORMULA_BEGIN|066Q0000000AmBn|#{tempRecord.RecordType.name == 'Industrial' &#124;&#124; tempRecord.RecordType.name == 'Apartments' &#124;&#124; tempRecord.RecordType.name == 'Affordable' &#124;&#124; tempRecord.RecordType.name == 'Senior Housing' &#124;&#124; tempRecord.RecordType.name == 'Self Storage' &#124;&#124; tempRecord.RecordType.name == 'Student Housing'}
11:00:59.0 (530057461)|VF_EVALUATE_FORMULA_END
11:00:59.0 (530809923)|VF_EVALUATE_FORMULA_BEGIN|066Q0000000AmBn|#{if(tempRecord.RecordType.name = 'Affordable', TRUE, FALSE)}
11:00:59.0 (531006635)|VF_EVALUATE_FORMULA_END
11:00:59.0 (540622685)|VF_EVALUATE_FORMULA_BEGIN|066Q0000000AmBn|#{IF(tempRecord.RecordType.name == 'Apartments' &#124;&#124; tempRecord.RecordType.name == 'Affordable', TRUE, FALSE)}
11:00:59.0 (540904282)|VF_EVALUATE_FORMULA_END
11:00:59.606 (606630538)|VF_APEX_CALL_START|[EXTERNAL]|/apexpage/pagemessagescomponentcontroller.apex set(conEscape,null)
11:00:59.606 (606690964)|SYSTEM_MODE_ENTER|true
11:00:59.606 (606716061)|VF_APEX_CALL_START|[EXTERNAL]|PageMessagesComponentController set(conEscape,null)
11:00:59.606 (606764359)|VF_APEX_CALL_START|[EXTERNAL]|PageMessagesComponentController invoke(setconEscape)
11:00:59.606 (606976760)|VF_APEX_CALL_START|[EXTERNAL]|/apexpage/pagemessagescomponentcontroller.apex get(severities)
11:00:59.606 (606996796)|SYSTEM_MODE_ENTER|true
11:00:59.606 (607015741)|VF_APEX_CALL_START|[EXTERNAL]|PageMessagesComponentController invoke(getseverities)
11:00:59.0 (607578763)|VF_APEX_CALL_START|[EXTERNAL]|01pQ0000000I7sk|PropertySurveyOverrideController get(tempRecord)
11:00:59.0 (607597121)|SYSTEM_MODE_ENTER|true
11:00:59.0 (607610100)|VF_APEX_CALL_START|[EXTERNAL]|01pQ0000000I7sk|tempRecord
11:00:59.0 (607629540)|VF_APEX_CALL_END|tempRecord
11:00:59.0 (607644413)|VF_APEX_CALL_END|PropertySurveyOverrideController get(tempRecord)
11:00:59.0 (609629462)|VF_APEX_CALL_START|[EXTERNAL]|01pQ0000000I7sk|PropertySurveyOverrideController get(SurveyContactFields)
11:00:59.0 (609649160)|SYSTEM_MODE_ENTER|true
11:00:59.0 (609664388)|VF_APEX_CALL_START|[EXTERNAL]|01pQ0000000I7sk|PropertySurveyOverrideController invoke(getSurveyContactFields)
11:00:59.0 (611173884)|VF_APEX_CALL_END|PropertySurveyOverrideController invoke(getSurveyContactFields)
11:00:59.0 (611202899)|VF_APEX_CALL_END|PropertySurveyOverrideController get(SurveyContactFields)
11:00:59.0 (611814970)|VF_APEX_CALL_START|[EXTERNAL]|01pQ0000000I7sk|PropertySurveyOverrideController get(contactList)
11:00:59.0 (611833662)|SYSTEM_MODE_ENTER|true
11:00:59.0 (611846291)|VF_APEX_CALL_START|[EXTERNAL]|01pQ0000000I7sk|contactList
11:00:59.0 (611865457)|VF_APEX_CALL_END|contactList
11:00:59.0 (611880486)|VF_APEX_CALL_END|PropertySurveyOverrideController get(contactList)
11:00:59.0 (612077916)|VF_APEX_CALL_START|[EXTERNAL]|01pQ0000000RFtf|con
11:00:59.0 (612097918)|VF_APEX_CALL_END|con
11:00:59.0 (613320929)|VF_APEX_CALL_START|[EXTERNAL]|01pQ0000000RFtf|rcon
11:00:59.0 (613339501)|VF_APEX_CALL_END|rcon
11:00:59.0 (613968395)|VF_APEX_CALL_START|[EXTERNAL]|01pQ0000000I7sk|PropertySurveyOverrideController get(ReisContactFields)
11:00:59.0 (613986420)|SYSTEM_MODE_ENTER|true
11:00:59.0 (614003071)|VF_APEX_CALL_START|[EXTERNAL]|01pQ0000000I7sk|PropertySurveyOverrideController invoke(getReisContactFields)
11:00:59.0 (615232602)|VF_APEX_CALL_END|PropertySurveyOverrideController invoke(getReisContactFields)
11:00:59.0 (615256884)|VF_APEX_CALL_END|PropertySurveyOverrideController get(ReisContactFields)
11:00:59.0 (616614610)|VF_EVALUATE_FORMULA_BEGIN|066Q0000000AmBn|#{f.fieldPath == 'Work_Phone__c' &#124;&#124; f.fieldPath == 'Mobile_Phone__c'}
11:00:59.0 (616669281)|VF_EVALUATE_FORMULA_END
11:00:59.0 (617108608)|VF_EVALUATE_FORMULA_BEGIN|066Q0000000AmBn|#{f.fieldPath == 'Work_Phone__c' &#124;&#124; f.fieldPath == 'Mobile_Phone__c'}
11:00:59.0 (617145682)|VF_EVALUATE_FORMULA_END
11:00:59.0 (617193325)|VF_EVALUATE_FORMULA_BEGIN|066Q0000000AmBn|#{f.fieldPath == 'Work_Phone__c' &#124;&#124; f.fieldPath == 'Mobile_Phone__c'}
11:00:59.0 (617224735)|VF_EVALUATE_FORMULA_END
11:00:59.0 (617413494)|VF_EVALUATE_FORMULA_BEGIN|066Q0000000AmBn|#{con.rcon[f.FieldPath]}
11:00:59.0 (617637145)|VF_EVALUATE_FORMULA_END
11:00:59.0 (618108179)|VF_EVALUATE_FORMULA_BEGIN|066Q0000000AmBn|#{f.fieldPath == 'Work_Phone__c' &#124;&#124; f.fieldPath == 'Mobile_Phone__c'}
11:00:59.0 (618154146)|VF_EVALUATE_FORMULA_END
11:00:59.0 (618187104)|VF_EVALUATE_FORMULA_BEGIN|066Q0000000AmBn|#{f.fieldPath == 'Work_Phone__c' &#124;&#124; f.fieldPath == 'Mobile_Phone__c'}
11:00:59.0 (618227770)|VF_EVALUATE_FORMULA_END
11:00:59.0 (618372269)|VF_EVALUATE_FORMULA_BEGIN|066Q0000000AmBn|#{con.rcon[f.FieldPath]}
11:00:59.0 (618571593)|VF_EVALUATE_FORMULA_END
11:00:59.0 (619086341)|VF_EVALUATE_FORMULA_BEGIN|066Q0000000AmBn|#{f.fieldPath == 'Work_Phone__c' &#124;&#124; f.fieldPath == 'Mobile_Phone__c'}
11:00:59.0 (619131657)|VF_EVALUATE_FORMULA_END
11:00:59.0 (619699624)|VF_EVALUATE_FORMULA_BEGIN|066Q0000000AmBn|#{f.fieldPath == 'Work_Phone__c' &#124;&#124; f.fieldPath == 'Mobile_Phone__c'}
11:00:59.0 (619745883)|VF_EVALUATE_FORMULA_END
11:00:59.0 (619864617)|VF_APEX_CALL_START|[EXTERNAL]|01pQ0000000RFtf|con
11:00:59.0 (619892643)|VF_APEX_CALL_END|con
11:00:59.0 (620651021)|VF_APEX_CALL_START|[EXTERNAL]|01pQ0000000RFtf|rcon
11:00:59.0 (620668889)|VF_APEX_CALL_END|rcon
11:00:59.0 (621959485)|VF_EVALUATE_FORMULA_BEGIN|066Q0000000AmBn|#{f.fieldPath == 'Work_Phone__c' &#124;&#124; f.fieldPath == 'Mobile_Phone__c'}
11:00:59.0 (622006976)|VF_EVALUATE_FORMULA_END
11:00:59.0 (622417734)|VF_EVALUATE_FORMULA_BEGIN|066Q0000000AmBn|#{f.fieldPath == 'Work_Phone__c' &#124;&#124; f.fieldPath == 'Mobile_Phone__c'}
11:00:59.0 (622452919)|VF_EVALUATE_FORMULA_END
11:00:59.0 (622493270)|VF_EVALUATE_FORMULA_BEGIN|066Q0000000AmBn|#{f.fieldPath == 'Work_Phone__c' &#124;&#124; f.fieldPath == 'Mobile_Phone__c'}
11:00:59.0 (622529207)|VF_EVALUATE_FORMULA_END
11:00:59.0 (622701921)|VF_EVALUATE_FORMULA_BEGIN|066Q0000000AmBn|#{con.rcon[f.FieldPath]}
11:00:59.0 (622903240)|VF_EVALUATE_FORMULA_END
11:00:59.0 (623361409)|VF_EVALUATE_FORMULA_BEGIN|066Q0000000AmBn|#{f.fieldPath == 'Work_Phone__c' &#124;&#124; f.fieldPath == 'Mobile_Phone__c'}
11:00:59.0 (623407375)|VF_EVALUATE_FORMULA_END
11:00:59.0 (623440086)|VF_EVALUATE_FORMULA_BEGIN|066Q0000000AmBn|#{f.fieldPath == 'Work_Phone__c' &#124;&#124; f.fieldPath == 'Mobile_Phone__c'}
11:00:59.0 (623479793)|VF_EVALUATE_FORMULA_END
11:00:59.0 (623629304)|VF_EVALUATE_FORMULA_BEGIN|066Q0000000AmBn|#{con.rcon[f.FieldPath]}
11:00:59.0 (623820190)|VF_EVALUATE_FORMULA_END
11:00:59.0 (624324823)|VF_EVALUATE_FORMULA_BEGIN|066Q0000000AmBn|#{f.fieldPath == 'Work_Phone__c' &#124;&#124; f.fieldPath == 'Mobile_Phone__c'}
11:00:59.0 (624369993)|VF_EVALUATE_FORMULA_END
11:00:59.0 (624940546)|VF_EVALUATE_FORMULA_BEGIN|066Q0000000AmBn|#{f.fieldPath == 'Work_Phone__c' &#124;&#124; f.fieldPath == 'Mobile_Phone__c'}
11:00:59.0 (624986004)|VF_EVALUATE_FORMULA_END
11:00:59.0 (625100548)|VF_APEX_CALL_START|[EXTERNAL]|01pQ0000000RFtf|con
11:00:59.0 (625124753)|VF_APEX_CALL_END|con
11:00:59.0 (625844821)|VF_APEX_CALL_START|[EXTERNAL]|01pQ0000000RFtf|rcon
11:00:59.0 (625863513)|VF_APEX_CALL_END|rcon
11:00:59.0 (627962877)|VF_EVALUATE_FORMULA_BEGIN|066Q0000000AmBn|#{f.fieldPath == 'Work_Phone__c' &#124;&#124; f.fieldPath == 'Mobile_Phone__c'}
11:00:59.0 (628017038)|VF_EVALUATE_FORMULA_END
11:00:59.0 (628653340)|VF_EVALUATE_FORMULA_BEGIN|066Q0000000AmBn|#{f.fieldPath == 'Work_Phone__c' &#124;&#124; f.fieldPath == 'Mobile_Phone__c'}
11:00:59.0 (628689324)|VF_EVALUATE_FORMULA_END
11:00:59.0 (628732906)|VF_EVALUATE_FORMULA_BEGIN|066Q0000000AmBn|#{f.fieldPath == 'Work_Phone__c' &#124;&#124; f.fieldPath == 'Mobile_Phone__c'}
11:00:59.0 (628764546)|VF_EVALUATE_FORMULA_END
11:00:59.0 (628943482)|VF_EVALUATE_FORMULA_BEGIN|066Q0000000AmBn|#{con.rcon[f.FieldPath]}
11:00:59.0 (629149540)|VF_EVALUATE_FORMULA_END
11:00:59.0 (629835142)|VF_EVALUATE_FORMULA_BEGIN|066Q0000000AmBn|#{f.fieldPath == 'Work_Phone__c' &#124;&#124; f.fieldPath == 'Mobile_Phone__c'}
11:00:59.0 (629881468)|VF_EVALUATE_FORMULA_END
11:00:59.0 (629915610)|VF_EVALUATE_FORMULA_BEGIN|066Q0000000AmBn|#{f.fieldPath == 'Work_Phone__c' &#124;&#124; f.fieldPath == 'Mobile_Phone__c'}
11:00:59.0 (629956596)|VF_EVALUATE_FORMULA_END
11:00:59.0 (630100552)|VF_EVALUATE_FORMULA_BEGIN|066Q0000000AmBn|#{con.rcon[f.FieldPath]}
11:00:59.0 (630295971)|VF_EVALUATE_FORMULA_END
11:00:59.0 (631033772)|VF_EVALUATE_FORMULA_BEGIN|066Q0000000AmBn|#{f.fieldPath == 'Work_Phone__c' &#124;&#124; f.fieldPath == 'Mobile_Phone__c'}
11:00:59.0 (631080704)|VF_EVALUATE_FORMULA_END
11:00:59.0 (631874233)|VF_EVALUATE_FORMULA_BEGIN|066Q0000000AmBn|#{f.fieldPath == 'Work_Phone__c' &#124;&#124; f.fieldPath == 'Mobile_Phone__c'}
11:00:59.0 (631921651)|VF_EVALUATE_FORMULA_END
11:00:59.0 (632082594)|VF_APEX_CALL_START|[EXTERNAL]|01pQ0000000I7sk|PropertySurveyOverrideController get(LocationFields)
11:00:59.0 (632113119)|SYSTEM_MODE_ENTER|true
11:00:59.0 (632146059)|VF_APEX_CALL_START|[EXTERNAL]|01pQ0000000I7sk|PropertySurveyOverrideController invoke(getLocationFields)
11:00:59.0 (633744296)|VF_APEX_CALL_END|PropertySurveyOverrideController invoke(getLocationFields)
11:00:59.0 (633773581)|VF_APEX_CALL_END|PropertySurveyOverrideController get(LocationFields)
11:00:59.0 (659559936)|VF_APEX_CALL_START|[EXTERNAL]|01pQ0000000I7sk|PropertySurveyOverrideController get(InformationFields)
11:00:59.0 (659588623)|SYSTEM_MODE_ENTER|true
11:00:59.0 (659613720)|VF_APEX_CALL_START|[EXTERNAL]|01pQ0000000I7sk|PropertySurveyOverrideController invoke(getInformationFields)
11:00:59.0 (661193048)|VF_APEX_CALL_END|PropertySurveyOverrideController invoke(getInformationFields)
11:00:59.0 (661219908)|VF_APEX_CALL_END|PropertySurveyOverrideController get(InformationFields)
11:00:59.0 (678965023)|VF_EVALUATE_FORMULA_BEGIN|066Q0000000AmBn|#{tempRecord.RecordType.name == 'Self Storage'}
11:00:59.0 (679239028)|VF_EVALUATE_FORMULA_END
11:00:59.0 (679257455)|VF_EVALUATE_FORMULA_BEGIN|066Q0000000AmBn|#{tempRecord.RecordType.name == 'Senior Housing'}
11:00:59.0 (679460274)|VF_EVALUATE_FORMULA_END
11:00:59.0 (679475815)|VF_EVALUATE_FORMULA_BEGIN|066Q0000000AmBn|#{tempRecord.RecordType.name == 'Student Housing'}
11:00:59.0 (679675864)|VF_EVALUATE_FORMULA_END
11:00:59.0 (679700189)|VF_EVALUATE_FORMULA_BEGIN|066Q0000000AmBn|#{if(tempRecord.RecordType.name = 'Senior Housing', TRUE, FALSE)}
11:00:59.0 (679894911)|VF_EVALUATE_FORMULA_END
11:00:59.0 (679909114)|VF_EVALUATE_FORMULA_BEGIN|066Q0000000AmBn|#{tempRecord.RecordType.name == 'Retail'}
11:00:59.0 (680101033)|VF_EVALUATE_FORMULA_END
11:00:59.0 (680116568)|VF_EVALUATE_FORMULA_BEGIN|066Q0000000AmBn|#{tempRecord.RecordType.name == 'Office' &#124;&#124; tempRecord.RecordType.name == 'Industrial'}
11:00:59.0 (680489757)|VF_EVALUATE_FORMULA_END
11:00:59.0 (680504301)|VF_EVALUATE_FORMULA_BEGIN|066Q0000000AmBn|#{tempRecord.RecordType.name == 'Apartments'}
11:00:59.0 (680694027)|VF_EVALUATE_FORMULA_END
11:00:59.0 (680784623)|VF_APEX_CALL_START|[EXTERNAL]|01pQ0000000I7sk|PropertySurveyOverrideController get(FloorpanHeaderFields)
11:00:59.0 (680804152)|SYSTEM_MODE_ENTER|true
11:00:59.0 (680826470)|VF_APEX_CALL_START|[EXTERNAL]|01pQ0000000I7sk|PropertySurveyOverrideController invoke(getFloorpanHeaderFields)
11:00:59.0 (683206665)|VF_APEX_CALL_END|PropertySurveyOverrideController invoke(getFloorpanHeaderFields)
11:00:59.0 (683276871)|VF_APEX_CALL_END|PropertySurveyOverrideController get(FloorpanHeaderFields)
11:00:59.0 (684584701)|VF_APEX_CALL_START|[EXTERNAL]|01pQ0000000I7sk|PropertySurveyOverrideController get(floorplans)
11:00:59.0 (684616094)|SYSTEM_MODE_ENTER|true
11:00:59.0 (684643437)|VF_APEX_CALL_START|[EXTERNAL]|01pQ0000000I7sk|floorplans
11:00:59.0 (684726355)|VF_APEX_CALL_END|floorplans
11:00:59.0 (684755749)|VF_APEX_CALL_END|PropertySurveyOverrideController get(floorplans)
11:00:59.0 (685023870)|VF_APEX_CALL_START|[EXTERNAL]|01pQ0000000I7sk|sst
11:00:59.0 (685057049)|VF_APEX_CALL_END|sst
11:00:59.0 (686451797)|VF_APEX_CALL_START|[EXTERNAL]|01pQ0000000I7sk|PropertySurveyOverrideController get(FloorPlanFields)
11:00:59.0 (686470781)|SYSTEM_MODE_ENTER|true
11:00:59.0 (686493280)|VF_APEX_CALL_START|[EXTERNAL]|01pQ0000000I7sk|PropertySurveyOverrideController invoke(getFloorPlanFields)
11:00:59.0 (691699583)|VF_APEX_CALL_END|PropertySurveyOverrideController invoke(getFloorPlanFields)
11:00:59.0 (691776240)|VF_APEX_CALL_END|PropertySurveyOverrideController get(FloorPlanFields)
11:00:59.0 (692724950)|VF_APEX_CALL_START|[EXTERNAL]|01pQ0000000I7sk|afield
11:00:59.0 (692756041)|VF_APEX_CALL_END|afield
11:00:59.0 (693395048)|VF_APEX_CALL_START|[EXTERNAL]|01pQ0000000I7sk|bfield
11:00:59.0 (693414539)|VF_APEX_CALL_END|bfield
11:00:59.0 (693926959)|VF_APEX_CALL_START|[EXTERNAL]|01pQ0000000I7sk|afield
11:00:59.0 (693945127)|VF_APEX_CALL_END|afield
11:00:59.0 (694349805)|VF_APEX_CALL_START|[EXTERNAL]|01pQ0000000I7sk|bfield
11:00:59.0 (694368028)|VF_APEX_CALL_END|bfield
11:00:59.0 (694814803)|VF_APEX_CALL_START|[EXTERNAL]|01pQ0000000I7sk|afield
11:00:59.0 (694831992)|VF_APEX_CALL_END|afield
11:00:59.0 (695253304)|VF_APEX_CALL_START|[EXTERNAL]|01pQ0000000I7sk|bfield
11:00:59.0 (695270796)|VF_APEX_CALL_END|bfield
11:00:59.0 (695688861)|VF_APEX_CALL_START|[EXTERNAL]|01pQ0000000I7sk|afield
11:00:59.0 (695705878)|VF_APEX_CALL_END|afield
11:00:59.0 (696309144)|VF_APEX_CALL_START|[EXTERNAL]|01pQ0000000I7sk|bfield
11:00:59.0 (696327398)|VF_APEX_CALL_END|bfield
11:00:59.0 (696911979)|VF_APEX_CALL_START|[EXTERNAL]|01pQ0000000I7sk|afield
11:00:59.0 (696936669)|VF_APEX_CALL_END|afield
11:00:59.0 (697615165)|VF_APEX_CALL_START|[EXTERNAL]|01pQ0000000I7sk|bfield
11:00:59.0 (697642038)|VF_APEX_CALL_END|bfield
11:00:59.0 (698154275)|VF_APEX_CALL_START|[EXTERNAL]|01pQ0000000I7sk|afield
11:00:59.0 (698172534)|VF_APEX_CALL_END|afield
11:00:59.0 (698567465)|VF_APEX_CALL_START|[EXTERNAL]|01pQ0000000I7sk|bfield
11:00:59.0 (698588138)|VF_APEX_CALL_END|bfield
11:00:59.0 (699065205)|VF_APEX_CALL_START|[EXTERNAL]|01pQ0000000I7sk|afield
11:00:59.0 (699087299)|VF_APEX_CALL_END|afield
11:00:59.0 (699736431)|VF_APEX_CALL_START|[EXTERNAL]|01pQ0000000I7sk|bfield
11:00:59.0 (699755524)|VF_APEX_CALL_END|bfield
11:00:59.0 (700400564)|VF_APEX_CALL_START|[EXTERNAL]|01pQ0000000I7sk|afield
11:00:59.0 (700419512)|VF_APEX_CALL_END|afield
11:00:59.0 (701019564)|VF_APEX_CALL_START|[EXTERNAL]|01pQ0000000I7sk|bfield
11:00:59.0 (701047528)|VF_APEX_CALL_END|bfield
11:00:59.0 (701758023)|VF_APEX_CALL_START|[EXTERNAL]|01pQ0000000I7sk|afield
11:00:59.0 (701776115)|VF_APEX_CALL_END|afield
11:00:59.0 (702319920)|VF_APEX_CALL_START|[EXTERNAL]|01pQ0000000I7sk|bfield
11:00:59.0 (702349991)|VF_APEX_CALL_END|bfield
11:00:59.0 (702995118)|VF_APEX_CALL_START|[EXTERNAL]|01pQ0000000I7sk|afield
11:00:59.0 (703020230)|VF_APEX_CALL_END|afield
11:00:59.0 (703697382)|VF_APEX_CALL_START|[EXTERNAL]|01pQ0000000I7sk|bfield
11:00:59.0 (703722064)|VF_APEX_CALL_END|bfield
11:00:59.0 (705222680)|VF_APEX_CALL_START|[EXTERNAL]|01pQ0000000I7sk|sst
11:00:59.0 (705263541)|VF_APEX_CALL_END|sst
11:00:59.0 (716158944)|VF_APEX_CALL_START|[EXTERNAL]|01pQ0000000I7sk|sst
11:00:59.0 (716193078)|VF_APEX_CALL_END|sst
11:00:59.0 (734025196)|VF_EVALUATE_FORMULA_BEGIN|066Q0000000AmBn|#{tempRecord.RecordType.name == 'Affordable'}
11:00:59.0 (734295513)|VF_EVALUATE_FORMULA_END
11:00:59.0 (734315340)|VF_EVALUATE_FORMULA_BEGIN|066Q0000000AmBn|#{tempRecord.RecordType.name == 'Industrial' &#124;&#124; tempRecord.RecordType.name == 'Apartments' &#124;&#124; tempRecord.RecordType.name == 'Affordable' &#124;&#124; tempRecord.RecordType.name == 'Senior Housing' &#124;&#124; tempRecord.RecordType.name == 'Self Storage' &#124;&#124; tempRecord.RecordType.name == 'Student Housing'}
11:00:59.0 (734738546)|VF_EVALUATE_FORMULA_END
11:00:59.0 (734814472)|VF_APEX_CALL_START|[EXTERNAL]|01pQ0000000I7sk|PropertySurveyOverrideController get(newAm)
11:00:59.0 (734832757)|SYSTEM_MODE_ENTER|true
11:00:59.0 (734847354)|VF_APEX_CALL_START|[EXTERNAL]|01pQ0000000I7sk|newAm
11:00:59.0 (734866192)|VF_APEX_CALL_END|newAm
11:00:59.0 (734881615)|VF_APEX_CALL_END|PropertySurveyOverrideController get(newAm)
11:00:59.0 (738727312)|VF_EVALUATE_FORMULA_BEGIN|066Q0000000AmBn|#{if(tempRecord.RecordType.name = 'Affordable', TRUE, FALSE)}
11:00:59.0 (739000888)|VF_EVALUATE_FORMULA_END
11:00:59.0 (739033680)|VF_EVALUATE_FORMULA_BEGIN|066Q0000000AmBn|#{amenitiesList['Complex']}
11:00:59.0 (739077947)|VF_APEX_CALL_START|[EXTERNAL]|01pQ0000000I7sk|PropertySurveyOverrideController get(amenitiesList)
11:00:59.0 (739095351)|SYSTEM_MODE_ENTER|true
11:00:59.0 (739109872)|VF_APEX_CALL_START|[EXTERNAL]|01pQ0000000I7sk|amenitiesList
11:00:59.0 (739128793)|VF_APEX_CALL_END|amenitiesList
11:00:59.0 (739144925)|VF_APEX_CALL_END|PropertySurveyOverrideController get(amenitiesList)
11:00:59.0 (739171912)|VF_EVALUATE_FORMULA_END
11:00:59.0 (739256459)|VF_EVALUATE_FORMULA_BEGIN|066Q0000000AmBn|#{amenitiesList['Complex']}
11:00:59.0 (739297770)|VF_EVALUATE_FORMULA_END
11:00:59.0 (739307963)|VF_EVALUATE_FORMULA_BEGIN|066Q0000000AmBn|#{amenitiesList['Complex']}
11:00:59.0 (739346033)|VF_EVALUATE_FORMULA_END
11:00:59.0 (739434866)|VF_APEX_CALL_START|[EXTERNAL]|01pQ0000000I7sk|sa
11:00:59.0 (739454693)|VF_APEX_CALL_END|sa
11:00:59.0 (742454460)|VF_APEX_CALL_START|[EXTERNAL]|01pQ0000000I7sk|sa
11:00:59.0 (742493631)|VF_APEX_CALL_END|sa
11:00:59.0 (745452602)|VF_APEX_CALL_START|[EXTERNAL]|01pQ0000000I7sk|sa
11:00:59.0 (745477545)|VF_APEX_CALL_END|sa
11:00:59.0 (748284693)|VF_APEX_CALL_START|[EXTERNAL]|01pQ0000000I7sk|sa
11:00:59.0 (748307578)|VF_APEX_CALL_END|sa
11:00:59.0 (751217509)|VF_EVALUATE_FORMULA_BEGIN|066Q0000000AmBn|#{amenitiesList['Unit']}
11:00:59.0 (751294444)|VF_EVALUATE_FORMULA_END
11:00:59.0 (751358580)|VF_EVALUATE_FORMULA_BEGIN|066Q0000000AmBn|#{amenitiesList['Unit']}
11:00:59.0 (751399799)|VF_EVALUATE_FORMULA_END
11:00:59.0 (751409455)|VF_EVALUATE_FORMULA_BEGIN|066Q0000000AmBn|#{amenitiesList['Unit']}
11:00:59.0 (751444385)|VF_EVALUATE_FORMULA_END
11:00:59.0 (751524566)|VF_APEX_CALL_START|[EXTERNAL]|01pQ0000000I7sk|sa
11:00:59.0 (751544349)|VF_APEX_CALL_END|sa
11:00:59.0 (754364654)|VF_APEX_CALL_START|[EXTERNAL]|01pQ0000000I7sk|sa
11:00:59.0 (754384990)|VF_APEX_CALL_END|sa
11:00:59.0 (757200696)|VF_APEX_CALL_START|[EXTERNAL]|01pQ0000000I7sk|sa
11:00:59.0 (757222040)|VF_APEX_CALL_END|sa
11:00:59.0 (760083924)|VF_APEX_CALL_START|[EXTERNAL]|01pQ0000000I7sk|sa
11:00:59.0 (760104476)|VF_APEX_CALL_END|sa
11:00:59.0 (763042615)|VF_APEX_CALL_START|[EXTERNAL]|01pQ0000000I7sk|sa
11:00:59.0 (763064241)|VF_APEX_CALL_END|sa
11:00:59.0 (766065330)|VF_EVALUATE_FORMULA_BEGIN|066Q0000000AmBn|#{IF(tempRecord.RecordType.name == 'Apartments' &#124;&#124; tempRecord.RecordType.name == 'Affordable', TRUE, FALSE)}
11:00:59.0 (766351151)|VF_EVALUATE_FORMULA_END
11:00:59.0 (766381133)|VF_EVALUATE_FORMULA_BEGIN|066Q0000000AmBn|#{amenitiesList['Utilities']}
11:00:59.0 (766438969)|VF_EVALUATE_FORMULA_END
11:00:59.0 (766505125)|VF_EVALUATE_FORMULA_BEGIN|066Q0000000AmBn|#{amenitiesList['Utilities']}
11:00:59.0 (766547228)|VF_EVALUATE_FORMULA_END
11:00:59.0 (766556961)|VF_EVALUATE_FORMULA_BEGIN|066Q0000000AmBn|#{amenitiesList['Utilities']}
11:00:59.0 (766591762)|VF_EVALUATE_FORMULA_END
11:00:59.0 (766683464)|VF_APEX_CALL_START|[EXTERNAL]|01pQ0000000I7sk|sa
11:00:59.0 (766701778)|VF_APEX_CALL_END|sa
11:00:59.0 (768805261)|VF_APEX_CALL_START|[EXTERNAL]|01pQ0000000I7sk|sa
11:00:59.0 (768824406)|VF_APEX_CALL_END|sa
11:00:59.817 (817258467)|VF_APEX_CALL_START|[EXTERNAL]|/apexpage/pagemessagescomponentcontroller.apex set(conEscape,null)
11:00:59.817 (817324182)|SYSTEM_MODE_ENTER|true
11:00:59.817 (817355489)|VF_APEX_CALL_START|[EXTERNAL]|PageMessagesComponentController set(conEscape,null)
11:00:59.817 (817420314)|VF_APEX_CALL_START|[EXTERNAL]|PageMessagesComponentController invoke(setconEscape)
11:00:59.817 (817797021)|VF_APEX_CALL_START|[EXTERNAL]|/apexpage/pagemessagescomponentcontroller.apex get(severities)
11:00:59.817 (817846523)|SYSTEM_MODE_ENTER|true
11:00:59.817 (817878414)|VF_APEX_CALL_START|[EXTERNAL]|PageMessagesComponentController invoke(getseverities)
11:00:59.0 (820607660)|VF_EVALUATE_FORMULA_BEGIN|066Q0000000AmBn|#{f.fieldPath == 'Work_Phone__c' &#124;&#124; f.fieldPath == 'Mobile_Phone__c'}
11:00:59.0 (820711205)|VF_EVALUATE_FORMULA_END
11:00:59.0 (820985586)|VF_EVALUATE_FORMULA_BEGIN|066Q0000000AmBn|#{f.fieldPath == 'Work_Phone__c' &#124;&#124; f.fieldPath == 'Mobile_Phone__c'}
11:00:59.0 (821041164)|VF_EVALUATE_FORMULA_END
11:00:59.0 (821296203)|VF_EVALUATE_FORMULA_BEGIN|066Q0000000AmBn|#{f.fieldPath == 'Work_Phone__c' &#124;&#124; f.fieldPath == 'Mobile_Phone__c'}
11:00:59.0 (821406243)|VF_EVALUATE_FORMULA_END
11:00:59.0 (821627375)|VF_EVALUATE_FORMULA_BEGIN|066Q0000000AmBn|#{f.fieldPath == 'Work_Phone__c' &#124;&#124; f.fieldPath == 'Mobile_Phone__c'}
11:00:59.0 (821703295)|VF_EVALUATE_FORMULA_END
11:00:59.0 (821879391)|VF_EVALUATE_FORMULA_BEGIN|066Q0000000AmBn|#{f.fieldPath == 'Work_Phone__c' &#124;&#124; f.fieldPath == 'Mobile_Phone__c'}
11:00:59.0 (821953417)|VF_EVALUATE_FORMULA_END
11:00:59.0 (822720456)|VF_EVALUATE_FORMULA_BEGIN|066Q0000000AmBn|#{f.fieldPath == 'Work_Phone__c' &#124;&#124; f.fieldPath == 'Mobile_Phone__c'}
11:00:59.0 (822802743)|VF_EVALUATE_FORMULA_END
11:00:59.0 (822979846)|VF_EVALUATE_FORMULA_BEGIN|066Q0000000AmBn|#{f.fieldPath == 'Work_Phone__c' &#124;&#124; f.fieldPath == 'Mobile_Phone__c'}
11:00:59.0 (823029359)|VF_EVALUATE_FORMULA_END
11:00:59.0 (823261598)|VF_EVALUATE_FORMULA_BEGIN|066Q0000000AmBn|#{f.fieldPath == 'Work_Phone__c' &#124;&#124; f.fieldPath == 'Mobile_Phone__c'}
11:00:59.0 (823336719)|VF_EVALUATE_FORMULA_END
11:00:59.0 (823553563)|VF_EVALUATE_FORMULA_BEGIN|066Q0000000AmBn|#{f.fieldPath == 'Work_Phone__c' &#124;&#124; f.fieldPath == 'Mobile_Phone__c'}
11:00:59.0 (823626727)|VF_EVALUATE_FORMULA_END
11:00:59.0 (823775840)|VF_EVALUATE_FORMULA_BEGIN|066Q0000000AmBn|#{f.fieldPath == 'Work_Phone__c' &#124;&#124; f.fieldPath == 'Mobile_Phone__c'}
11:00:59.0 (823845190)|VF_EVALUATE_FORMULA_END
11:00:59.0 (824462418)|VF_EVALUATE_FORMULA_BEGIN|066Q0000000AmBn|#{f.fieldPath == 'Work_Phone__c' &#124;&#124; f.fieldPath == 'Mobile_Phone__c'}
11:00:59.0 (824549482)|VF_EVALUATE_FORMULA_END
11:00:59.0 (824730298)|VF_EVALUATE_FORMULA_BEGIN|066Q0000000AmBn|#{f.fieldPath == 'Work_Phone__c' &#124;&#124; f.fieldPath == 'Mobile_Phone__c'}
11:00:59.0 (824775250)|VF_EVALUATE_FORMULA_END
11:00:59.0 (824975268)|VF_EVALUATE_FORMULA_BEGIN|066Q0000000AmBn|#{f.fieldPath == 'Work_Phone__c' &#124;&#124; f.fieldPath == 'Mobile_Phone__c'}
11:00:59.0 (825067814)|VF_EVALUATE_FORMULA_END
11:00:59.0 (825282569)|VF_EVALUATE_FORMULA_BEGIN|066Q0000000AmBn|#{f.fieldPath == 'Work_Phone__c' &#124;&#124; f.fieldPath == 'Mobile_Phone__c'}
11:00:59.0 (825351945)|VF_EVALUATE_FORMULA_END
11:00:59.0 (825553461)|VF_EVALUATE_FORMULA_BEGIN|066Q0000000AmBn|#{f.fieldPath == 'Work_Phone__c' &#124;&#124; f.fieldPath == 'Mobile_Phone__c'}
11:00:59.0 (825628527)|VF_EVALUATE_FORMULA_END
11:00:59.0 (831041164)|VF_EVALUATE_FORMULA_BEGIN|066Q0000000AmBn|#{tempRecord.RecordType.name == 'Self Storage'}
11:00:59.0 (831441758)|VF_EVALUATE_FORMULA_END
11:00:59.0 (831460320)|VF_EVALUATE_FORMULA_BEGIN|066Q0000000AmBn|#{tempRecord.RecordType.name == 'Senior Housing'}
11:00:59.0 (831689879)|VF_EVALUATE_FORMULA_END
11:00:59.0 (831705205)|VF_EVALUATE_FORMULA_BEGIN|066Q0000000AmBn|#{tempRecord.RecordType.name == 'Student Housing'}
11:00:59.0 (831950631)|VF_EVALUATE_FORMULA_END
11:00:59.0 (832028168)|VF_EVALUATE_FORMULA_BEGIN|066Q0000000AmBn|#{if(tempRecord.RecordType.name = 'Senior Housing', TRUE, FALSE)}
11:00:59.0 (832250871)|VF_EVALUATE_FORMULA_END
11:00:59.0 (832266200)|VF_EVALUATE_FORMULA_BEGIN|066Q0000000AmBn|#{tempRecord.RecordType.name == 'Retail'}
11:00:59.0 (832460845)|VF_EVALUATE_FORMULA_END
11:00:59.0 (832476038)|VF_EVALUATE_FORMULA_BEGIN|066Q0000000AmBn|#{tempRecord.RecordType.name == 'Office' &#124;&#124; tempRecord.RecordType.name == 'Industrial'}
11:00:59.0 (832904432)|VF_EVALUATE_FORMULA_END
11:00:59.0 (832919420)|VF_EVALUATE_FORMULA_BEGIN|066Q0000000AmBn|#{tempRecord.RecordType.name == 'Apartments'}
11:00:59.0 (833115535)|VF_EVALUATE_FORMULA_END
11:00:59.0 (839445420)|VF_EVALUATE_FORMULA_BEGIN|066Q0000000AmBn|#{tempRecord.RecordType.name == 'Affordable'}
11:00:59.0 (839824986)|VF_EVALUATE_FORMULA_END
11:00:59.0 (839844756)|VF_EVALUATE_FORMULA_BEGIN|066Q0000000AmBn|#{tempRecord.RecordType.name == 'Industrial' &#124;&#124; tempRecord.RecordType.name == 'Apartments' &#124;&#124; tempRecord.RecordType.name == 'Affordable' &#124;&#124; tempRecord.RecordType.name == 'Senior Housing' &#124;&#124; tempRecord.RecordType.name == 'Self Storage' &#124;&#124; tempRecord.RecordType.name == 'Student Housing'}
11:00:59.0 (840250865)|VF_EVALUATE_FORMULA_END
11:00:59.0 (840519927)|VF_EVALUATE_FORMULA_BEGIN|066Q0000000AmBn|#{if(tempRecord.RecordType.name = 'Affordable', TRUE, FALSE)}
11:00:59.0 (840729624)|VF_EVALUATE_FORMULA_END
11:00:59.0 (840831701)|VF_EVALUATE_FORMULA_BEGIN|066Q0000000AmBn|#{amenitiesList['Complex']}
11:00:59.0 (840889816)|VF_EVALUATE_FORMULA_END
11:00:59.0 (840899880)|VF_EVALUATE_FORMULA_BEGIN|066Q0000000AmBn|#{amenitiesList['Complex']}
11:00:59.0 (840935749)|VF_EVALUATE_FORMULA_END
11:00:59.0 (843441371)|VF_EVALUATE_FORMULA_BEGIN|066Q0000000AmBn|#{amenitiesList['Unit']}
11:00:59.0 (843499229)|VF_EVALUATE_FORMULA_END
11:00:59.0 (843509928)|VF_EVALUATE_FORMULA_BEGIN|066Q0000000AmBn|#{amenitiesList['Unit']}
11:00:59.0 (843546856)|VF_EVALUATE_FORMULA_END
11:00:59.0 (846436433)|VF_EVALUATE_FORMULA_BEGIN|066Q0000000AmBn|#{IF(tempRecord.RecordType.name == 'Apartments' &#124;&#124; tempRecord.RecordType.name == 'Affordable', TRUE, FALSE)}
11:00:59.0 (846686790)|VF_EVALUATE_FORMULA_END
11:00:59.0 (846760522)|VF_EVALUATE_FORMULA_BEGIN|066Q0000000AmBn|#{amenitiesList['Utilities']}
11:00:59.0 (846832056)|VF_EVALUATE_FORMULA_END
11:00:59.0 (846842386)|VF_EVALUATE_FORMULA_BEGIN|066Q0000000AmBn|#{amenitiesList['Utilities']}
11:00:59.0 (846878835)|VF_EVALUATE_FORMULA_END
11:00:59.0 (850608189)|VF_SERIALIZE_VIEWSTATE_BEGIN|066Q0000000AmBn
11:00:59.0 (870652799)|VF_SERIALIZE_VIEWSTATE_END
11:00:59.0 (875242623)|VF_EVALUATE_FORMULA_BEGIN|066Q0000000AmBn|#{f.fieldPath == 'Work_Phone__c' &#124;&#124; f.fieldPath == 'Mobile_Phone__c'}
11:00:59.0 (875303498)|VF_EVALUATE_FORMULA_END
11:00:59.0 (875726856)|VF_EVALUATE_FORMULA_BEGIN|066Q0000000AmBn|#{f.fieldPath == 'Work_Phone__c' &#124;&#124; f.fieldPath == 'Mobile_Phone__c'}
11:00:59.0 (875762866)|VF_EVALUATE_FORMULA_END
11:00:59.0 (876224038)|VF_EVALUATE_FORMULA_BEGIN|066Q0000000AmBn|#{f.fieldPath == 'Work_Phone__c' &#124;&#124; f.fieldPath == 'Mobile_Phone__c'}
11:00:59.0 (876270797)|VF_EVALUATE_FORMULA_END
11:00:59.0 (876810335)|VF_EVALUATE_FORMULA_BEGIN|066Q0000000AmBn|#{f.fieldPath == 'Work_Phone__c' &#124;&#124; f.fieldPath == 'Mobile_Phone__c'}
11:00:59.0 (876894976)|VF_EVALUATE_FORMULA_END
11:00:59.0 (877507716)|VF_EVALUATE_FORMULA_BEGIN|066Q0000000AmBn|#{f.fieldPath == 'Work_Phone__c' &#124;&#124; f.fieldPath == 'Mobile_Phone__c'}
11:00:59.0 (877555954)|VF_EVALUATE_FORMULA_END
11:00:59.0 (879614192)|VF_EVALUATE_FORMULA_BEGIN|066Q0000000AmBn|#{f.fieldPath == 'Work_Phone__c' &#124;&#124; f.fieldPath == 'Mobile_Phone__c'}
11:00:59.0 (879684101)|VF_EVALUATE_FORMULA_END
11:00:59.0 (880103748)|VF_EVALUATE_FORMULA_BEGIN|066Q0000000AmBn|#{f.fieldPath == 'Work_Phone__c' &#124;&#124; f.fieldPath == 'Mobile_Phone__c'}
11:00:59.0 (880140337)|VF_EVALUATE_FORMULA_END
11:00:59.0 (880618179)|VF_EVALUATE_FORMULA_BEGIN|066Q0000000AmBn|#{f.fieldPath == 'Work_Phone__c' &#124;&#124; f.fieldPath == 'Mobile_Phone__c'}
11:00:59.0 (880663913)|VF_EVALUATE_FORMULA_END
11:00:59.0 (881200188)|VF_EVALUATE_FORMULA_BEGIN|066Q0000000AmBn|#{f.fieldPath == 'Work_Phone__c' &#124;&#124; f.fieldPath == 'Mobile_Phone__c'}
11:00:59.0 (881260739)|VF_EVALUATE_FORMULA_END
11:00:59.0 (881850482)|VF_EVALUATE_FORMULA_BEGIN|066Q0000000AmBn|#{f.fieldPath == 'Work_Phone__c' &#124;&#124; f.fieldPath == 'Mobile_Phone__c'}
11:00:59.0 (881895835)|VF_EVALUATE_FORMULA_END
11:00:59.0 (884965364)|VF_EVALUATE_FORMULA_BEGIN|066Q0000000AmBn|#{f.fieldPath == 'Work_Phone__c' &#124;&#124; f.fieldPath == 'Mobile_Phone__c'}
11:00:59.0 (885023537)|VF_EVALUATE_FORMULA_END
11:00:59.0 (885801745)|VF_EVALUATE_FORMULA_BEGIN|066Q0000000AmBn|#{f.fieldPath == 'Work_Phone__c' &#124;&#124; f.fieldPath == 'Mobile_Phone__c'}
11:00:59.0 (885840353)|VF_EVALUATE_FORMULA_END
11:00:59.0 (886555887)|VF_EVALUATE_FORMULA_BEGIN|066Q0000000AmBn|#{f.fieldPath == 'Work_Phone__c' &#124;&#124; f.fieldPath == 'Mobile_Phone__c'}
11:00:59.0 (886604571)|VF_EVALUATE_FORMULA_END
11:00:59.0 (887305019)|VF_EVALUATE_FORMULA_BEGIN|066Q0000000AmBn|#{f.fieldPath == 'Work_Phone__c' &#124;&#124; f.fieldPath == 'Mobile_Phone__c'}
11:00:59.0 (887351868)|VF_EVALUATE_FORMULA_END
11:00:59.0 (888144630)|VF_EVALUATE_FORMULA_BEGIN|066Q0000000AmBn|#{f.fieldPath == 'Work_Phone__c' &#124;&#124; f.fieldPath == 'Mobile_Phone__c'}
11:00:59.0 (888222178)|VF_EVALUATE_FORMULA_END
11:00:59.0 (947234840)|VF_EVALUATE_FORMULA_BEGIN|066Q0000000AmBn|#{tempRecord.RecordType.name == 'Self Storage'}
11:00:59.0 (947714166)|VF_EVALUATE_FORMULA_END
11:00:59.0 (947740862)|VF_EVALUATE_FORMULA_BEGIN|066Q0000000AmBn|#{tempRecord.RecordType.name == 'Senior Housing'}
11:00:59.0 (948108072)|VF_EVALUATE_FORMULA_END
11:00:59.0 (948131720)|VF_EVALUATE_FORMULA_BEGIN|066Q0000000AmBn|#{tempRecord.RecordType.name == 'Student Housing'}
11:00:59.0 (948487647)|VF_EVALUATE_FORMULA_END
11:00:59.0 (948511874)|VF_EVALUATE_FORMULA_BEGIN|066Q0000000AmBn|#{if(tempRecord.RecordType.name = 'Senior Housing', TRUE, FALSE)}
11:00:59.0 (948884400)|VF_EVALUATE_FORMULA_END
11:00:59.0 (948906812)|VF_EVALUATE_FORMULA_BEGIN|066Q0000000AmBn|#{tempRecord.RecordType.name == 'Retail'}
11:00:59.0 (949275638)|VF_EVALUATE_FORMULA_END
11:00:59.0 (949299113)|VF_EVALUATE_FORMULA_BEGIN|066Q0000000AmBn|#{tempRecord.RecordType.name == 'Office' &#124;&#124; tempRecord.RecordType.name == 'Industrial'}
11:00:59.0 (950017244)|VF_EVALUATE_FORMULA_END
11:00:59.0 (950041025)|VF_EVALUATE_FORMULA_BEGIN|066Q0000000AmBn|#{tempRecord.RecordType.name == 'Apartments'}
11:00:59.0 (950397707)|VF_EVALUATE_FORMULA_END
11:00:59.0 (985529296)|VF_EVALUATE_FORMULA_BEGIN|066Q0000000AmBn|#{tempRecord.RecordType.name == 'Affordable'}
11:00:59.0 (985821625)|VF_EVALUATE_FORMULA_END
11:00:59.0 (985839887)|VF_EVALUATE_FORMULA_BEGIN|066Q0000000AmBn|#{tempRecord.RecordType.name == 'Industrial' &#124;&#124; tempRecord.RecordType.name == 'Apartments' &#124;&#124; tempRecord.RecordType.name == 'Affordable' &#124;&#124; tempRecord.RecordType.name == 'Senior Housing' &#124;&#124; tempRecord.RecordType.name == 'Self Storage' &#124;&#124; tempRecord.RecordType.name == 'Student Housing'}
11:00:59.0 (986225267)|VF_EVALUATE_FORMULA_END
11:00:59.0 (986260631)|VF_EVALUATE_FORMULA_BEGIN|066Q0000000AmBn|#{if(tempRecord.RecordType.name = 'Affordable', TRUE, FALSE)}
11:00:59.0 (986455732)|VF_EVALUATE_FORMULA_END
11:00:59.0 (986511058)|VF_EVALUATE_FORMULA_BEGIN|066Q0000000AmBn|#{amenitiesList['Complex']}
11:00:59.0 (986562744)|VF_EVALUATE_FORMULA_END
11:00:59.0 (986572106)|VF_EVALUATE_FORMULA_BEGIN|066Q0000000AmBn|#{amenitiesList['Complex']}
11:00:59.0 (986606326)|VF_EVALUATE_FORMULA_END
11:00:59.0 (997398164)|VF_EVALUATE_FORMULA_BEGIN|066Q0000000AmBn|#{amenitiesList['Unit']}
11:00:59.0 (997480664)|VF_EVALUATE_FORMULA_END
11:00:59.0 (997491513)|VF_EVALUATE_FORMULA_BEGIN|066Q0000000AmBn|#{amenitiesList['Unit']}
11:00:59.0 (997534476)|VF_EVALUATE_FORMULA_END
11:01:00.10 (1010988887)|VF_EVALUATE_FORMULA_BEGIN|066Q0000000AmBn|#{IF(tempRecord.RecordType.name == 'Apartments' &#124;&#124; tempRecord.RecordType.name == 'Affordable', TRUE, FALSE)}
11:01:00.10 (1011267312)|VF_EVALUATE_FORMULA_END
11:01:00.10 (1011322068)|VF_EVALUATE_FORMULA_BEGIN|066Q0000000AmBn|#{amenitiesList['Utilities']}
11:01:00.10 (1011380691)|VF_EVALUATE_FORMULA_END
11:01:00.10 (1011390722)|VF_EVALUATE_FORMULA_BEGIN|066Q0000000AmBn|#{amenitiesList['Utilities']}
11:01:00.10 (1011426767)|VF_EVALUATE_FORMULA_END
11:01:00.10 (1015523443)|VF_EVALUATE_FORMULA_BEGIN|066Q0000000AmBn|renderSVG();closePage(#{goodToClose});greyOutFields();greyLookups();toggleUtilityCap(); return false;
11:01:00.10 (1015597756)|VF_APEX_CALL_START|[EXTERNAL]|01pQ0000000I7sk|PropertySurveyOverrideController get(goodToClose)
11:01:00.10 (1015618828)|SYSTEM_MODE_ENTER|true
11:01:00.10 (1015636868)|VF_APEX_CALL_START|[EXTERNAL]|01pQ0000000I7sk|goodToClose
11:01:00.10 (1015658753)|VF_APEX_CALL_END|goodToClose
11:01:00.10 (1015677742)|VF_APEX_CALL_END|PropertySurveyOverrideController get(goodToClose)
11:01:00.10 (1015697466)|VF_EVALUATE_FORMULA_END
11:01:00.10 (1015717845)|VF_EVALUATE_FORMULA_BEGIN|066Q0000000AmBn|renderSVG();closePage(#{goodToClose});greyOutFields();greyLookups();toggleUtilityCap(); return false;
11:01:00.10 (1015756389)|VF_EVALUATE_FORMULA_END
11:01:00.10 (1015770912)|VF_EVALUATE_FORMULA_BEGIN|066Q0000000AmBn|renderSVG();closePage(#{goodToClose});greyOutFields();greyLookups();toggleUtilityCap(); return false;
11:01:00.10 (1015806956)|VF_EVALUATE_FORMULA_END
11:01:00.18 (1018029469)|CUMULATIVE_LIMIT_USAGE
11:01:00.18 (1018029469)|LIMIT_USAGE_FOR_NS|(default)|
  Number of SOQL queries: 0 out of 100
  Number of query rows: 0 out of 50000
  Number of SOSL queries: 0 out of 20
  Number of DML statements: 0 out of 150
  Number of DML rows: 0 out of 10000
  Maximum CPU time: 477 out of 10000
  Maximum heap size: 0 out of 6000000
  Number of callouts: 0 out of 100
  Number of Email Invocations: 0 out of 10
  Number of future calls: 0 out of 50
  Number of queueable jobs added to the queue: 0 out of 50
  Number of Mobile Apex push calls: 0 out of 10

11:01:00.18 (1018029469)|CUMULATIVE_LIMIT_USAGE_END

11:01:00.10 (1018071667)|CODE_UNIT_FINISHED|VF: /apex/PropertySurveyOverridePage
11:01:00.10 (1019338449)|EXECUTION_FINISHED
