41.0 APEX_CODE,DEBUG;APEX_PROFILING,INFO;CALLOUT,INFO;DB,INFO;SYSTEM,DEBUG;VALIDATION,INFO;VISUALFORCE,FINER;WAVE,INFO;WORKFLOW,INFO
11:02:48.0 (361986)|USER_INFO|[EXTERNAL]|005Q000000PbtzJ|amoodhangalorevadira@huronconsultinggroup.com.opsdev|Eastern Standard Time|GMT-05:00
11:02:48.0 (409358)|EXECUTION_STARTED
11:02:48.0 (414192)|CODE_UNIT_STARTED|[EXTERNAL]|Workflow:ApprovalProcessActions
11:02:48.0 (12246892)|WF_APPROVAL|Reject|[Property Survey: PS-723047 a30Q0000000gt3Y]|Team Lead Review(Approval based on first response)
11:02:48.0 (13928814)|WF_SPOOL_ACTION_BEGIN|Reject
11:02:48.0 (27243740)|WF_FIELD_UPDATE|[Property Survey: PS-723047 a30Q0000000gt3Y]|Field:Property Survey: Status|Value:Returned to User|Id=04YQ00000009hLH
11:02:48.0 (34619251)|CODE_UNIT_STARTED|[EXTERNAL]|01qQ00000009Qck|SurveyDataUpdateTrigger on Property_Survey trigger event BeforeUpdate for [a30Q0000000gt3Y]
11:02:48.0 (35944730)|USER_DEBUG|[2]|DEBUG|<<<<TriggerFired>>>>
11:02:48.0 (40259815)|SOQL_EXECUTE_BEGIN|[186]|Aggregations:0|SELECT Id, Survey_Data_Ready_for_Foundation__c, INCOMING_SURVEY_DATA__C, Property_Id__c, status__c, Survey_Sector__r.Name FROM property_Survey__c WHERE Id IN :tmpVar1
11:02:48.0 (56743906)|SOQL_EXECUTE_END|[186]|Rows:1
11:02:48.57 (57472336)|CUMULATIVE_LIMIT_USAGE
11:02:48.57 (57472336)|LIMIT_USAGE_FOR_NS|(default)|
  Number of SOQL queries: 1 out of 100
  Number of query rows: 1 out of 50000
  Number of SOSL queries: 0 out of 20
  Number of DML statements: 0 out of 150
  Number of DML rows: 0 out of 10000
  Maximum CPU time: 0 out of 10000
  Maximum heap size: 0 out of 6000000
  Number of callouts: 0 out of 100
  Number of Email Invocations: 0 out of 10
  Number of future calls: 0 out of 50
  Number of queueable jobs added to the queue: 0 out of 50
  Number of Mobile Apex push calls: 0 out of 10

11:02:48.57 (57472336)|CUMULATIVE_LIMIT_USAGE_END

11:02:48.0 (58937341)|CODE_UNIT_FINISHED|SurveyDataUpdateTrigger on Property_Survey trigger event BeforeUpdate for [a30Q0000000gt3Y]
11:02:48.0 (115480731)|CODE_UNIT_STARTED|[EXTERNAL]|01qQ00000009Qck|SurveyDataUpdateTrigger on Property_Survey trigger event AfterUpdate for [a30Q0000000gt3Y]
11:02:48.0 (115849550)|USER_DEBUG|[2]|DEBUG|<<<<TriggerFired>>>>
11:02:48.0 (117699763)|SOQL_EXECUTE_BEGIN|[18]|Aggregations:0|SELECT Id, INCOMING_SURVEY_DATA__C, Property_Id__c, status__c, Survey_Sector__r.Name FROM property_Survey__c WHERE Id IN :tmpVar1
11:02:48.0 (126877159)|SOQL_EXECUTE_END|[18]|Rows:1
11:02:48.0 (132141084)|SOQL_EXECUTE_BEGIN|[149]|Aggregations:1|SELECT id, Status__c, (SELECT Id, Status__c, queue_record__c FROM property_surveys__r) FROM queue__c WHERE Id = :tmpVar1
11:02:48.0 (141494279)|SOQL_EXECUTE_END|[149]|Rows:1
11:02:48.0 (143048849)|DML_BEGIN|[174]|Op:Update|Type:Queue__c|Rows:1
11:02:48.0 (171279316)|CODE_UNIT_STARTED|[EXTERNAL]|01qQ00000009Quj|QueueTrigger on Queue trigger event AfterUpdate for [a33Q0000000porP]
11:02:48.0 (174504985)|SOQL_EXECUTE_BEGIN|[63]|Aggregations:1|SELECT Id, call_status__c, ownerid, (SELECT Id, status__c, call_status__c FROM property_Surveys__r) FROM queue__c WHERE Id IN :tmpVar1
11:02:48.0 (181324208)|SOQL_EXECUTE_END|[63]|Rows:1
11:02:48.0 (184504944)|SOQL_EXECUTE_BEGIN|[32]|Aggregations:0|SELECT Id FROM Surveyor__c WHERE user__c = :tmpVar1 LIMIT 1
11:02:48.0 (189852338)|SOQL_EXECUTE_END|[32]|Rows:1
11:02:48.0 (190200012)|USER_DEBUG|[33]|DEBUG|i am here+(Surveyor__c:{Id=a3MQ0000000N80AMAS})
11:02:48.0 (195054290)|SOQL_EXECUTE_BEGIN|[14]|Aggregations:2|SELECT Id, CCRC__c, User__c, Client_Services__c, Do_Not_Call__c, IAG__c, Multiples__c, New_Construction__c, Non_Published_MSAs__c, QA__c, Max_Surveys_Owned__c, (SELECT Id, Surveyor__c, Survey_Sector__c, Survey_Sector__r.Name, Cannot_Survey__c, Name, Can_Only_Survey__c FROM Sector_Skills__r), (SELECT Id, Name, Survey_MSA__c, Can_Only_Survey__c, Cannot_Survey__c, Surveyor__c FROM MSA_Skills__r) FROM Surveyor__c WHERE Id = :tmpVar1
11:02:48.0 (206481260)|SOQL_EXECUTE_END|[14]|Rows:1
11:02:48.0 (207415758)|SOQL_EXECUTE_BEGIN|[16]|Aggregations:0|SELECT COUNT(id) counter, status__c FROM queue__c WHERE (ownerid = :tmpVar1 AND status__c IN ('In Progress', 'On Hold')) GROUP BY status__c ORDER BY Status__c ASC NULLS FIRST
11:02:48.0 (213425556)|SOQL_EXECUTE_END|[16]|Rows:2
11:02:48.0 (213655555)|USER_DEBUG|[17]|DEBUG|valueof(AggregateResult:{counter=1, Status__c=In Progress}, AggregateResult:{counter=6, Status__c=On Hold})
11:02:48.214 (214551352)|CUMULATIVE_LIMIT_USAGE
11:02:48.214 (214551352)|LIMIT_USAGE_FOR_NS|(default)|
  Number of SOQL queries: 7 out of 100
  Number of query rows: 15 out of 50000
  Number of SOSL queries: 0 out of 20
  Number of DML statements: 1 out of 150
  Number of DML rows: 1 out of 10000
  Maximum CPU time: 0 out of 10000
  Maximum heap size: 0 out of 6000000
  Number of callouts: 0 out of 100
  Number of Email Invocations: 0 out of 10
  Number of future calls: 0 out of 50
  Number of queueable jobs added to the queue: 0 out of 50
  Number of Mobile Apex push calls: 0 out of 10

11:02:48.214 (214551352)|CUMULATIVE_LIMIT_USAGE_END

11:02:48.0 (216093225)|CODE_UNIT_FINISHED|QueueTrigger on Queue trigger event AfterUpdate for [a33Q0000000porP]
11:02:48.0 (216203737)|CODE_UNIT_STARTED|[EXTERNAL]|Workflow:01IQ000000064zx
11:02:48.0 (227595714)|WF_RULE_EVAL_BEGIN|Workflow
11:02:48.0 (227629120)|WF_CRITERIA_BEGIN|[Queue: Queue-535553 a33Q0000000porP]|Update Call Status Change Time|01QQ0000000FVMK|ON_ALL_CHANGES|0
11:02:48.0 (228063114)|WF_FORMULA|Formula:ENCODED:[treatNullAsNull]ISCHANGED(  {!ID:00NQ0000001iL7e} )|Values:Call_Status__c=null
11:02:48.0 (228074790)|WF_CRITERIA_END|false
11:02:48.0 (228086433)|WF_CRITERIA_BEGIN|[Queue: Queue-535553 a33Q0000000porP]|ReAssign Queue to Pool Queue|01QQ0000000FVN3|ON_CREATE_OR_TRIGGERING_UPDATE|0
11:02:48.0 (230226073)|WF_RULE_FILTER|[Queue : Status equals In Progress, On Hold] 
AND [Queue : Call Status Updated Time Difference greater or equal 48.0]
11:02:48.0 (230249218)|WF_RULE_EVAL_VALUE|8
11:02:48.0 (230258669)|WF_CRITERIA_END|false
11:02:48.0 (230272743)|WF_SPOOL_ACTION_BEGIN|Workflow
11:02:48.0 (230284798)|WF_ACTION| None
11:02:48.0 (230289558)|WF_RULE_EVAL_END
11:02:48.0 (230299659)|WF_TIME_TRIGGERS_BEGIN
11:02:48.0 (267075302)|WF_ACTIONS_END| None
11:02:48.0 (267096824)|CODE_UNIT_FINISHED|Workflow:01IQ000000064zx
11:02:48.0 (272281522)|DML_END|[174]
11:02:48.272 (272428619)|CUMULATIVE_LIMIT_USAGE
11:02:48.272 (272428619)|LIMIT_USAGE_FOR_NS|(default)|
  Number of SOQL queries: 7 out of 100
  Number of query rows: 15 out of 50000
  Number of SOSL queries: 0 out of 20
  Number of DML statements: 1 out of 150
  Number of DML rows: 1 out of 10000
  Maximum CPU time: 0 out of 10000
  Maximum heap size: 0 out of 6000000
  Number of callouts: 0 out of 100
  Number of Email Invocations: 0 out of 10
  Number of future calls: 0 out of 50
  Number of queueable jobs added to the queue: 0 out of 50
  Number of Mobile Apex push calls: 0 out of 10

11:02:48.272 (272428619)|CUMULATIVE_LIMIT_USAGE_END

11:02:48.0 (273986711)|CODE_UNIT_FINISHED|SurveyDataUpdateTrigger on Property_Survey trigger event AfterUpdate for [a30Q0000000gt3Y]
11:02:48.0 (277825492)|WF_HARD_REJECT
11:02:48.0 (278228874)|WF_SPOOL_ACTION_BEGIN|Reject
11:02:48.0 (400312343)|CODE_UNIT_FINISHED|Workflow:ApprovalProcessActions
11:02:48.0 (401927433)|EXECUTION_FINISHED
