40.0 APEX_CODE,DEBUG;APEX_PROFILING,INFO;CALLOUT,INFO;DB,INFO;SYSTEM,DEBUG;VALIDATION,INFO;VISUALFORCE,FINER;WAVE,INFO;WORKFLOW,INFO
14:14:09.0 (341914)|USER_INFO|[EXTERNAL]|005Q000000PcWx7|wsutton@reis.com.opsdev|Eastern Standard Time|GMT-05:00
14:14:09.0 (396500)|EXECUTION_STARTED
14:14:09.0 (404555)|CODE_UNIT_STARTED|[EXTERNAL]|066Q0000000AmBn|VF: /apex/PropertySurveyOverridePage
14:14:09.0 (4118941)|VF_APEX_CALL_START|[EXTERNAL]|01pQ0000000I7sk|PropertySurveyOverrideController <init>
14:14:09.0 (4150591)|SYSTEM_MODE_ENTER|true
14:14:09.0 (5250171)|USER_DEBUG|[726]|DEBUG|new run of the controller
14:14:09.0 (26934851)|SOQL_EXECUTE_BEGIN|[410]|Aggregations:0|Select Id, PropertyId__c, RecordTypeId, Property_Name_Current__c, Property_Name__c, Address__c, Address_New__c, City__c, County__c, State__c, Zip__c, Property_Type__c, Property_Type_New__c, Property_Website_Current__c, Property_Website_New__c, Year_Built_Current__c, Year_Built_New__c, Month_Built_Current__c, Month_Built_New__c, Time_Zone__c, Needs_QA_Review__c, Notes__c, Property_Owner_Current__c, Property_Owner_New__c, Survey_Website_Current__c, Survey_Website_New__c, Property_Status_Current__c, Survey_Source__c, Survey_MSA__c, Survey_Submarket__c, Sub_Market_ID__c, Buildings_Current__c, Buildings_New__c, Floors_Current__c, Floors_New__c, Renovation_Date_Current__c, Renovation_Date_New__c, Residential_Type_Current__c, Residential_Type_New__c, Pricing_System_Current__c, Pricing_System_New__c, Property_Notes_Current__c, Property_Notes_New__c, QC_Notes_Current__c, QC_Notes_New__c, QA_Reason_Notes__c, Direct_Available_Current__c, Direct_Contiguous_Current__c, Direct_Low_Rent_Current__c, Direct_High_Rent_Current__c, Direct_Average_Rent_Current__c, Sublet_Gross_Net_Current__c, Sublet_Available_Current__c, Sublet_Low_Rent_Current__c, Sublet_High_Rent_Current__c, Sublet_Average_Rent_Current__c, Direct_Available_New__c, Direct_Contiguous_New__c, Direct_Low_Rent_New__c, Direct_High_Rent_New__c, Direct_Average_Rent_New__c, Sublet_Gross_Net_New__c, Sublet_Available_New__c, Sublet_Low_Rent_New__c, Sublet_High_Rent_New__c, Sublet_Average_Rent_New__c, Comp_Totals_by_Unit__c, Comp_Totals_by_Bed__c, Non_Comp_Totals_by_Bed__c, SR_Housing_MR_Units_Current__c, Sth_MR_Beds_Current__c, Sth_MR_Beds_New__c, Total_Available_Beds_Current__c, Total_Available_Beds_New__c, Non_Purpose_Built_Current__c, Non_Purpose_Built__c, On_Campus_Current__c, On_Campus__c, University_Served_Current__c, University_Served_New__c, University_Owned_Current__c, University_Owned_New__c, Rent_Type_Current__c, Rent_Type_New__c, Pre_Lease__c, Pre_Lease_New__c , Pre_Leased_percentage_Current__c, Pre_Leased_Percentage_New__c, Students__c, Students_New__c, Rent_Utilities_Current__c , Rent_Utilities_New__c, Leasing_Incentives__c, Rent_By_Current__c, Rent_By__c, Months_Free_Rent__c, Free_Rent_Lease_Term__c, Base_Rent__c, Reduced_Lease_Term__c, Discount__c, Reduced_Free_Rent_Pct__c, Free_Rent_Text__c, Free_Rent_Pct__c, Contact_Multiple__c,Acreage_Current__c,GLA_Current__c,TBD_Current__c,Move_Out__c,Move_Out_New__c ,Move_In__c, Move_In_New__c,Unit_Received_Special__c ,Unit_Received_Special_New__c ,TBD_New__c,GLA_New__c,Acreage_New__c,Total_Available_NCC_Current__c,Total_Available_NCC_New__c,Total_NCC_Current__c, Total_NCC_New__c,Total_Available_CC_Current__c,Total_Available_CC_New__c,Available_Boat_RV_Current__c,Total_Boat_RV_Current__c,Available_Boat_RV_New__c,Total_Boat_RV_New__c,Total_CC_Current__c,Total_CC_New__c,Non_Comp_Totals_by_Unit__c, Pre_Leased__c, SR_Housing_MR_Units_New__c, Licensed_Unit_Total_Current__c, SR_Housing_Insurance_All_New__c, SR_Housing_Insurance_Medicaid_New__c, SR_Housing_Insurance_Medicare_New__c,SR_Housing_Insurance_Private_New__c, SR_Housing_Insurance_Private_Pay_New__c,Expected_Increase_Type__c ,Survey_Sector__c,NonAnchor_Size_New__c ,NonAnchor_Size_Current__c,Food_Court_Avail_Current__c,Food_Court_Avail_New__c,Food_Court_Low_Rent_Current__c,Food_Court_Low_Rent_New__c,Food_Court_High_Rent_Current__c,Food_Court_High_Rent_New__c,Food_Court_Average_Rent_Current__c,Food_Court_Average_Rent_New__c,Food_Court_Rent_Basis_Current__c,Food_Court_Rent_Basis_New__c,Food_Court_Lease_Term_Current__c,Food_Court_Lease_Term_New__c,Anchor_Avail_Current__c,Anchor_Avail_New__c,Anchor_Low_Rent_Current__c,Anchor_Low_Rent_New__c,Anchor_High_Rent_Current__c,Anchor_High_Rent_New__c,Anchor_Average_Rent_Current__c,Anchor_Average_Rent_New__c,Anchor_Rent_Basis_Current__c,Anchor_Rent_Basis_New__c,Anchor_Lease_Term_Current__c,Anchor_Lease_Term_New__c,Non_Anchor_Avail_Current__c,Non_Anchor_Avail_New__c,Non_Anchor_Low_Rent_Current__c,Non_Anchor_Low_Rent_New__c,Non_Anchor_High_Rent_Current__c,Non_Anchor_High_Rent_New__c,Non_Anchor_Average_Rent_Current__c,Non_Anchor_Average_Rent_New__c,Non_Anchor_Rent_Basis_Current__c,Non_Anchor_Rent_Basis_New__c,Non_Anchor_Lease_Term_Current__c,Non_Anchor_Lease_Term_New__c,Ground_Lease_Avail_Current__c,Ground_Lease_Avail_New__c,Ground_Lease_Low_Rent_Current__c,Ground_Lease_Low_Rent_New__c,Ground_Lease_High_Rent_Current__c,Ground_Lease_High_Rent_New__c,Ground_Lease_Average_Rent_Current__c,Ground_Lease_Average_Rent_New__c,Ground_Lease_Rent_Basis_Current__c,Ground_Rent_Basis_Term_New__c,Ground_Lease_Lease_Term_Current__c,Ground_Lease_Lease_New__c,Outparcel_Building_Avail_Current__c,Outparcel_Building_Avail_New__c,Outparcel_Building_Low_Rent_Current__c,Outparcel_Building_Low_Rent_New__c,Outparcel_Building_High_Rent_Current__c,Outparcel_Building_High_Rent_New__c,Outparcel_Building_Average_Rent_Current__c,Outparcel_Building_Average_Rent_New__c,Outparcel_Building_Rent_Basis_Current__c,Outparcel_Building_Rent_Basis_New__c,Outparcel_Building_Lease_Term_Current__c,Outparcel_Building_Lease_Term_New__c,Opex_Current__c,TI_Non_Anchor_New__c,Total_Anchor_Available_New__c,Free_Rent_Non_Anchor_New__c,Free_Rent_Anchor_New__c,Contract_Rent_Discount_Anchor_New__c,Commision_Percent_Non_Anchor_New__c,TI_Non_Anchor_Current__c,Total_Anchor_Available_Current__c,Free_Rent_Non_Anchor_Current__c,Free_Rent_Anchor_Current__c,Commision_Percent_Non_Anchor_Current__c,Contract_Rent_Discount_Anchor_Current__c,Food_Court_Size_Current__c,Food_Court_Size_New__c,Outparcel_Building_Size_Current__c,Outparcel_Building_Size_New__c,Ground_Lease_Size_Current__c,Ground_Lease_Size_New__c,Anchor_Size_Current__c,Anchor_Size_New__c,Contract_Rent_Discount_NonAnchor_Current__c,Contract_Rent_Discount_NonAnchor_New__c,CAM_New__c,Commission_Non_Anchor_New__c,Commission_Anchor_Current__c,Commission_Renew_Non_Anchor_Current__c,Commission_Renew_Non_Anchor_New__c,Commission_Anchor_New__c,Commission_Non_Anchor_Current__c,Sold_New__c,TI_Anchor_Current__c,TI_Anchor_New__c,Name,Unit_Mix_Estimated__c, Survey_Completed__c,Vacancy_Captured__c,Rent_Captured__c, CAM_Current__c , Office_Space_Size_Current__c , Sold_Amount_Current__c, Sold_Date_Current__c, Occupancy_Current__c , Sold_Current__c , Commission_New__c , Commission_Renew__c , Tenancy_Current__c , Contract_Rent_Discount_Current__c , Total_Units__c ,Total_NC_Units__c , Free_Rent_Current__c , TI_Allowance_Renew_Current__c , Real_Estate_Taxes__c , Total_Property_Size_New__c, Total_Property_Size_Current__c, Leasing_Incentives_New__c, Licensed_Unit_Total_New__c ,Rent_ref__c,Rest_neg__c,Vac_Ref__c,Ref_Rest__c,DK_rest__c, Current_Available__c,Available_2_4_weeks__c,Total_Available_Units__c, Total_NC_Units_New__c,Total_NC_Units_Current__c, Facility_Name__c,Select_Code_New__c , RecordType.Name, Total_Units_Current__c,Total_Units_New__c, Lease_Term_Current__c,Minimum_Qualifying_Income__c,Vacancy_MR_Total__c,Comp_Totals__c ,Section_8_Contract_End_Date__c,Comp_Totals_Avail__c ,Vacancy_S8_Total__c,cam__c,Vacancy_Tax_Credit_Total__c,Expected_Increase__c,Entry_Fee_High_New__c,Total_Available_New__c,Entry_Fee_Average_New__c,Comp_Totals_Avail_Hold__c,Total_Units_Available_New__c, Vacancy_NonConv_Total__c,Total_Vacancy__c,Commercial_Space__c,Sold_Amt__c,Project_Origin_Current__c,Project_Origin_New__c,Status__c,Call_Status__c,Vacancy_Unknown_Totals__c,Maximum_Qualifying_Income__c,Vacancy_Unknown_Totals_Current__c,Vacancy_S8_Total_Current__c,Vacancy_NonConv_Total_Current__c,Vacancy_TC_30_Totals_Current__c,Vacancy_TC_40_Totals_Current__c ,Vacancy_TC_50_Totals_Current__c ,Vacancy_TC_60_Totals_Current__c ,Heating_Source_New__c,Unit_Designation_New__c,Tax_Credit_Year_Placed_Into_Service__c,Tax_Credit_Compliance_Years_Remaining__c,Accepts_Voucher_Tenants__c,Has_Wait_List__c,Wait_List_Length__c,Accepts_Section_8_Vouchers__c,Wait_List_Units__c,Opex_New__c,Last_Surveyed__c,Section_8_Contract_Start_Date__c,Unit_Sec8_Totals__c,Unit_TC_Totals__c,Unit_Unknown_Totals__c,Unit_NonConven_Totals__c,Unit_TC_60_Totals__c,Unit_NonConven_Totals_Current__c,Unit_Sec8_Totals_Current__c,Unit_TC_Totals_Current__c,Unit_Unknown_Totals_Current__c,Unit_MR_Totals_Current__c,Unit_TC_30_Totals_Current__c,Vacancy_TC_30_Totals__c,Vacancy_TC_40_Totals__c,Vacancy_TC_50_Totals__c,Vacancy_TC_60_Totals__c,Vacancy_MR_Total_Current__c,Unit_TC_40_Totals_Current__c,Unit_TC_50_Totals_Current__c,Unit_TC_60_Totals_Current__c,Unit_TC_50_Totals__c,Unit_TC_40_Totals__c,Unit_TC_30_Totals__c,Unit_MR_Totals__c,Expected_Month__c,PropertyOwnerNew__c,Real_Estate_Taxes_New__c, Lease_Term_New__c, Office_Space_Size__c,Tenancy__c,Insurance_New__c ,Entry_Fee_Low_New__c ,TI_Allowance_New_New__c, TI_Allowance_Renew_New__c, Free_Rent_New__c, Contract_Rent_Discount_New__c, Commission_New_New__c, Commission_Renew_New__c,Sold__c,Sold_Date__c,Sold_Amount_New__c,Occupancy__c From Property_Survey__c Where ID = 'a30Q0000000WBi2IAG' LIMIT 1
14:14:09.0 (57094868)|SOQL_EXECUTE_END|[410]|Rows:1
14:14:09.0 (58108651)|USER_DEBUG|[1597]|DEBUG|compare success
14:14:09.0 (58154215)|USER_DEBUG|[738]|DEBUG|true
14:14:09.0 (62143393)|SOQL_EXECUTE_BEGIN|[334]|Aggregations:0|Select Most_Recent_Contact__c, Contact_Name__c, JobRole__c, Work_Phone__c, Mobile_Phone__c, Email__c, Company__c, Id, Contact__c,Contact__r.oid__c From Survey_Contact__c 
14:14:09.0 (70937543)|SOQL_EXECUTE_END|[334]|Rows:1
14:14:09.0 (74608026)|SOQL_EXECUTE_BEGIN|[345]|Aggregations:0|Select Job_Role__c, Work_Phone__c, Mobile_Phone__c, Email__c, REIS_Company__c, Id, Name, first_name__c,oid__c, last_name__c from Reis_Contact__c 
14:14:09.0 (77188837)|SOQL_EXECUTE_END|[345]|Rows:1
14:14:09.0 (80224197)|SOQL_EXECUTE_BEGIN|[1260]|Aggregations:0|SELECT id, Amenity__r.Has_Quantity__c, Amenity__r.Name, Amenity__r.Type__c, Industrial_Amenities__c, Student_Housing_Amenity__c, Storage_Amenity__c, Last_Update__c, Last_Update_Current__c, Delete_By_Foundation__c, Apartment_Amenity__c, Quantity_New__c FROM Survey_Amenities__c 
14:14:09.0 (85132414)|SOQL_EXECUTE_END|[1260]|Rows:0
14:14:09.0 (85661009)|USER_DEBUG|[1552]|DEBUG|()
14:14:09.0 (85691068)|USER_DEBUG|[1553]|DEBUG|null
14:14:09.0 (85711974)|USER_DEBUG|[754]|DEBUG|false
14:14:09.0 (86376430)|VF_APEX_CALL_END|PropertySurveyOverrideController <init>
14:14:09.0 (96784928)|VF_EVALUATE_FORMULA_BEGIN|066Q0000000AmBn|renderSVG();closePage(#{goodToClose});greyOutFields();greyLookups();toggleUtilityCap(); return false;
14:14:09.0 (97139927)|VF_APEX_CALL_START|[EXTERNAL]|01pQ0000000I7sk|PropertySurveyOverrideController get(goodToClose)
14:14:09.0 (97180243)|SYSTEM_MODE_ENTER|true
14:14:09.0 (97209175)|VF_APEX_CALL_START|[EXTERNAL]|01pQ0000000I7sk|goodToClose
14:14:09.0 (97247853)|VF_APEX_CALL_END|goodToClose
14:14:09.0 (97286327)|VF_APEX_CALL_END|PropertySurveyOverrideController get(goodToClose)
14:14:09.0 (97326093)|VF_EVALUATE_FORMULA_END
14:14:09.0 (97399814)|VF_EVALUATE_FORMULA_BEGIN|066Q0000000AmBn|renderSVG();closePage(#{goodToClose});greyOutFields();greyLookups();toggleUtilityCap(); return false;
14:14:09.0 (97480490)|VF_EVALUATE_FORMULA_END
14:14:09.0 (97524940)|VF_EVALUATE_FORMULA_BEGIN|066Q0000000AmBn|renderSVG();closePage(#{goodToClose});greyOutFields();greyLookups();toggleUtilityCap(); return false;
14:14:09.0 (97574453)|VF_EVALUATE_FORMULA_END
14:14:09.0 (104844664)|VF_APEX_CALL_START|[EXTERNAL]|01pQ0000000I7sk|PropertySurveyOverrideController invoke(changeTheStatus)
14:14:09.0 (105189456)|VF_APEX_CALL_END|PropertySurveyOverrideController invoke(changeTheStatus)
14:14:09.105 (105632209)|VF_APEX_CALL_START|[EXTERNAL]|/apexpage/pagemessagescomponentcontroller.apex <init>
14:14:09.105 (105667802)|SYSTEM_MODE_ENTER|true
14:14:09.105 (105870615)|VF_APEX_CALL_START|[EXTERNAL]|/apexpage/pagemessagescomponentcontroller.apex set(conEscape,null)
14:14:09.105 (105892994)|SYSTEM_MODE_ENTER|true
14:14:09.105 (105934773)|VF_APEX_CALL_START|[EXTERNAL]|PageMessagesComponentController set(conEscape,null)
14:14:09.105 (105973812)|VF_APEX_CALL_START|[EXTERNAL]|PageMessagesComponentController invoke(setconEscape)
14:14:09.106 (106169021)|VF_APEX_CALL_START|[EXTERNAL]|/apexpage/pagemessagescomponentcontroller.apex get(severities)
14:14:09.106 (106201655)|SYSTEM_MODE_ENTER|true
14:14:09.106 (106229615)|VF_APEX_CALL_START|[EXTERNAL]|PageMessagesComponentController invoke(getseverities)
14:14:09.0 (107392480)|VF_APEX_CALL_START|[EXTERNAL]|01pQ0000000I7sk|PropertySurveyOverrideController get(tempRecord)
14:14:09.0 (107410253)|SYSTEM_MODE_ENTER|true
14:14:09.0 (107422043)|VF_APEX_CALL_START|[EXTERNAL]|01pQ0000000I7sk|tempRecord
14:14:09.0 (107437199)|VF_APEX_CALL_END|tempRecord
14:14:09.0 (107452239)|VF_APEX_CALL_END|PropertySurveyOverrideController get(tempRecord)
14:14:09.0 (111934611)|VF_APEX_CALL_START|[EXTERNAL]|01pQ0000000I7sk|PropertySurveyOverrideController get(SurveyContactFields)
14:14:09.0 (111954288)|SYSTEM_MODE_ENTER|true
14:14:09.0 (111968358)|VF_APEX_CALL_START|[EXTERNAL]|01pQ0000000I7sk|PropertySurveyOverrideController invoke(getSurveyContactFields)
14:14:09.0 (113346208)|VF_APEX_CALL_END|PropertySurveyOverrideController invoke(getSurveyContactFields)
14:14:09.0 (113370032)|VF_APEX_CALL_END|PropertySurveyOverrideController get(SurveyContactFields)
14:14:09.0 (114561002)|VF_APEX_CALL_START|[EXTERNAL]|01pQ0000000I7sk|PropertySurveyOverrideController get(contactList)
14:14:09.0 (114579964)|SYSTEM_MODE_ENTER|true
14:14:09.0 (114591964)|VF_APEX_CALL_START|[EXTERNAL]|01pQ0000000I7sk|contactList
14:14:09.0 (114606210)|VF_APEX_CALL_END|contactList
14:14:09.0 (114622156)|VF_APEX_CALL_END|PropertySurveyOverrideController get(contactList)
14:14:09.0 (114921783)|VF_APEX_CALL_START|[EXTERNAL]|01pQ0000000RFtf|con
14:14:09.0 (114938257)|VF_APEX_CALL_END|con
14:14:09.0 (117551189)|VF_APEX_CALL_START|[EXTERNAL]|01pQ0000000RFtf|rcon
14:14:09.0 (117569335)|VF_APEX_CALL_END|rcon
14:14:09.0 (118729338)|VF_APEX_CALL_START|[EXTERNAL]|01pQ0000000I7sk|PropertySurveyOverrideController get(ReisContactFields)
14:14:09.0 (118757245)|SYSTEM_MODE_ENTER|true
14:14:09.0 (118778874)|VF_APEX_CALL_START|[EXTERNAL]|01pQ0000000I7sk|PropertySurveyOverrideController invoke(getReisContactFields)
14:14:09.0 (120060213)|VF_APEX_CALL_END|PropertySurveyOverrideController invoke(getReisContactFields)
14:14:09.0 (120083714)|VF_APEX_CALL_END|PropertySurveyOverrideController get(ReisContactFields)
14:14:09.0 (121740193)|VF_EVALUATE_FORMULA_BEGIN|066Q0000000AmBn|#{f.fieldPath == 'Work_Phone__c' &#124;&#124; f.fieldPath == 'Mobile_Phone__c'}
14:14:09.0 (121851890)|VF_EVALUATE_FORMULA_END
14:14:09.0 (122376061)|VF_EVALUATE_FORMULA_BEGIN|066Q0000000AmBn|#{f.fieldPath == 'Work_Phone__c' &#124;&#124; f.fieldPath == 'Mobile_Phone__c'}
14:14:09.0 (122414548)|VF_EVALUATE_FORMULA_END
14:14:09.0 (122674120)|VF_EVALUATE_FORMULA_BEGIN|066Q0000000AmBn|#{f.fieldPath == 'Work_Phone__c' &#124;&#124; f.fieldPath == 'Mobile_Phone__c'}
14:14:09.0 (122715266)|VF_EVALUATE_FORMULA_END
14:14:09.0 (123000796)|VF_EVALUATE_FORMULA_BEGIN|066Q0000000AmBn|#{con.rcon[f.FieldPath]}
14:14:09.0 (123323502)|VF_EVALUATE_FORMULA_END
14:14:09.0 (123885851)|VF_EVALUATE_FORMULA_BEGIN|066Q0000000AmBn|#{f.fieldPath == 'Work_Phone__c' &#124;&#124; f.fieldPath == 'Mobile_Phone__c'}
14:14:09.0 (123932241)|VF_EVALUATE_FORMULA_END
14:14:09.0 (124169856)|VF_EVALUATE_FORMULA_BEGIN|066Q0000000AmBn|#{f.fieldPath == 'Work_Phone__c' &#124;&#124; f.fieldPath == 'Mobile_Phone__c'}
14:14:09.0 (124218751)|VF_EVALUATE_FORMULA_END
14:14:09.0 (124405742)|VF_EVALUATE_FORMULA_BEGIN|066Q0000000AmBn|#{con.rcon[f.FieldPath]}
14:14:09.0 (124757846)|VF_EVALUATE_FORMULA_END
14:14:09.0 (125572115)|VF_EVALUATE_FORMULA_BEGIN|066Q0000000AmBn|#{f.fieldPath == 'Work_Phone__c' &#124;&#124; f.fieldPath == 'Mobile_Phone__c'}
14:14:09.0 (125652527)|VF_EVALUATE_FORMULA_END
14:14:09.0 (126340068)|VF_EVALUATE_FORMULA_BEGIN|066Q0000000AmBn|#{f.fieldPath == 'Work_Phone__c' &#124;&#124; f.fieldPath == 'Mobile_Phone__c'}
14:14:09.0 (126388235)|VF_EVALUATE_FORMULA_END
14:14:09.0 (126525831)|VF_APEX_CALL_START|[EXTERNAL]|01pQ0000000I7sk|PropertySurveyOverrideController get(LocationFields)
14:14:09.0 (126542547)|SYSTEM_MODE_ENTER|true
14:14:09.0 (126556855)|VF_APEX_CALL_START|[EXTERNAL]|01pQ0000000I7sk|PropertySurveyOverrideController invoke(getLocationFields)
14:14:09.0 (127975209)|VF_APEX_CALL_END|PropertySurveyOverrideController invoke(getLocationFields)
14:14:09.0 (127999550)|VF_APEX_CALL_END|PropertySurveyOverrideController get(LocationFields)
14:14:09.0 (160099774)|VF_APEX_CALL_START|[EXTERNAL]|01pQ0000000I7sk|PropertySurveyOverrideController get(InformationFields)
14:14:09.0 (160128253)|SYSTEM_MODE_ENTER|true
14:14:09.0 (160152725)|VF_APEX_CALL_START|[EXTERNAL]|01pQ0000000I7sk|PropertySurveyOverrideController invoke(getInformationFields)
14:14:09.0 (162088606)|VF_APEX_CALL_END|PropertySurveyOverrideController invoke(getInformationFields)
14:14:09.0 (162122203)|VF_APEX_CALL_END|PropertySurveyOverrideController get(InformationFields)
14:14:09.0 (180877657)|VF_EVALUATE_FORMULA_BEGIN|066Q0000000AmBn|#{tempRecord.RecordType.name == 'Self Storage'}
14:14:09.0 (181299190)|VF_EVALUATE_FORMULA_END
14:14:09.0 (181317896)|VF_EVALUATE_FORMULA_BEGIN|066Q0000000AmBn|#{tempRecord.RecordType.name == 'Senior Housing'}
14:14:09.0 (181624352)|VF_EVALUATE_FORMULA_END
14:14:09.0 (181639384)|VF_EVALUATE_FORMULA_BEGIN|066Q0000000AmBn|#{tempRecord.RecordType.name == 'Student Housing'}
14:14:09.0 (181883798)|VF_EVALUATE_FORMULA_END
14:14:09.0 (181906522)|VF_EVALUATE_FORMULA_BEGIN|066Q0000000AmBn|#{tempRecord.RecordType.name == 'Retail'}
14:14:09.0 (182133550)|VF_EVALUATE_FORMULA_END
14:14:09.0 (228374545)|VF_APEX_CALL_START|[EXTERNAL]|01pQ0000000I7sk|PropertySurveyOverrideController get(newTenant)
14:14:09.0 (228400788)|SYSTEM_MODE_ENTER|true
14:14:09.0 (228418587)|VF_APEX_CALL_START|[EXTERNAL]|01pQ0000000I7sk|newTenant
14:14:09.0 (228447654)|VF_APEX_CALL_END|newTenant
14:14:09.0 (228467713)|VF_APEX_CALL_END|PropertySurveyOverrideController get(newTenant)
14:14:09.0 (231456787)|VF_APEX_CALL_START|[EXTERNAL]|01pQ0000000I7sk|PropertySurveyOverrideController get(tenantsList)
14:14:09.0 (231475492)|SYSTEM_MODE_ENTER|true
14:14:09.0 (231487894)|VF_APEX_CALL_START|[EXTERNAL]|01pQ0000000I7sk|tenantsList
14:14:09.0 (231501249)|VF_APEX_CALL_END|tenantsList
14:14:09.0 (231517713)|VF_APEX_CALL_END|PropertySurveyOverrideController get(tenantsList)
14:14:09.0 (231740088)|VF_EVALUATE_FORMULA_BEGIN|066Q0000000AmBn|#{tempRecord.RecordType.name == 'Office' &#124;&#124; tempRecord.RecordType.name == 'Industrial'}
14:14:09.0 (232235466)|VF_EVALUATE_FORMULA_END
14:14:09.0 (232251872)|VF_EVALUATE_FORMULA_BEGIN|066Q0000000AmBn|#{tempRecord.RecordType.name == 'Apartments'}
14:14:09.0 (232453029)|VF_EVALUATE_FORMULA_END
14:14:09.0 (232474681)|VF_EVALUATE_FORMULA_BEGIN|066Q0000000AmBn|#{tempRecord.RecordType.name == 'Affordable'}
14:14:09.0 (232687159)|VF_EVALUATE_FORMULA_END
14:14:09.0 (232702761)|VF_EVALUATE_FORMULA_BEGIN|066Q0000000AmBn|#{tempRecord.RecordType.name == 'Industrial' &#124;&#124; tempRecord.RecordType.name == 'Apartments' &#124;&#124; tempRecord.RecordType.name == 'Affordable' &#124;&#124; tempRecord.RecordType.name == 'Senior Housing' &#124;&#124; tempRecord.RecordType.name == 'Self Storage' &#124;&#124; tempRecord.RecordType.name == 'Student Housing'}
14:14:09.0 (233812105)|VF_EVALUATE_FORMULA_END
14:14:09.0 (280137359)|VF_EVALUATE_FORMULA_BEGIN|066Q0000000AmBn|#{URLFOR($Asset.SLDS, '/assets/icons/action-sprite/svg/symbols.svg#new')}
14:14:09.0 (280264019)|VF_EVALUATE_FORMULA_END
14:14:09.0 (280279541)|VF_EVALUATE_FORMULA_BEGIN|066Q0000000AmBn|#{URLFOR($Asset.SLDS, '/assets/icons/utility-sprite/svg/symbols.svg#check')}
14:14:09.0 (280325928)|VF_EVALUATE_FORMULA_END
14:14:09.0 (280335791)|VF_EVALUATE_FORMULA_BEGIN|066Q0000000AmBn|#{URLFOR($Asset.SLDS, '/assets/icons/utility-sprite/svg/symbols.svg#check')}
14:14:09.0 (280368465)|VF_EVALUATE_FORMULA_END
14:14:09.0 (280377709)|VF_EVALUATE_FORMULA_BEGIN|066Q0000000AmBn|#{URLFOR($Asset.SLDS, '/assets/icons/utility-sprite/svg/symbols.svg#question')}
14:14:09.0 (280416224)|VF_EVALUATE_FORMULA_END
14:14:09.0 (280783152)|VF_APEX_CALL_START|[EXTERNAL]|01pQ0000000I7sk|PropertySurveyOverrideController get(recordLocked)
14:14:09.0 (280803627)|SYSTEM_MODE_ENTER|true
14:14:09.0 (280821097)|VF_APEX_CALL_START|[EXTERNAL]|01pQ0000000I7sk|recordLocked
14:14:09.0 (291549502)|SOQL_EXECUTE_BEGIN|[7]|Aggregations:1|SELECT Id, (SELECT Id, ActorId, ProcessInstanceId FROM Workitems) FROM ProcessInstance WHERE TargetObjectId = :tmpVar1
14:14:09.0 (298031440)|SOQL_EXECUTE_END|[7]|Rows:1
14:14:09.0 (300241411)|SOQL_EXECUTE_BEGIN|[38]|Aggregations:1|SELECT Id, RelatedId, Name, Type, (SELECT Id, GroupId, UserorgroupId FROM GroupMembers) FROM Group
14:14:09.0 (307089609)|SOQL_EXECUTE_END|[38]|Rows:86
14:14:09.0 (307996224)|USER_DEBUG|[47]|DEBUG|00GQ0000002joRaMAI
14:14:09.0 (308053067)|USER_DEBUG|[48]|DEBUG|GroupMember:{GroupId=00GQ0000002k0FlMAI, Id=011Q0000003fiwQIAQ, UserOrGroupId=00GQ0000002joRaMAI}
14:14:09.0 (308133005)|USER_DEBUG|[49]|DEBUG|Group:{Id=00GQ0000002joRaMAI, RelatedId=00EQ0000000qJBKMA2, Type=Role}
14:14:09.0 (308700756)|USER_DEBUG|[47]|DEBUG|00GQ0000002joRfMAI
14:14:09.0 (308753754)|USER_DEBUG|[48]|DEBUG|GroupMember:{GroupId=00GQ0000002k0FlMAI, Id=011Q0000003fhuOIAQ, UserOrGroupId=00GQ0000002joRfMAI}
14:14:09.0 (308804607)|USER_DEBUG|[49]|DEBUG|Group:{Id=00GQ0000002joRfMAI, RelatedId=00EQ0000000qJBPMA2, Type=Role}
14:14:09.0 (311841191)|SOQL_EXECUTE_BEGIN|[64]|Aggregations:0|SELECT Id FROM User WHERE UserRole.Id IN :tmpVar1
14:14:09.0 (331510017)|SOQL_EXECUTE_END|[64]|Rows:10
14:14:09.0 (332179452)|USER_DEBUG|[68]|DEBUG|(0050B000007L8tyQAC, 005Q000000Pbu0vIAB, 005Q000000PcW1hIAF, 005Q000000Pnnh8IAB, 005Q000000PpNFgIAN, 005Q000000PpwRDIAZ, 005Q000000PqOKAIA3, 0050B0000072SbnQAE, 005Q000000PcVw3IAF, 005Q000000PpfawIAB)
14:14:09.0 (332561624)|SOQL_EXECUTE_BEGIN|[108]|Aggregations:0|SELECT Id, UserRoleId FROM User WHERE Id = :tmpVar1
14:14:09.0 (334440136)|SOQL_EXECUTE_END|[108]|Rows:1
14:14:09.0 (334566654)|USER_DEBUG|[109]|DEBUG|00EU0000000IXdyMAG
14:14:09.0 (334811280)|SOQL_EXECUTE_BEGIN|[110]|Aggregations:0|SELECT Id, UserRoleId FROM User WHERE Id IN :tmpVar1
14:14:09.0 (337194224)|SOQL_EXECUTE_END|[110]|Rows:10
14:14:09.0 (337422112)|USER_DEBUG|[111]|DEBUG|(User:{Id=0050B0000072SbnQAE, UserRoleId=00EQ0000000qJBPMA2}, User:{Id=0050B000007L8tyQAC, UserRoleId=00EQ0000000qJBKMA2}, User:{Id=005Q000000Pbu0vIAB, UserRoleId=00EQ0000000qJBKMA2}, User:{Id=005Q000000PcVw3IAF, UserRoleId=00EQ0000000qJBPMA2}, User:{Id=005Q000000PcW1hIAF, UserRoleId=00EQ0000000qJBKMA2}, User:{Id=005Q000000Pnnh8IAB, UserRoleId=00EQ0000000qJBKMA2}, User:{Id=005Q000000PpNFgIAN, UserRoleId=00EQ0000000qJBKMA2}, User:{Id=005Q000000PpfawIAB, UserRoleId=00EQ0000000qJBPMA2}, User:{Id=005Q000000PpwRDIAZ, UserRoleId=00EQ0000000qJBKMA2}, User:{Id=005Q000000PqOKAIA3, UserRoleId=00EQ0000000qJBKMA2})
14:14:09.0 (338074963)|SOQL_EXECUTE_BEGIN|[121]|Aggregations:0|SELECT Id, ParentRoleId FROM UserRole
14:14:09.0 (339871927)|SOQL_EXECUTE_END|[121]|Rows:37
14:14:09.0 (340229308)|USER_DEBUG|[125]|DEBUG|true
14:14:09.0 (340491024)|USER_DEBUG|[130]|DEBUG|00EQ0000000qJBKMA2
14:14:09.0 (340714230)|USER_DEBUG|[130]|DEBUG|00EU0000000IXdyMAG
14:14:09.0 (340894012)|USER_DEBUG|[125]|DEBUG|true
14:14:09.0 (341002073)|USER_DEBUG|[130]|DEBUG|00EU0000000IXdyMAG
14:14:09.0 (341123310)|VF_APEX_CALL_END|recordLocked
14:14:09.0 (341163259)|VF_APEX_CALL_END|PropertySurveyOverrideController get(recordLocked)
14:14:09.0 (351565807)|VF_EVALUATE_FORMULA_BEGIN|066Q0000000AmBn|#{tempRecord.RecordType.name == 'Affordable' &#124;&#124; tempRecord.RecordType.name == 'Apartments'}
14:14:09.0 (352271913)|VF_EVALUATE_FORMULA_END
14:14:09.0 (352294851)|VF_EVALUATE_FORMULA_BEGIN|066Q0000000AmBn|#{tempRecord.RecordType.name == 'Affordable'}
14:14:09.0 (352531365)|VF_EVALUATE_FORMULA_END
14:14:09.0 (352553715)|VF_EVALUATE_FORMULA_BEGIN|066Q0000000AmBn|#{tempRecord.RecordType.name == 'Apartments'}
14:14:09.0 (352820055)|VF_EVALUATE_FORMULA_END
14:14:09.0 (360505777)|VF_EVALUATE_FORMULA_BEGIN|066Q0000000AmBn|#{URLFOR($Asset.SLDS, '/assets/icons/action-sprite/svg/symbols.svg#new')}
14:14:09.0 (360591484)|VF_EVALUATE_FORMULA_END
14:14:09.0 (360753978)|VF_EVALUATE_FORMULA_BEGIN|066Q0000000AmBn|#{URLFOR($Asset.SLDS, '/assets/icons/action-sprite/svg/symbols.svg#new')}
14:14:09.0 (360812890)|VF_EVALUATE_FORMULA_END
14:14:09.361 (361593352)|VF_APEX_CALL_START|[EXTERNAL]|/apexpage/pagemessagescomponentcontroller.apex set(conEscape,null)
14:14:09.361 (361630538)|SYSTEM_MODE_ENTER|true
14:14:09.361 (361652752)|VF_APEX_CALL_START|[EXTERNAL]|PageMessagesComponentController set(conEscape,null)
14:14:09.361 (361692078)|VF_APEX_CALL_START|[EXTERNAL]|PageMessagesComponentController invoke(setconEscape)
14:14:09.362 (362084214)|VF_APEX_CALL_START|[EXTERNAL]|/apexpage/pagemessagescomponentcontroller.apex get(severities)
14:14:09.362 (362140473)|SYSTEM_MODE_ENTER|true
14:14:09.362 (362171954)|VF_APEX_CALL_START|[EXTERNAL]|PageMessagesComponentController invoke(getseverities)
14:14:09.0 (368411883)|VF_EVALUATE_FORMULA_BEGIN|066Q0000000AmBn|renderSVG();closePage(#{goodToClose});greyOutFields();greyLookups();toggleUtilityCap(); return false;
14:14:09.0 (368515026)|VF_APEX_CALL_START|[EXTERNAL]|01pQ0000000I7sk|PropertySurveyOverrideController get(goodToClose)
14:14:09.0 (368542445)|SYSTEM_MODE_ENTER|true
14:14:09.0 (368564343)|VF_APEX_CALL_START|[EXTERNAL]|01pQ0000000I7sk|goodToClose
14:14:09.0 (368597077)|VF_APEX_CALL_END|goodToClose
14:14:09.0 (368620409)|VF_APEX_CALL_END|PropertySurveyOverrideController get(goodToClose)
14:14:09.0 (368639427)|VF_EVALUATE_FORMULA_END
14:14:09.0 (368651909)|VF_EVALUATE_FORMULA_BEGIN|066Q0000000AmBn|renderSVG();closePage(#{goodToClose});greyOutFields();greyLookups();toggleUtilityCap(); return false;
14:14:09.0 (368695595)|VF_EVALUATE_FORMULA_END
14:14:09.0 (368706120)|VF_EVALUATE_FORMULA_BEGIN|066Q0000000AmBn|renderSVG();closePage(#{goodToClose});greyOutFields();greyLookups();toggleUtilityCap(); return false;
14:14:09.0 (368741153)|VF_EVALUATE_FORMULA_END
14:14:09.0 (368765494)|VF_EVALUATE_FORMULA_BEGIN|066Q0000000AmBn|renderSVG();closePage(#{goodToClose});greyOutFields();greyLookups();toggleUtilityCap(); return false;
14:14:09.0 (368801836)|VF_EVALUATE_FORMULA_END
14:14:09.0 (368811419)|VF_EVALUATE_FORMULA_BEGIN|066Q0000000AmBn|renderSVG();closePage(#{goodToClose});greyOutFields();greyLookups();toggleUtilityCap(); return false;
14:14:09.0 (368848857)|VF_EVALUATE_FORMULA_END
14:14:09.0 (368860590)|VF_EVALUATE_FORMULA_BEGIN|066Q0000000AmBn|renderSVG();closePage(#{goodToClose});greyOutFields();greyLookups();toggleUtilityCap(); return false;
14:14:09.0 (368895150)|VF_EVALUATE_FORMULA_END
14:14:09.0 (368904428)|VF_EVALUATE_FORMULA_BEGIN|066Q0000000AmBn|renderSVG();closePage(#{goodToClose});greyOutFields();greyLookups();toggleUtilityCap(); return false;
14:14:09.0 (368936769)|VF_EVALUATE_FORMULA_END
14:14:09.0 (369089212)|VF_EVALUATE_FORMULA_BEGIN|066Q0000000AmBn|renderSVG();closePage(#{goodToClose});greyOutFields();greyLookups();toggleUtilityCap(); return false;
14:14:09.0 (369131622)|VF_EVALUATE_FORMULA_END
14:14:09.0 (369228170)|VF_EVALUATE_FORMULA_BEGIN|066Q0000000AmBn|renderSVG();closePage(#{goodToClose});greyOutFields();greyLookups();toggleUtilityCap(); return false;
14:14:09.0 (369294519)|VF_EVALUATE_FORMULA_END
14:14:09.0 (369310087)|VF_EVALUATE_FORMULA_BEGIN|066Q0000000AmBn|renderSVG();closePage(#{goodToClose});greyOutFields();greyLookups();toggleUtilityCap(); return false;
14:14:09.0 (369350037)|VF_EVALUATE_FORMULA_END
14:14:09.0 (369359646)|VF_EVALUATE_FORMULA_BEGIN|066Q0000000AmBn|renderSVG();closePage(#{goodToClose});greyOutFields();greyLookups();toggleUtilityCap(); return false;
14:14:09.0 (369439493)|VF_EVALUATE_FORMULA_END
14:14:09.0 (369467969)|VF_EVALUATE_FORMULA_BEGIN|066Q0000000AmBn|renderSVG();closePage(#{goodToClose});greyOutFields();greyLookups();toggleUtilityCap(); return false;
14:14:09.0 (369512234)|VF_EVALUATE_FORMULA_END
14:14:09.0 (369522601)|VF_EVALUATE_FORMULA_BEGIN|066Q0000000AmBn|renderSVG();closePage(#{goodToClose});greyOutFields();greyLookups();toggleUtilityCap(); return false;
14:14:09.0 (369589821)|VF_EVALUATE_FORMULA_END
14:14:09.0 (369605177)|VF_EVALUATE_FORMULA_BEGIN|066Q0000000AmBn|renderSVG();closePage(#{goodToClose});greyOutFields();greyLookups();toggleUtilityCap(); return false;
14:14:09.0 (369643324)|VF_EVALUATE_FORMULA_END
14:14:09.0 (369652432)|VF_EVALUATE_FORMULA_BEGIN|066Q0000000AmBn|renderSVG();closePage(#{goodToClose});greyOutFields();greyLookups();toggleUtilityCap(); return false;
14:14:09.0 (369709384)|VF_EVALUATE_FORMULA_END
14:14:09.0 (369890751)|VF_EVALUATE_FORMULA_BEGIN|066Q0000000AmBn|renderSVG();closePage(#{goodToClose});greyOutFields();greyLookups();toggleUtilityCap(); return false;
14:14:09.0 (369969894)|VF_EVALUATE_FORMULA_END
14:14:09.0 (370024029)|VF_EVALUATE_FORMULA_BEGIN|066Q0000000AmBn|renderSVG();closePage(#{goodToClose});greyOutFields();greyLookups();toggleUtilityCap(); return false;
14:14:09.0 (370065810)|VF_EVALUATE_FORMULA_END
14:14:09.0 (370075394)|VF_EVALUATE_FORMULA_BEGIN|066Q0000000AmBn|renderSVG();closePage(#{goodToClose});greyOutFields();greyLookups();toggleUtilityCap(); return false;
14:14:09.0 (370123219)|VF_EVALUATE_FORMULA_END
14:14:09.0 (370139298)|VF_EVALUATE_FORMULA_BEGIN|066Q0000000AmBn|renderSVG();closePage(#{goodToClose});greyOutFields();greyLookups();toggleUtilityCap(); return false;
14:14:09.0 (370196930)|VF_EVALUATE_FORMULA_END
14:14:09.0 (370215903)|VF_EVALUATE_FORMULA_BEGIN|066Q0000000AmBn|renderSVG();closePage(#{goodToClose});greyOutFields();greyLookups();toggleUtilityCap(); return false;
14:14:09.0 (370252177)|VF_EVALUATE_FORMULA_END
14:14:09.0 (370261758)|VF_EVALUATE_FORMULA_BEGIN|066Q0000000AmBn|renderSVG();closePage(#{goodToClose});greyOutFields();greyLookups();toggleUtilityCap(); return false;
14:14:09.0 (370309673)|VF_EVALUATE_FORMULA_END
14:14:09.0 (370328046)|VF_EVALUATE_FORMULA_BEGIN|066Q0000000AmBn|renderSVG();closePage(#{goodToClose});greyOutFields();greyLookups();toggleUtilityCap(); return false;
14:14:09.0 (370371313)|VF_EVALUATE_FORMULA_END
14:14:09.0 (370381303)|VF_EVALUATE_FORMULA_BEGIN|066Q0000000AmBn|renderSVG();closePage(#{goodToClose});greyOutFields();greyLookups();toggleUtilityCap(); return false;
14:14:09.0 (370414623)|VF_EVALUATE_FORMULA_END
14:14:09.0 (370582462)|VF_EVALUATE_FORMULA_BEGIN|066Q0000000AmBn|renderSVG();closePage(#{goodToClose});greyOutFields();greyLookups();toggleUtilityCap(); return false;
14:14:09.0 (370624352)|VF_EVALUATE_FORMULA_END
14:14:09.0 (371882405)|VF_EVALUATE_FORMULA_BEGIN|066Q0000000AmBn|#{URLFOR($Asset.SLDS, '/assets/icons/action-sprite/svg/symbols.svg#new')}
14:14:09.0 (371931340)|VF_EVALUATE_FORMULA_END
14:14:09.0 (374184900)|VF_EVALUATE_FORMULA_BEGIN|066Q0000000AmBn|#{if(con.newCon, '','display: none;')}
14:14:09.0 (374258966)|VF_APEX_CALL_START|[EXTERNAL]|01pQ0000000RFtf|newCon
14:14:09.0 (374277019)|VF_APEX_CALL_END|newCon
14:14:09.0 (374298576)|VF_EVALUATE_FORMULA_END
14:14:09.0 (375413567)|VF_EVALUATE_FORMULA_BEGIN|066Q0000000AmBn|#{if(con.newCon, 'display: none;','')}
14:14:09.0 (375455346)|VF_EVALUATE_FORMULA_END
14:14:09.0 (376036552)|VF_EVALUATE_FORMULA_BEGIN|066Q0000000AmBn|slds-truncate First_Name__c #{if(con.newCon, '','readonly')}
14:14:09.0 (376079470)|VF_EVALUATE_FORMULA_END
14:14:09.0 (376874797)|VF_EVALUATE_FORMULA_BEGIN|066Q0000000AmBn|slds-truncate Last_Name__c #{if(con.newCon, '','readonly')}
14:14:09.0 (376915424)|VF_EVALUATE_FORMULA_END
14:14:09.0 (377002991)|VF_EVALUATE_FORMULA_BEGIN|066Q0000000AmBn|#{if(con.newCon, '','display: none;')}
14:14:09.0 (377035905)|VF_EVALUATE_FORMULA_END
14:14:09.0 (377051455)|VF_EVALUATE_FORMULA_BEGIN|066Q0000000AmBn|#{if(con.newCon, '','display: none;')}
14:14:09.0 (377076516)|VF_EVALUATE_FORMULA_END
14:14:09.0 (377092010)|VF_EVALUATE_FORMULA_BEGIN|066Q0000000AmBn|#{if(con.newCon,'','display: none;')}
14:14:09.0 (377122381)|VF_EVALUATE_FORMULA_END
14:14:09.0 (378374265)|VF_EVALUATE_FORMULA_BEGIN|066Q0000000AmBn|Company__c slds-truncate #{if(con.newCon, 'tempReadOnly','readonly')} #{f.fieldPath} #{f.Label} #{if(f.fieldPath == 'Mobile_Phone__c' &#124;&#124; f.fieldPath == 'Work_Phone__c', 'digitsOnly','')}
14:14:09.0 (378568574)|VF_EVALUATE_FORMULA_END
14:14:09.0 (378618206)|VF_EVALUATE_FORMULA_BEGIN|066Q0000000AmBn|width:120px; #{if((f.fieldPath == 'Mobile_Phone__c' && con.rcon[f.FieldPath] != null) &#124;&#124; (f.fieldPath == 'Work_Phone__c' && con.rcon[f.FieldPath] != null), 'display:none;','')}
14:14:09.0 (378672105)|VF_EVALUATE_FORMULA_END
14:14:09.0 (378842663)|VF_EVALUATE_FORMULA_BEGIN|066Q0000000AmBn|#{f.fieldPath == 'Work_Phone__c' &#124;&#124; f.fieldPath == 'Mobile_Phone__c'}
14:14:09.0 (378890095)|VF_EVALUATE_FORMULA_END
14:14:09.0 (378928226)|VF_EVALUATE_FORMULA_BEGIN|066Q0000000AmBn|#{if(con.newCon && f.fieldPath == 'REIS_Company__c', 'tempReadOnly','display: none;')}
14:14:09.0 (378962681)|VF_EVALUATE_FORMULA_END
14:14:09.0 (379846976)|VF_EVALUATE_FORMULA_BEGIN|066Q0000000AmBn|Company__c slds-truncate #{if(con.newCon, 'tempReadOnly','readonly')} #{f.fieldPath} #{f.Label} #{if(f.fieldPath == 'Mobile_Phone__c' &#124;&#124; f.fieldPath == 'Work_Phone__c', 'digitsOnly','')}
14:14:09.0 (380004530)|VF_EVALUATE_FORMULA_END
14:14:09.0 (380055228)|VF_EVALUATE_FORMULA_BEGIN|066Q0000000AmBn|width:120px; #{if((f.fieldPath == 'Mobile_Phone__c' && con.rcon[f.FieldPath] != null) &#124;&#124; (f.fieldPath == 'Work_Phone__c' && con.rcon[f.FieldPath] != null), 'display:none;','')}
14:14:09.0 (380500001)|VF_EVALUATE_FORMULA_END
14:14:09.0 (380584260)|VF_EVALUATE_FORMULA_BEGIN|066Q0000000AmBn|#{f.fieldPath == 'Work_Phone__c' &#124;&#124; f.fieldPath == 'Mobile_Phone__c'}
14:14:09.0 (380620031)|VF_EVALUATE_FORMULA_END
14:14:09.0 (380681835)|VF_EVALUATE_FORMULA_BEGIN|066Q0000000AmBn|#{f.fieldPath == 'Work_Phone__c' &#124;&#124; f.fieldPath == 'Mobile_Phone__c'}
14:14:09.0 (380740765)|VF_EVALUATE_FORMULA_END
14:14:09.0 (380991701)|VF_EVALUATE_FORMULA_BEGIN|066Q0000000AmBn|#{con.rcon[f.FieldPath]}
14:14:09.0 (381310092)|VF_EVALUATE_FORMULA_END
14:14:09.0 (381532437)|VF_EVALUATE_FORMULA_BEGIN|066Q0000000AmBn|#{f.fieldPath == 'Work_Phone__c' &#124;&#124; f.fieldPath == 'Mobile_Phone__c'}
14:14:09.0 (381568759)|VF_EVALUATE_FORMULA_END
14:14:09.0 (381624607)|VF_EVALUATE_FORMULA_BEGIN|066Q0000000AmBn|#{if(con.newCon && f.fieldPath == 'REIS_Company__c', 'tempReadOnly','display: none;')}
14:14:09.0 (381653931)|VF_EVALUATE_FORMULA_END
14:14:09.0 (382476775)|VF_EVALUATE_FORMULA_BEGIN|066Q0000000AmBn|Company__c slds-truncate #{if(con.newCon, 'tempReadOnly','readonly')} #{f.fieldPath} #{f.Label} #{if(f.fieldPath == 'Mobile_Phone__c' &#124;&#124; f.fieldPath == 'Work_Phone__c', 'digitsOnly','')}
14:14:09.0 (382627312)|VF_EVALUATE_FORMULA_END
14:14:09.0 (382680813)|VF_EVALUATE_FORMULA_BEGIN|066Q0000000AmBn|width:120px; #{if((f.fieldPath == 'Mobile_Phone__c' && con.rcon[f.FieldPath] != null) &#124;&#124; (f.fieldPath == 'Work_Phone__c' && con.rcon[f.FieldPath] != null), 'display:none;','')}
14:14:09.0 (382958253)|VF_EVALUATE_FORMULA_END
14:14:09.0 (383022403)|VF_EVALUATE_FORMULA_BEGIN|066Q0000000AmBn|#{f.fieldPath == 'Work_Phone__c' &#124;&#124; f.fieldPath == 'Mobile_Phone__c'}
14:14:09.0 (383109484)|VF_EVALUATE_FORMULA_END
14:14:09.0 (383147282)|VF_EVALUATE_FORMULA_BEGIN|066Q0000000AmBn|#{f.fieldPath == 'Work_Phone__c' &#124;&#124; f.fieldPath == 'Mobile_Phone__c'}
14:14:09.0 (383189692)|VF_EVALUATE_FORMULA_END
14:14:09.0 (383345488)|VF_EVALUATE_FORMULA_BEGIN|066Q0000000AmBn|#{con.rcon[f.FieldPath]}
14:14:09.0 (383532318)|VF_EVALUATE_FORMULA_END
14:14:09.0 (383691708)|VF_EVALUATE_FORMULA_BEGIN|066Q0000000AmBn|#{f.fieldPath == 'Work_Phone__c' &#124;&#124; f.fieldPath == 'Mobile_Phone__c'}
14:14:09.0 (383737039)|VF_EVALUATE_FORMULA_END
14:14:09.0 (383792120)|VF_EVALUATE_FORMULA_BEGIN|066Q0000000AmBn|#{if(con.newCon && f.fieldPath == 'REIS_Company__c', 'tempReadOnly','display: none;')}
14:14:09.0 (383826387)|VF_EVALUATE_FORMULA_END
14:14:09.0 (384763911)|VF_EVALUATE_FORMULA_BEGIN|066Q0000000AmBn|Company__c slds-truncate #{if(con.newCon, 'tempReadOnly','readonly')} #{f.fieldPath} #{f.Label} #{if(f.fieldPath == 'Mobile_Phone__c' &#124;&#124; f.fieldPath == 'Work_Phone__c', 'digitsOnly','')}
14:14:09.0 (384934330)|VF_EVALUATE_FORMULA_END
14:14:09.0 (384983697)|VF_EVALUATE_FORMULA_BEGIN|066Q0000000AmBn|width:120px; #{if((f.fieldPath == 'Mobile_Phone__c' && con.rcon[f.FieldPath] != null) &#124;&#124; (f.fieldPath == 'Work_Phone__c' && con.rcon[f.FieldPath] != null), 'display:none;','')}
14:14:09.0 (385032179)|VF_EVALUATE_FORMULA_END
14:14:09.0 (385091767)|VF_EVALUATE_FORMULA_BEGIN|066Q0000000AmBn|#{f.fieldPath == 'Work_Phone__c' &#124;&#124; f.fieldPath == 'Mobile_Phone__c'}
14:14:09.0 (385134038)|VF_EVALUATE_FORMULA_END
14:14:09.0 (385167363)|VF_EVALUATE_FORMULA_BEGIN|066Q0000000AmBn|#{if(con.newCon && f.fieldPath == 'REIS_Company__c', 'tempReadOnly','display: none;')}
14:14:09.0 (385194686)|VF_EVALUATE_FORMULA_END
14:14:09.0 (386418790)|VF_EVALUATE_FORMULA_BEGIN|066Q0000000AmBn|Company__c slds-truncate #{if(con.newCon, 'tempReadOnly','readonly')} #{f.fieldPath} #{f.Label} #{if(f.fieldPath == 'Mobile_Phone__c' &#124;&#124; f.fieldPath == 'Work_Phone__c', 'digitsOnly','')}
14:14:09.0 (386664336)|VF_EVALUATE_FORMULA_END
14:14:09.0 (386743112)|VF_EVALUATE_FORMULA_BEGIN|066Q0000000AmBn|width:120px; #{if((f.fieldPath == 'Mobile_Phone__c' && con.rcon[f.FieldPath] != null) &#124;&#124; (f.fieldPath == 'Work_Phone__c' && con.rcon[f.FieldPath] != null), 'display:none;','')}
14:14:09.0 (386794628)|VF_EVALUATE_FORMULA_END
14:14:09.0 (386938774)|VF_EVALUATE_FORMULA_BEGIN|066Q0000000AmBn|#{f.fieldPath == 'Work_Phone__c' &#124;&#124; f.fieldPath == 'Mobile_Phone__c'}
14:14:09.0 (386983368)|VF_EVALUATE_FORMULA_END
14:14:09.0 (387044580)|VF_EVALUATE_FORMULA_BEGIN|066Q0000000AmBn|#{if(con.newCon && f.fieldPath == 'REIS_Company__c', 'tempReadOnly','display: none;')}
14:14:09.0 (387082863)|VF_EVALUATE_FORMULA_END
14:14:09.0 (387438605)|VF_EVALUATE_FORMULA_BEGIN|066Q0000000AmBn|#{if( f.Type == 'textarea', 'height:80px;Width:50%;',if(f.FieldPath == 'State__c' &#124;&#124; f.FieldPath == 'City__c' &#124;&#124; f.FieldPath == 'County__c' &#124;&#124; f.FieldPath == 'Zip__c','height:50px;Width:100%','height:50px;Width:50%'))}
14:14:09.0 (387887693)|VF_EVALUATE_FORMULA_END
14:14:09.0 (389124213)|VF_EVALUATE_FORMULA_BEGIN|066Q0000000AmBn|#{f.FieldPath} findMe
14:14:09.0 (389216506)|VF_EVALUATE_FORMULA_END
14:14:09.0 (389265622)|VF_EVALUATE_FORMULA_BEGIN|066Q0000000AmBn|#{if(f.FieldPath == 'Address_New__c','height:240px','')}
14:14:09.0 (389367068)|VF_EVALUATE_FORMULA_END
14:14:09.0 (389440773)|VF_EVALUATE_FORMULA_BEGIN|066Q0000000AmBn|#{if( f.Type == 'textarea', 'height:80px;Width:50%;',if(f.FieldPath == 'State__c' &#124;&#124; f.FieldPath == 'City__c' &#124;&#124; f.FieldPath == 'County__c' &#124;&#124; f.FieldPath == 'Zip__c','height:50px;Width:100%','height:50px;Width:50%'))}
14:14:09.0 (389808410)|VF_EVALUATE_FORMULA_END
14:14:09.0 (417428902)|VF_EVALUATE_FORMULA_BEGIN|066Q0000000AmBn|#{f.FieldPath} findMe
14:14:09.0 (417617075)|VF_EVALUATE_FORMULA_END
14:14:09.0 (417736746)|VF_EVALUATE_FORMULA_BEGIN|066Q0000000AmBn|#{if(f.FieldPath == 'Address_New__c','height:240px','')}
14:14:09.0 (417877711)|VF_EVALUATE_FORMULA_END
14:14:09.0 (418055242)|VF_EVALUATE_FORMULA_BEGIN|066Q0000000AmBn|#{if( f.Type == 'textarea', 'height:80px;Width:50%;',if(f.FieldPath == 'State__c' &#124;&#124; f.FieldPath == 'City__c' &#124;&#124; f.FieldPath == 'County__c' &#124;&#124; f.FieldPath == 'Zip__c','height:50px;Width:100%','height:50px;Width:50%'))}
14:14:09.0 (418160274)|VF_EVALUATE_FORMULA_END
14:14:09.0 (419366700)|VF_EVALUATE_FORMULA_BEGIN|066Q0000000AmBn|#{f.FieldPath} findMe
14:14:09.0 (419467119)|VF_EVALUATE_FORMULA_END
14:14:09.0 (419543585)|VF_EVALUATE_FORMULA_BEGIN|066Q0000000AmBn|#{if(f.FieldPath == 'Address_New__c','height:240px','')}
14:14:09.0 (419629733)|VF_EVALUATE_FORMULA_END
14:14:09.0 (419712539)|VF_EVALUATE_FORMULA_BEGIN|066Q0000000AmBn|#{if( f.Type == 'textarea', 'height:80px;Width:50%;',if(f.FieldPath == 'State__c' &#124;&#124; f.FieldPath == 'City__c' &#124;&#124; f.FieldPath == 'County__c' &#124;&#124; f.FieldPath == 'Zip__c','height:50px;Width:100%','height:50px;Width:50%'))}
14:14:09.0 (419801562)|VF_EVALUATE_FORMULA_END
14:14:09.0 (421341985)|VF_EVALUATE_FORMULA_BEGIN|066Q0000000AmBn|#{f.FieldPath} findMe
14:14:09.0 (421472666)|VF_EVALUATE_FORMULA_END
14:14:09.0 (421528985)|VF_EVALUATE_FORMULA_BEGIN|066Q0000000AmBn|#{if(f.FieldPath == 'Address_New__c','height:240px','')}
14:14:09.0 (421650602)|VF_EVALUATE_FORMULA_END
14:14:09.0 (421738401)|VF_EVALUATE_FORMULA_BEGIN|066Q0000000AmBn|#{if( f.Type == 'textarea', 'height:80px;Width:50%;',if(f.FieldPath == 'State__c' &#124;&#124; f.FieldPath == 'City__c' &#124;&#124; f.FieldPath == 'County__c' &#124;&#124; f.FieldPath == 'Zip__c','height:50px;Width:100%','height:50px;Width:50%'))}
14:14:09.0 (421829780)|VF_EVALUATE_FORMULA_END
14:14:09.0 (422988712)|VF_EVALUATE_FORMULA_BEGIN|066Q0000000AmBn|#{f.FieldPath} findMe
14:14:09.0 (423075718)|VF_EVALUATE_FORMULA_END
14:14:09.0 (423125643)|VF_EVALUATE_FORMULA_BEGIN|066Q0000000AmBn|#{if(f.FieldPath == 'Address_New__c','height:240px','')}
14:14:09.0 (423207599)|VF_EVALUATE_FORMULA_END
14:14:09.0 (423281918)|VF_EVALUATE_FORMULA_BEGIN|066Q0000000AmBn|#{if( f.Type == 'textarea', 'height:80px;Width:50%;',if(f.FieldPath == 'State__c' &#124;&#124; f.FieldPath == 'City__c' &#124;&#124; f.FieldPath == 'County__c' &#124;&#124; f.FieldPath == 'Zip__c','height:50px;Width:100%','height:50px;Width:50%'))}
14:14:09.0 (423380650)|VF_EVALUATE_FORMULA_END
14:14:09.0 (424967288)|VF_EVALUATE_FORMULA_BEGIN|066Q0000000AmBn|#{f.FieldPath} findMe
14:14:09.0 (425055035)|VF_EVALUATE_FORMULA_END
14:14:09.0 (425105997)|VF_EVALUATE_FORMULA_BEGIN|066Q0000000AmBn|#{if(f.FieldPath == 'Address_New__c','height:240px','')}
14:14:09.0 (425189423)|VF_EVALUATE_FORMULA_END
14:14:09.0 (425268663)|VF_EVALUATE_FORMULA_BEGIN|066Q0000000AmBn|#{if( f.Type == 'textarea', 'height:80px;Width:50%;',if(f.FieldPath == 'State__c' &#124;&#124; f.FieldPath == 'City__c' &#124;&#124; f.FieldPath == 'County__c' &#124;&#124; f.FieldPath == 'Zip__c','height:50px;Width:100%','height:50px;Width:50%'))}
14:14:09.0 (425493867)|VF_EVALUATE_FORMULA_END
14:14:09.0 (426617761)|VF_EVALUATE_FORMULA_BEGIN|066Q0000000AmBn|#{f.FieldPath} findMe
14:14:09.0 (426708479)|VF_EVALUATE_FORMULA_END
14:14:09.0 (426756911)|VF_EVALUATE_FORMULA_BEGIN|066Q0000000AmBn|#{if(f.FieldPath == 'Address_New__c','height:240px','')}
14:14:09.0 (426843432)|VF_EVALUATE_FORMULA_END
14:14:09.0 (426947895)|VF_EVALUATE_FORMULA_BEGIN|066Q0000000AmBn|#{if( f.Type == 'textarea', 'height:80px;Width:50%;',if(f.FieldPath == 'State__c' &#124;&#124; f.FieldPath == 'City__c' &#124;&#124; f.FieldPath == 'County__c' &#124;&#124; f.FieldPath == 'Zip__c','height:50px;Width:100%','height:50px;Width:50%'))}
14:14:09.0 (427322024)|VF_EVALUATE_FORMULA_END
14:14:09.0 (429032539)|VF_EVALUATE_FORMULA_BEGIN|066Q0000000AmBn|#{f.FieldPath} findMe
14:14:09.0 (429120091)|VF_EVALUATE_FORMULA_END
14:14:09.0 (429168384)|VF_EVALUATE_FORMULA_BEGIN|066Q0000000AmBn|#{if(f.FieldPath == 'Address_New__c','height:240px','')}
14:14:09.0 (429249167)|VF_EVALUATE_FORMULA_END
14:14:09.0 (429321951)|VF_EVALUATE_FORMULA_BEGIN|066Q0000000AmBn|#{if( f.Type == 'textarea', 'height:80px;Width:50%;',if(f.FieldPath == 'State__c' &#124;&#124; f.FieldPath == 'City__c' &#124;&#124; f.FieldPath == 'County__c' &#124;&#124; f.FieldPath == 'Zip__c','height:50px;Width:100%','height:50px;Width:50%'))}
14:14:09.0 (429477993)|VF_EVALUATE_FORMULA_END
14:14:09.0 (430617496)|VF_EVALUATE_FORMULA_BEGIN|066Q0000000AmBn|#{f.FieldPath} findMe
14:14:09.0 (430730819)|VF_EVALUATE_FORMULA_END
14:14:09.0 (430805939)|VF_EVALUATE_FORMULA_BEGIN|066Q0000000AmBn|#{if(f.FieldPath == 'Address_New__c','height:240px','')}
14:14:09.0 (430896100)|VF_EVALUATE_FORMULA_END
14:14:09.0 (430994944)|VF_EVALUATE_FORMULA_BEGIN|066Q0000000AmBn|#{if( f.Type == 'textarea', 'height:80px;Width:50%;',if(f.FieldPath == 'State__c' &#124;&#124; f.FieldPath == 'City__c' &#124;&#124; f.FieldPath == 'County__c' &#124;&#124; f.FieldPath == 'Zip__c','height:50px;Width:100%','height:50px;Width:50%'))}
14:14:09.0 (431344660)|VF_EVALUATE_FORMULA_END
14:14:09.0 (432762327)|VF_EVALUATE_FORMULA_BEGIN|066Q0000000AmBn|#{f.FieldPath} findMe
14:14:09.0 (432894075)|VF_EVALUATE_FORMULA_END
14:14:09.0 (432944207)|VF_EVALUATE_FORMULA_BEGIN|066Q0000000AmBn|#{if(f.FieldPath == 'Address_New__c','height:240px','')}
14:14:09.0 (433028153)|VF_EVALUATE_FORMULA_END
14:14:09.0 (433102256)|VF_EVALUATE_FORMULA_BEGIN|066Q0000000AmBn|#{if( f.Type == 'textarea', 'height:80px;Width:50%;',if(f.FieldPath == 'State__c' &#124;&#124; f.FieldPath == 'City__c' &#124;&#124; f.FieldPath == 'County__c' &#124;&#124; f.FieldPath == 'Zip__c','height:50px;Width:100%','height:50px;Width:50%'))}
14:14:09.0 (433460168)|VF_EVALUATE_FORMULA_END
14:14:09.0 (434528931)|VF_EVALUATE_FORMULA_BEGIN|066Q0000000AmBn|#{f.FieldPath} findMe
14:14:09.0 (434613844)|VF_EVALUATE_FORMULA_END
14:14:09.0 (434662334)|VF_EVALUATE_FORMULA_BEGIN|066Q0000000AmBn|#{if(f.FieldPath == 'Address_New__c','height:240px','')}
14:14:09.0 (434773165)|VF_EVALUATE_FORMULA_END
14:14:09.0 (434860037)|VF_EVALUATE_FORMULA_BEGIN|066Q0000000AmBn|#{if( f.Type == 'textarea', 'height:80px;Width:50%;',if(f.FieldPath == 'State__c' &#124;&#124; f.FieldPath == 'City__c' &#124;&#124; f.FieldPath == 'County__c' &#124;&#124; f.FieldPath == 'Zip__c','height:50px;Width:100%','height:50px;Width:50%'))}
14:14:09.0 (435207431)|VF_EVALUATE_FORMULA_END
14:14:09.0 (437129562)|VF_EVALUATE_FORMULA_BEGIN|066Q0000000AmBn|#{f.FieldPath} findMe
14:14:09.0 (437218686)|VF_EVALUATE_FORMULA_END
14:14:09.0 (437267799)|VF_EVALUATE_FORMULA_BEGIN|066Q0000000AmBn|#{if(f.FieldPath == 'Address_New__c','height:240px','')}
14:14:09.0 (437349143)|VF_EVALUATE_FORMULA_END
14:14:09.0 (437432168)|VF_EVALUATE_FORMULA_BEGIN|066Q0000000AmBn|#{if( f.Type == 'textarea', 'height:80px;Width:50%;',if(f.FieldPath == 'State__c' &#124;&#124; f.FieldPath == 'City__c' &#124;&#124; f.FieldPath == 'County__c' &#124;&#124; f.FieldPath == 'Zip__c','height:50px;Width:100%','height:50px;Width:50%'))}
14:14:09.0 (437519876)|VF_EVALUATE_FORMULA_END
14:14:09.0 (438683695)|VF_EVALUATE_FORMULA_BEGIN|066Q0000000AmBn|#{f.FieldPath} findMe
14:14:09.0 (438777445)|VF_EVALUATE_FORMULA_END
14:14:09.0 (438863932)|VF_EVALUATE_FORMULA_BEGIN|066Q0000000AmBn|#{if(f.FieldPath == 'Address_New__c','height:240px','')}
14:14:09.0 (438985491)|VF_EVALUATE_FORMULA_END
14:14:09.0 (439082908)|VF_EVALUATE_FORMULA_BEGIN|066Q0000000AmBn|#{if( f.Type == 'textarea', 'height:80px;Width:50%;',if(f.FieldPath == 'State__c' &#124;&#124; f.FieldPath == 'City__c' &#124;&#124; f.FieldPath == 'County__c' &#124;&#124; f.FieldPath == 'Zip__c','height:50px;Width:100%','height:50px;Width:50%'))}
14:14:09.0 (439209459)|VF_EVALUATE_FORMULA_END
14:14:09.0 (440665451)|VF_EVALUATE_FORMULA_BEGIN|066Q0000000AmBn|#{f.FieldPath} findMe
14:14:09.0 (440755021)|VF_EVALUATE_FORMULA_END
14:14:09.0 (440804951)|VF_EVALUATE_FORMULA_BEGIN|066Q0000000AmBn|#{if(f.FieldPath == 'Address_New__c','height:240px','')}
14:14:09.0 (440890826)|VF_EVALUATE_FORMULA_END
14:14:09.0 (440966964)|VF_EVALUATE_FORMULA_BEGIN|066Q0000000AmBn|#{if( f.Type == 'textarea', 'height:80px;Width:50%;',if(f.FieldPath == 'State__c' &#124;&#124; f.FieldPath == 'City__c' &#124;&#124; f.FieldPath == 'County__c' &#124;&#124; f.FieldPath == 'Zip__c','height:50px;Width:100%','height:50px;Width:50%'))}
14:14:09.0 (441314633)|VF_EVALUATE_FORMULA_END
14:14:09.0 (442547065)|VF_EVALUATE_FORMULA_BEGIN|066Q0000000AmBn|#{f.FieldPath} findMe
14:14:09.0 (442663793)|VF_EVALUATE_FORMULA_END
14:14:09.0 (442729575)|VF_EVALUATE_FORMULA_BEGIN|066Q0000000AmBn|#{if(f.FieldPath == 'Address_New__c','height:240px','')}
14:14:09.0 (442815681)|VF_EVALUATE_FORMULA_END
14:14:09.0 (442929586)|VF_EVALUATE_FORMULA_BEGIN|066Q0000000AmBn|#{if( f.Type == 'textarea', 'height:80px;Width:50%;',if(f.FieldPath == 'State__c' &#124;&#124; f.FieldPath == 'City__c' &#124;&#124; f.FieldPath == 'County__c' &#124;&#124; f.FieldPath == 'Zip__c','height:50px;Width:100%','height:50px;Width:50%'))}
14:14:09.0 (443458508)|VF_EVALUATE_FORMULA_END
14:14:09.0 (444583505)|VF_EVALUATE_FORMULA_BEGIN|066Q0000000AmBn|#{f.FieldPath} findMe
14:14:09.0 (444667770)|VF_EVALUATE_FORMULA_END
14:14:09.0 (444718227)|VF_EVALUATE_FORMULA_BEGIN|066Q0000000AmBn|#{if(f.FieldPath == 'Address_New__c','height:240px','')}
14:14:09.0 (444800823)|VF_EVALUATE_FORMULA_END
14:14:09.0 (444904016)|VF_EVALUATE_FORMULA_BEGIN|066Q0000000AmBn|#{if( f.Type == 'textarea', 'height:80px;Width:50%;',if(f.FieldPath == 'State__c' &#124;&#124; f.FieldPath == 'City__c' &#124;&#124; f.FieldPath == 'County__c' &#124;&#124; f.FieldPath == 'Zip__c','height:50px;Width:100%','height:50px;Width:50%'))}
14:14:09.0 (445261627)|VF_EVALUATE_FORMULA_END
14:14:09.0 (446815007)|VF_EVALUATE_FORMULA_BEGIN|066Q0000000AmBn|#{f.FieldPath} findMe
14:14:09.0 (446950193)|VF_EVALUATE_FORMULA_END
14:14:09.0 (447000806)|VF_EVALUATE_FORMULA_BEGIN|066Q0000000AmBn|#{if(f.FieldPath == 'Address_New__c','height:240px','')}
14:14:09.0 (447085188)|VF_EVALUATE_FORMULA_END
14:14:09.0 (447158864)|VF_EVALUATE_FORMULA_BEGIN|066Q0000000AmBn|#{if( f.Type == 'textarea', 'height:80px;Width:50%;',if(f.FieldPath == 'State__c' &#124;&#124; f.FieldPath == 'City__c' &#124;&#124; f.FieldPath == 'County__c' &#124;&#124; f.FieldPath == 'Zip__c','height:50px;Width:100%','height:50px;Width:50%'))}
14:14:09.0 (447507739)|VF_EVALUATE_FORMULA_END
14:14:09.0 (448713648)|VF_EVALUATE_FORMULA_BEGIN|066Q0000000AmBn|#{f.FieldPath} findMe
14:14:09.0 (448827154)|VF_EVALUATE_FORMULA_END
14:14:09.0 (448897249)|VF_EVALUATE_FORMULA_BEGIN|066Q0000000AmBn|#{if(f.FieldPath == 'Address_New__c','height:240px','')}
14:14:09.0 (448983476)|VF_EVALUATE_FORMULA_END
14:14:09.0 (449058560)|VF_EVALUATE_FORMULA_BEGIN|066Q0000000AmBn|#{if( f.Type == 'textarea', 'height:80px;Width:50%;',if(f.FieldPath == 'State__c' &#124;&#124; f.FieldPath == 'City__c' &#124;&#124; f.FieldPath == 'County__c' &#124;&#124; f.FieldPath == 'Zip__c','height:50px;Width:100%','height:50px;Width:50%'))}
14:14:09.0 (449550588)|VF_EVALUATE_FORMULA_END
14:14:09.0 (451118399)|VF_EVALUATE_FORMULA_BEGIN|066Q0000000AmBn|#{f.FieldPath} findMe
14:14:09.0 (451204943)|VF_EVALUATE_FORMULA_END
14:14:09.0 (451253777)|VF_EVALUATE_FORMULA_BEGIN|066Q0000000AmBn|#{if(f.FieldPath == 'Address_New__c','height:240px','')}
14:14:09.0 (451335795)|VF_EVALUATE_FORMULA_END
14:14:09.0 (451429293)|VF_EVALUATE_FORMULA_BEGIN|066Q0000000AmBn|#{if( f.Type == 'textarea', 'height:80px;Width:50%;',if(f.FieldPath == 'State__c' &#124;&#124; f.FieldPath == 'City__c' &#124;&#124; f.FieldPath == 'County__c' &#124;&#124; f.FieldPath == 'Zip__c','height:50px;Width:100%','height:50px;Width:50%'))}
14:14:09.0 (451814093)|VF_EVALUATE_FORMULA_END
14:14:09.0 (453383117)|VF_EVALUATE_FORMULA_BEGIN|066Q0000000AmBn|#{f.FieldPath} findMe
14:14:09.0 (453501099)|VF_EVALUATE_FORMULA_END
14:14:09.0 (453564942)|VF_EVALUATE_FORMULA_BEGIN|066Q0000000AmBn|#{if(f.FieldPath == 'Address_New__c','height:240px','')}
14:14:09.0 (453691145)|VF_EVALUATE_FORMULA_END
14:14:09.0 (453787093)|VF_EVALUATE_FORMULA_BEGIN|066Q0000000AmBn|#{if( f.Type == 'textarea', 'height:80px;Width:50%;',if(f.FieldPath == 'State__c' &#124;&#124; f.FieldPath == 'City__c' &#124;&#124; f.FieldPath == 'County__c' &#124;&#124; f.FieldPath == 'Zip__c','height:50px;Width:100%','height:50px;Width:50%'))}
14:14:09.0 (453891555)|VF_EVALUATE_FORMULA_END
14:14:09.0 (455016860)|VF_EVALUATE_FORMULA_BEGIN|066Q0000000AmBn|#{f.FieldPath} findMe
14:14:09.0 (455132879)|VF_EVALUATE_FORMULA_END
14:14:09.0 (455184609)|VF_EVALUATE_FORMULA_BEGIN|066Q0000000AmBn|#{if(f.FieldPath == 'Address_New__c','height:240px','')}
14:14:09.0 (455268528)|VF_EVALUATE_FORMULA_END
14:14:09.0 (455533177)|VF_EVALUATE_FORMULA_BEGIN|066Q0000000AmBn|#{if( f.Type == 'textarea', 'height:110px;', if(f.FieldPath == 'Survey_MSA__c' &#124;&#124; f.FieldPath == 'Survey_Submarket__c' &#124;&#124; f.FieldPath == 'Sub_Market_ID__c','height:50px;Width:100%;','height:50px;Width:50%;'))}
14:14:09.0 (455968703)|VF_EVALUATE_FORMULA_END
14:14:09.0 (455981398)|VF_EVALUATE_FORMULA_BEGIN|066Q0000000AmBn|#{if(tempRecord.RecordType.name = 'Affordable' &#124;&#124; (f.FieldPath !=  'Property_Owner_New__c'&& f.FieldPath != 'Property_Owner_Current__c'), '', 'display:none;')}
14:14:09.0 (456481453)|VF_EVALUATE_FORMULA_END
14:14:09.0 (456498413)|VF_EVALUATE_FORMULA_BEGIN|066Q0000000AmBn|#{if((tempRecord.RecordType.name != 'Affordable' && tempRecord.RecordType.name != 'Apartments') && (f.FieldPath = 'Residential_Type_New__c' &#124;&#124; f.FieldPath = 'Residential_Type_Current__c' &#124;&#124; f.FieldPath = 'Pricing_System_New__c' &#124;&#124; f.FieldPath = 'Pricing_System_Current__c'), 'display:none;', '')}
14:14:09.0 (457562027)|VF_EVALUATE_FORMULA_END
14:14:09.0 (457626549)|VF_EVALUATE_FORMULA_BEGIN|066Q0000000AmBn|#{IF(f.Label == 'Record Type ID','Sector',f.Label)}
14:14:09.0 (457791457)|VF_EVALUATE_FORMULA_END
14:14:09.0 (459132439)|VF_EVALUATE_FORMULA_BEGIN|066Q0000000AmBn|#{f.FieldPath} findMe
14:14:09.0 (459219131)|VF_EVALUATE_FORMULA_END
14:14:09.0 (459495432)|VF_EVALUATE_FORMULA_BEGIN|066Q0000000AmBn|#{if( f.Type == 'textarea', 'height:110px;', if(f.FieldPath == 'Survey_MSA__c' &#124;&#124; f.FieldPath == 'Survey_Submarket__c' &#124;&#124; f.FieldPath == 'Sub_Market_ID__c','height:50px;Width:100%;','height:50px;Width:50%;'))}
14:14:09.0 (459830270)|VF_EVALUATE_FORMULA_END
14:14:09.0 (459853920)|VF_EVALUATE_FORMULA_BEGIN|066Q0000000AmBn|#{if(tempRecord.RecordType.name = 'Affordable' &#124;&#124; (f.FieldPath !=  'Property_Owner_New__c'&& f.FieldPath != 'Property_Owner_Current__c'), '', 'display:none;')}
14:14:09.0 (460239880)|VF_EVALUATE_FORMULA_END
14:14:09.0 (460252267)|VF_EVALUATE_FORMULA_BEGIN|066Q0000000AmBn|#{if((tempRecord.RecordType.name != 'Affordable' && tempRecord.RecordType.name != 'Apartments') && (f.FieldPath = 'Residential_Type_New__c' &#124;&#124; f.FieldPath = 'Residential_Type_Current__c' &#124;&#124; f.FieldPath = 'Pricing_System_New__c' &#124;&#124; f.FieldPath = 'Pricing_System_Current__c'), 'display:none;', '')}
14:14:09.0 (461182231)|VF_EVALUATE_FORMULA_END
14:14:09.0 (461229669)|VF_EVALUATE_FORMULA_BEGIN|066Q0000000AmBn|#{IF(f.Label == 'Record Type ID','Sector',f.Label)}
14:14:09.0 (461412224)|VF_EVALUATE_FORMULA_END
14:14:09.0 (462785698)|VF_EVALUATE_FORMULA_BEGIN|066Q0000000AmBn|#{f.FieldPath} findMe
14:14:09.0 (462887345)|VF_EVALUATE_FORMULA_END
14:14:09.0 (463104489)|VF_EVALUATE_FORMULA_BEGIN|066Q0000000AmBn|#{if( f.Type == 'textarea', 'height:110px;', if(f.FieldPath == 'Survey_MSA__c' &#124;&#124; f.FieldPath == 'Survey_Submarket__c' &#124;&#124; f.FieldPath == 'Sub_Market_ID__c','height:50px;Width:100%;','height:50px;Width:50%;'))}
14:14:09.0 (463196575)|VF_EVALUATE_FORMULA_END
14:14:09.0 (463207844)|VF_EVALUATE_FORMULA_BEGIN|066Q0000000AmBn|#{if(tempRecord.RecordType.name = 'Affordable' &#124;&#124; (f.FieldPath !=  'Property_Owner_New__c'&& f.FieldPath != 'Property_Owner_Current__c'), '', 'display:none;')}
14:14:09.0 (463597900)|VF_EVALUATE_FORMULA_END
14:14:09.0 (463614042)|VF_EVALUATE_FORMULA_BEGIN|066Q0000000AmBn|#{if((tempRecord.RecordType.name != 'Affordable' && tempRecord.RecordType.name != 'Apartments') && (f.FieldPath = 'Residential_Type_New__c' &#124;&#124; f.FieldPath = 'Residential_Type_Current__c' &#124;&#124; f.FieldPath = 'Pricing_System_New__c' &#124;&#124; f.FieldPath = 'Pricing_System_Current__c'), 'display:none;', '')}
14:14:09.0 (464342637)|VF_EVALUATE_FORMULA_END
14:14:09.0 (464388480)|VF_EVALUATE_FORMULA_BEGIN|066Q0000000AmBn|#{IF(f.Label == 'Record Type ID','Sector',f.Label)}
14:14:09.0 (464565679)|VF_EVALUATE_FORMULA_END
14:14:09.0 (466216210)|VF_EVALUATE_FORMULA_BEGIN|066Q0000000AmBn|#{f.FieldPath} findMe
14:14:09.0 (466348899)|VF_EVALUATE_FORMULA_END
14:14:09.0 (466528204)|VF_EVALUATE_FORMULA_BEGIN|066Q0000000AmBn|#{if( f.Type == 'textarea', 'height:110px;', if(f.FieldPath == 'Survey_MSA__c' &#124;&#124; f.FieldPath == 'Survey_Submarket__c' &#124;&#124; f.FieldPath == 'Sub_Market_ID__c','height:50px;Width:100%;','height:50px;Width:50%;'))}
14:14:09.0 (466644532)|VF_EVALUATE_FORMULA_END
14:14:09.0 (466660620)|VF_EVALUATE_FORMULA_BEGIN|066Q0000000AmBn|#{if(tempRecord.RecordType.name = 'Affordable' &#124;&#124; (f.FieldPath !=  'Property_Owner_New__c'&& f.FieldPath != 'Property_Owner_Current__c'), '', 'display:none;')}
14:14:09.0 (467075295)|VF_EVALUATE_FORMULA_END
14:14:09.0 (467087615)|VF_EVALUATE_FORMULA_BEGIN|066Q0000000AmBn|#{if((tempRecord.RecordType.name != 'Affordable' && tempRecord.RecordType.name != 'Apartments') && (f.FieldPath = 'Residential_Type_New__c' &#124;&#124; f.FieldPath = 'Residential_Type_Current__c' &#124;&#124; f.FieldPath = 'Pricing_System_New__c' &#124;&#124; f.FieldPath = 'Pricing_System_Current__c'), 'display:none;', '')}
14:14:09.0 (467767061)|VF_EVALUATE_FORMULA_END
14:14:09.0 (467803458)|VF_EVALUATE_FORMULA_BEGIN|066Q0000000AmBn|#{IF(f.Label == 'Record Type ID','Sector',f.Label)}
14:14:09.0 (467953380)|VF_EVALUATE_FORMULA_END
14:14:09.0 (469001386)|VF_EVALUATE_FORMULA_BEGIN|066Q0000000AmBn|#{f.FieldPath} findMe
14:14:09.0 (469085960)|VF_EVALUATE_FORMULA_END
14:14:09.0 (469312331)|VF_EVALUATE_FORMULA_BEGIN|066Q0000000AmBn|#{if( f.Type == 'textarea', 'height:110px;', if(f.FieldPath == 'Survey_MSA__c' &#124;&#124; f.FieldPath == 'Survey_Submarket__c' &#124;&#124; f.FieldPath == 'Sub_Market_ID__c','height:50px;Width:100%;','height:50px;Width:50%;'))}
14:14:09.0 (469640666)|VF_EVALUATE_FORMULA_END
14:14:09.0 (469652154)|VF_EVALUATE_FORMULA_BEGIN|066Q0000000AmBn|#{if(tempRecord.RecordType.name = 'Affordable' &#124;&#124; (f.FieldPath !=  'Property_Owner_New__c'&& f.FieldPath != 'Property_Owner_Current__c'), '', 'display:none;')}
14:14:09.0 (470052031)|VF_EVALUATE_FORMULA_END
14:14:09.0 (470063976)|VF_EVALUATE_FORMULA_BEGIN|066Q0000000AmBn|#{if((tempRecord.RecordType.name != 'Affordable' && tempRecord.RecordType.name != 'Apartments') && (f.FieldPath = 'Residential_Type_New__c' &#124;&#124; f.FieldPath = 'Residential_Type_Current__c' &#124;&#124; f.FieldPath = 'Pricing_System_New__c' &#124;&#124; f.FieldPath = 'Pricing_System_Current__c'), 'display:none;', '')}
14:14:09.0 (470884907)|VF_EVALUATE_FORMULA_END
14:14:09.0 (470928349)|VF_EVALUATE_FORMULA_BEGIN|066Q0000000AmBn|#{IF(f.Label == 'Record Type ID','Sector',f.Label)}
14:14:09.0 (471153474)|VF_EVALUATE_FORMULA_END
14:14:09.0 (472673102)|VF_EVALUATE_FORMULA_BEGIN|066Q0000000AmBn|#{f.FieldPath} findMe
14:14:09.0 (472772849)|VF_EVALUATE_FORMULA_END
14:14:09.0 (472908270)|VF_EVALUATE_FORMULA_BEGIN|066Q0000000AmBn|#{if( f.Type == 'textarea', 'height:110px;', if(f.FieldPath == 'Survey_MSA__c' &#124;&#124; f.FieldPath == 'Survey_Submarket__c' &#124;&#124; f.FieldPath == 'Sub_Market_ID__c','height:50px;Width:100%;','height:50px;Width:50%;'))}
14:14:09.0 (473291693)|VF_EVALUATE_FORMULA_END
14:14:09.0 (473309857)|VF_EVALUATE_FORMULA_BEGIN|066Q0000000AmBn|#{if(tempRecord.RecordType.name = 'Affordable' &#124;&#124; (f.FieldPath !=  'Property_Owner_New__c'&& f.FieldPath != 'Property_Owner_Current__c'), '', 'display:none;')}
14:14:09.0 (473869810)|VF_EVALUATE_FORMULA_END
14:14:09.0 (473885046)|VF_EVALUATE_FORMULA_BEGIN|066Q0000000AmBn|#{if((tempRecord.RecordType.name != 'Affordable' && tempRecord.RecordType.name != 'Apartments') && (f.FieldPath = 'Residential_Type_New__c' &#124;&#124; f.FieldPath = 'Residential_Type_Current__c' &#124;&#124; f.FieldPath = 'Pricing_System_New__c' &#124;&#124; f.FieldPath = 'Pricing_System_Current__c'), 'display:none;', '')}
14:14:09.0 (474587543)|VF_EVALUATE_FORMULA_END
14:14:09.0 (474626506)|VF_EVALUATE_FORMULA_BEGIN|066Q0000000AmBn|#{IF(f.Label == 'Record Type ID','Sector',f.Label)}
14:14:09.0 (474784952)|VF_EVALUATE_FORMULA_END
14:14:09.0 (476188541)|VF_EVALUATE_FORMULA_BEGIN|066Q0000000AmBn|#{f.FieldPath} findMe
14:14:09.0 (476304476)|VF_EVALUATE_FORMULA_END
14:14:09.0 (476431935)|VF_EVALUATE_FORMULA_BEGIN|066Q0000000AmBn|#{if( f.Type == 'textarea', 'height:110px;', if(f.FieldPath == 'Survey_MSA__c' &#124;&#124; f.FieldPath == 'Survey_Submarket__c' &#124;&#124; f.FieldPath == 'Sub_Market_ID__c','height:50px;Width:100%;','height:50px;Width:50%;'))}
14:14:09.0 (476613413)|VF_EVALUATE_FORMULA_END
14:14:09.0 (476628560)|VF_EVALUATE_FORMULA_BEGIN|066Q0000000AmBn|#{if(tempRecord.RecordType.name = 'Affordable' &#124;&#124; (f.FieldPath !=  'Property_Owner_New__c'&& f.FieldPath != 'Property_Owner_Current__c'), '', 'display:none;')}
14:14:09.0 (477158370)|VF_EVALUATE_FORMULA_END
14:14:09.0 (477175067)|VF_EVALUATE_FORMULA_BEGIN|066Q0000000AmBn|#{if((tempRecord.RecordType.name != 'Affordable' && tempRecord.RecordType.name != 'Apartments') && (f.FieldPath = 'Residential_Type_New__c' &#124;&#124; f.FieldPath = 'Residential_Type_Current__c' &#124;&#124; f.FieldPath = 'Pricing_System_New__c' &#124;&#124; f.FieldPath = 'Pricing_System_Current__c'), 'display:none;', '')}
14:14:09.0 (478007696)|VF_EVALUATE_FORMULA_END
14:14:09.0 (478044097)|VF_EVALUATE_FORMULA_BEGIN|066Q0000000AmBn|#{IF(f.Label == 'Record Type ID','Sector',f.Label)}
14:14:09.0 (478211335)|VF_EVALUATE_FORMULA_END
14:14:09.0 (479810399)|VF_EVALUATE_FORMULA_BEGIN|066Q0000000AmBn|#{f.FieldPath} findMe
14:14:09.0 (479933984)|VF_EVALUATE_FORMULA_END
14:14:09.0 (480261442)|VF_EVALUATE_FORMULA_BEGIN|066Q0000000AmBn|#{if( f.Type == 'textarea', 'height:110px;', if(f.FieldPath == 'Survey_MSA__c' &#124;&#124; f.FieldPath == 'Survey_Submarket__c' &#124;&#124; f.FieldPath == 'Sub_Market_ID__c','height:50px;Width:100%;','height:50px;Width:50%;'))}
14:14:09.0 (480626600)|VF_EVALUATE_FORMULA_END
14:14:09.0 (480642802)|VF_EVALUATE_FORMULA_BEGIN|066Q0000000AmBn|#{if(tempRecord.RecordType.name = 'Affordable' &#124;&#124; (f.FieldPath !=  'Property_Owner_New__c'&& f.FieldPath != 'Property_Owner_Current__c'), '', 'display:none;')}
14:14:09.0 (481161503)|VF_EVALUATE_FORMULA_END
14:14:09.0 (481174122)|VF_EVALUATE_FORMULA_BEGIN|066Q0000000AmBn|#{if((tempRecord.RecordType.name != 'Affordable' && tempRecord.RecordType.name != 'Apartments') && (f.FieldPath = 'Residential_Type_New__c' &#124;&#124; f.FieldPath = 'Residential_Type_Current__c' &#124;&#124; f.FieldPath = 'Pricing_System_New__c' &#124;&#124; f.FieldPath = 'Pricing_System_Current__c'), 'display:none;', '')}
14:14:09.0 (481866453)|VF_EVALUATE_FORMULA_END
14:14:09.0 (481903887)|VF_EVALUATE_FORMULA_BEGIN|066Q0000000AmBn|#{IF(f.Label == 'Record Type ID','Sector',f.Label)}
14:14:09.0 (482049323)|VF_EVALUATE_FORMULA_END
14:14:09.0 (483545261)|VF_EVALUATE_FORMULA_BEGIN|066Q0000000AmBn|#{f.FieldPath} findMe
14:14:09.0 (483634667)|VF_EVALUATE_FORMULA_END
14:14:09.0 (483853842)|VF_EVALUATE_FORMULA_BEGIN|066Q0000000AmBn|#{if( f.Type == 'textarea', 'height:110px;', if(f.FieldPath == 'Survey_MSA__c' &#124;&#124; f.FieldPath == 'Survey_Submarket__c' &#124;&#124; f.FieldPath == 'Sub_Market_ID__c','height:50px;Width:100%;','height:50px;Width:50%;'))}
14:14:09.0 (484280969)|VF_EVALUATE_FORMULA_END
14:14:09.0 (484297868)|VF_EVALUATE_FORMULA_BEGIN|066Q0000000AmBn|#{if(tempRecord.RecordType.name = 'Affordable' &#124;&#124; (f.FieldPath !=  'Property_Owner_New__c'&& f.FieldPath != 'Property_Owner_Current__c'), '', 'display:none;')}
14:14:09.0 (484807485)|VF_EVALUATE_FORMULA_END
14:14:09.0 (484819788)|VF_EVALUATE_FORMULA_BEGIN|066Q0000000AmBn|#{if((tempRecord.RecordType.name != 'Affordable' && tempRecord.RecordType.name != 'Apartments') && (f.FieldPath = 'Residential_Type_New__c' &#124;&#124; f.FieldPath = 'Residential_Type_Current__c' &#124;&#124; f.FieldPath = 'Pricing_System_New__c' &#124;&#124; f.FieldPath = 'Pricing_System_Current__c'), 'display:none;', '')}
14:14:09.0 (485487621)|VF_EVALUATE_FORMULA_END
14:14:09.0 (485524614)|VF_EVALUATE_FORMULA_BEGIN|066Q0000000AmBn|#{IF(f.Label == 'Record Type ID','Sector',f.Label)}
14:14:09.0 (485671370)|VF_EVALUATE_FORMULA_END
14:14:09.0 (486978501)|VF_EVALUATE_FORMULA_BEGIN|066Q0000000AmBn|#{f.FieldPath} findMe
14:14:09.0 (487065460)|VF_EVALUATE_FORMULA_END
14:14:09.0 (487180166)|VF_EVALUATE_FORMULA_BEGIN|066Q0000000AmBn|#{if( f.Type == 'textarea', 'height:110px;', if(f.FieldPath == 'Survey_MSA__c' &#124;&#124; f.FieldPath == 'Survey_Submarket__c' &#124;&#124; f.FieldPath == 'Sub_Market_ID__c','height:50px;Width:100%;','height:50px;Width:50%;'))}
14:14:09.0 (487483435)|VF_EVALUATE_FORMULA_END
14:14:09.0 (487497215)|VF_EVALUATE_FORMULA_BEGIN|066Q0000000AmBn|#{if(tempRecord.RecordType.name = 'Affordable' &#124;&#124; (f.FieldPath !=  'Property_Owner_New__c'&& f.FieldPath != 'Property_Owner_Current__c'), '', 'display:none;')}
14:14:09.0 (487994993)|VF_EVALUATE_FORMULA_END
14:14:09.0 (488010669)|VF_EVALUATE_FORMULA_BEGIN|066Q0000000AmBn|#{if((tempRecord.RecordType.name != 'Affordable' && tempRecord.RecordType.name != 'Apartments') && (f.FieldPath = 'Residential_Type_New__c' &#124;&#124; f.FieldPath = 'Residential_Type_Current__c' &#124;&#124; f.FieldPath = 'Pricing_System_New__c' &#124;&#124; f.FieldPath = 'Pricing_System_Current__c'), 'display:none;', '')}
14:14:09.0 (488957558)|VF_EVALUATE_FORMULA_END
14:14:09.0 (488998225)|VF_EVALUATE_FORMULA_BEGIN|066Q0000000AmBn|#{IF(f.Label == 'Record Type ID','Sector',f.Label)}
14:14:09.0 (489146940)|VF_EVALUATE_FORMULA_END
14:14:09.0 (490349356)|VF_EVALUATE_FORMULA_BEGIN|066Q0000000AmBn|#{f.FieldPath} findMe
14:14:09.0 (490471299)|VF_EVALUATE_FORMULA_END
14:14:09.0 (490626122)|VF_EVALUATE_FORMULA_BEGIN|066Q0000000AmBn|#{if( f.Type == 'textarea', 'height:110px;', if(f.FieldPath == 'Survey_MSA__c' &#124;&#124; f.FieldPath == 'Survey_Submarket__c' &#124;&#124; f.FieldPath == 'Sub_Market_ID__c','height:50px;Width:100%;','height:50px;Width:50%;'))}
14:14:09.0 (490942027)|VF_EVALUATE_FORMULA_END
14:14:09.0 (490953418)|VF_EVALUATE_FORMULA_BEGIN|066Q0000000AmBn|#{if(tempRecord.RecordType.name = 'Affordable' &#124;&#124; (f.FieldPath !=  'Property_Owner_New__c'&& f.FieldPath != 'Property_Owner_Current__c'), '', 'display:none;')}
14:14:09.0 (491319961)|VF_EVALUATE_FORMULA_END
14:14:09.0 (491336479)|VF_EVALUATE_FORMULA_BEGIN|066Q0000000AmBn|#{if((tempRecord.RecordType.name != 'Affordable' && tempRecord.RecordType.name != 'Apartments') && (f.FieldPath = 'Residential_Type_New__c' &#124;&#124; f.FieldPath = 'Residential_Type_Current__c' &#124;&#124; f.FieldPath = 'Pricing_System_New__c' &#124;&#124; f.FieldPath = 'Pricing_System_Current__c'), 'display:none;', '')}
14:14:09.0 (492254765)|VF_EVALUATE_FORMULA_END
14:14:09.0 (492298492)|VF_EVALUATE_FORMULA_BEGIN|066Q0000000AmBn|#{IF(f.Label == 'Record Type ID','Sector',f.Label)}
14:14:09.0 (492507532)|VF_EVALUATE_FORMULA_END
14:14:09.0 (494041345)|VF_EVALUATE_FORMULA_BEGIN|066Q0000000AmBn|#{f.FieldPath} findMe
14:14:09.0 (494139671)|VF_EVALUATE_FORMULA_END
14:14:09.0 (494289901)|VF_EVALUATE_FORMULA_BEGIN|066Q0000000AmBn|#{if( f.Type == 'textarea', 'height:110px;', if(f.FieldPath == 'Survey_MSA__c' &#124;&#124; f.FieldPath == 'Survey_Submarket__c' &#124;&#124; f.FieldPath == 'Sub_Market_ID__c','height:50px;Width:100%;','height:50px;Width:50%;'))}
14:14:09.0 (494663576)|VF_EVALUATE_FORMULA_END
14:14:09.0 (494675671)|VF_EVALUATE_FORMULA_BEGIN|066Q0000000AmBn|#{if(tempRecord.RecordType.name = 'Affordable' &#124;&#124; (f.FieldPath !=  'Property_Owner_New__c'&& f.FieldPath != 'Property_Owner_Current__c'), '', 'display:none;')}
14:14:09.0 (495117589)|VF_EVALUATE_FORMULA_END
14:14:09.0 (495131286)|VF_EVALUATE_FORMULA_BEGIN|066Q0000000AmBn|#{if((tempRecord.RecordType.name != 'Affordable' && tempRecord.RecordType.name != 'Apartments') && (f.FieldPath = 'Residential_Type_New__c' &#124;&#124; f.FieldPath = 'Residential_Type_Current__c' &#124;&#124; f.FieldPath = 'Pricing_System_New__c' &#124;&#124; f.FieldPath = 'Pricing_System_Current__c'), 'display:none;', '')}
14:14:09.0 (495867017)|VF_EVALUATE_FORMULA_END
14:14:09.0 (495903554)|VF_EVALUATE_FORMULA_BEGIN|066Q0000000AmBn|#{IF(f.Label == 'Record Type ID','Sector',f.Label)}
14:14:09.0 (496097424)|VF_EVALUATE_FORMULA_END
14:14:09.0 (497518219)|VF_EVALUATE_FORMULA_BEGIN|066Q0000000AmBn|#{f.FieldPath} findMe
14:14:09.0 (497634163)|VF_EVALUATE_FORMULA_END
14:14:09.0 (497771534)|VF_EVALUATE_FORMULA_BEGIN|066Q0000000AmBn|#{if( f.Type == 'textarea', 'height:110px;', if(f.FieldPath == 'Survey_MSA__c' &#124;&#124; f.FieldPath == 'Survey_Submarket__c' &#124;&#124; f.FieldPath == 'Sub_Market_ID__c','height:50px;Width:100%;','height:50px;Width:50%;'))}
14:14:09.0 (498065010)|VF_EVALUATE_FORMULA_END
14:14:09.0 (498077881)|VF_EVALUATE_FORMULA_BEGIN|066Q0000000AmBn|#{if(tempRecord.RecordType.name = 'Affordable' &#124;&#124; (f.FieldPath !=  'Property_Owner_New__c'&& f.FieldPath != 'Property_Owner_Current__c'), '', 'display:none;')}
14:14:09.0 (498462584)|VF_EVALUATE_FORMULA_END
14:14:09.0 (498474306)|VF_EVALUATE_FORMULA_BEGIN|066Q0000000AmBn|#{if((tempRecord.RecordType.name != 'Affordable' && tempRecord.RecordType.name != 'Apartments') && (f.FieldPath = 'Residential_Type_New__c' &#124;&#124; f.FieldPath = 'Residential_Type_Current__c' &#124;&#124; f.FieldPath = 'Pricing_System_New__c' &#124;&#124; f.FieldPath = 'Pricing_System_Current__c'), 'display:none;', '')}
14:14:09.0 (499204857)|VF_EVALUATE_FORMULA_END
14:14:09.0 (499254282)|VF_EVALUATE_FORMULA_BEGIN|066Q0000000AmBn|#{IF(f.Label == 'Record Type ID','Sector',f.Label)}
14:14:09.0 (499464832)|VF_EVALUATE_FORMULA_END
14:14:09.0 (500951816)|VF_EVALUATE_FORMULA_BEGIN|066Q0000000AmBn|#{f.FieldPath} findMe
14:14:09.0 (501040658)|VF_EVALUATE_FORMULA_END
14:14:09.0 (501152254)|VF_EVALUATE_FORMULA_BEGIN|066Q0000000AmBn|#{if( f.Type == 'textarea', 'height:110px;', if(f.FieldPath == 'Survey_MSA__c' &#124;&#124; f.FieldPath == 'Survey_Submarket__c' &#124;&#124; f.FieldPath == 'Sub_Market_ID__c','height:50px;Width:100%;','height:50px;Width:50%;'))}
14:14:09.0 (501523992)|VF_EVALUATE_FORMULA_END
14:14:09.0 (501538468)|VF_EVALUATE_FORMULA_BEGIN|066Q0000000AmBn|#{if(tempRecord.RecordType.name = 'Affordable' &#124;&#124; (f.FieldPath !=  'Property_Owner_New__c'&& f.FieldPath != 'Property_Owner_Current__c'), '', 'display:none;')}
14:14:09.0 (501914149)|VF_EVALUATE_FORMULA_END
14:14:09.0 (501926000)|VF_EVALUATE_FORMULA_BEGIN|066Q0000000AmBn|#{if((tempRecord.RecordType.name != 'Affordable' && tempRecord.RecordType.name != 'Apartments') && (f.FieldPath = 'Residential_Type_New__c' &#124;&#124; f.FieldPath = 'Residential_Type_Current__c' &#124;&#124; f.FieldPath = 'Pricing_System_New__c' &#124;&#124; f.FieldPath = 'Pricing_System_Current__c'), 'display:none;', '')}
14:14:09.0 (502761719)|VF_EVALUATE_FORMULA_END
14:14:09.0 (502811297)|VF_EVALUATE_FORMULA_BEGIN|066Q0000000AmBn|#{IF(f.Label == 'Record Type ID','Sector',f.Label)}
14:14:09.0 (503041438)|VF_EVALUATE_FORMULA_END
14:14:09.0 (504593608)|VF_EVALUATE_FORMULA_BEGIN|066Q0000000AmBn|#{f.FieldPath} findMe
14:14:09.0 (504723739)|VF_EVALUATE_FORMULA_END
14:14:09.0 (504944714)|VF_EVALUATE_FORMULA_BEGIN|066Q0000000AmBn|#{if( f.Type == 'textarea', 'height:110px;', if(f.FieldPath == 'Survey_MSA__c' &#124;&#124; f.FieldPath == 'Survey_Submarket__c' &#124;&#124; f.FieldPath == 'Sub_Market_ID__c','height:50px;Width:100%;','height:50px;Width:50%;'))}
14:14:09.0 (505237187)|VF_EVALUATE_FORMULA_END
14:14:09.0 (505248956)|VF_EVALUATE_FORMULA_BEGIN|066Q0000000AmBn|#{if(tempRecord.RecordType.name = 'Affordable' &#124;&#124; (f.FieldPath !=  'Property_Owner_New__c'&& f.FieldPath != 'Property_Owner_Current__c'), '', 'display:none;')}
14:14:09.0 (505602090)|VF_EVALUATE_FORMULA_END
14:14:09.0 (505613715)|VF_EVALUATE_FORMULA_BEGIN|066Q0000000AmBn|#{if((tempRecord.RecordType.name != 'Affordable' && tempRecord.RecordType.name != 'Apartments') && (f.FieldPath = 'Residential_Type_New__c' &#124;&#124; f.FieldPath = 'Residential_Type_Current__c' &#124;&#124; f.FieldPath = 'Pricing_System_New__c' &#124;&#124; f.FieldPath = 'Pricing_System_Current__c'), 'display:none;', '')}
14:14:09.0 (506274502)|VF_EVALUATE_FORMULA_END
14:14:09.0 (506311017)|VF_EVALUATE_FORMULA_BEGIN|066Q0000000AmBn|#{IF(f.Label == 'Record Type ID','Sector',f.Label)}
14:14:09.0 (506502182)|VF_EVALUATE_FORMULA_END
14:14:09.0 (507826140)|VF_EVALUATE_FORMULA_BEGIN|066Q0000000AmBn|#{f.FieldPath} findMe
14:14:09.0 (507966025)|VF_EVALUATE_FORMULA_END
14:14:09.0 (508196168)|VF_EVALUATE_FORMULA_BEGIN|066Q0000000AmBn|#{if( f.Type == 'textarea', 'height:110px;', if(f.FieldPath == 'Survey_MSA__c' &#124;&#124; f.FieldPath == 'Survey_Submarket__c' &#124;&#124; f.FieldPath == 'Sub_Market_ID__c','height:50px;Width:100%;','height:50px;Width:50%;'))}
14:14:09.0 (508564646)|VF_EVALUATE_FORMULA_END
14:14:09.0 (508579354)|VF_EVALUATE_FORMULA_BEGIN|066Q0000000AmBn|#{if(tempRecord.RecordType.name = 'Affordable' &#124;&#124; (f.FieldPath !=  'Property_Owner_New__c'&& f.FieldPath != 'Property_Owner_Current__c'), '', 'display:none;')}
14:14:09.0 (509077437)|VF_EVALUATE_FORMULA_END
14:14:09.0 (509094786)|VF_EVALUATE_FORMULA_BEGIN|066Q0000000AmBn|#{if((tempRecord.RecordType.name != 'Affordable' && tempRecord.RecordType.name != 'Apartments') && (f.FieldPath = 'Residential_Type_New__c' &#124;&#124; f.FieldPath = 'Residential_Type_Current__c' &#124;&#124; f.FieldPath = 'Pricing_System_New__c' &#124;&#124; f.FieldPath = 'Pricing_System_Current__c'), 'display:none;', '')}
14:14:09.0 (509815292)|VF_EVALUATE_FORMULA_END
14:14:09.0 (509857385)|VF_EVALUATE_FORMULA_BEGIN|066Q0000000AmBn|#{IF(f.Label == 'Record Type ID','Sector',f.Label)}
14:14:09.0 (510005059)|VF_EVALUATE_FORMULA_END
14:14:09.0 (511521009)|VF_EVALUATE_FORMULA_BEGIN|066Q0000000AmBn|#{f.FieldPath} findMe
14:14:09.0 (511623558)|VF_EVALUATE_FORMULA_END
14:14:09.0 (511808136)|VF_EVALUATE_FORMULA_BEGIN|066Q0000000AmBn|#{if( f.Type == 'textarea', 'height:110px;', if(f.FieldPath == 'Survey_MSA__c' &#124;&#124; f.FieldPath == 'Survey_Submarket__c' &#124;&#124; f.FieldPath == 'Sub_Market_ID__c','height:50px;Width:100%;','height:50px;Width:50%;'))}
14:14:09.0 (512152244)|VF_EVALUATE_FORMULA_END
14:14:09.0 (512164568)|VF_EVALUATE_FORMULA_BEGIN|066Q0000000AmBn|#{if(tempRecord.RecordType.name = 'Affordable' &#124;&#124; (f.FieldPath !=  'Property_Owner_New__c'&& f.FieldPath != 'Property_Owner_Current__c'), '', 'display:none;')}
14:14:09.0 (512654136)|VF_EVALUATE_FORMULA_END
14:14:09.0 (512670815)|VF_EVALUATE_FORMULA_BEGIN|066Q0000000AmBn|#{if((tempRecord.RecordType.name != 'Affordable' && tempRecord.RecordType.name != 'Apartments') && (f.FieldPath = 'Residential_Type_New__c' &#124;&#124; f.FieldPath = 'Residential_Type_Current__c' &#124;&#124; f.FieldPath = 'Pricing_System_New__c' &#124;&#124; f.FieldPath = 'Pricing_System_Current__c'), 'display:none;', '')}
14:14:09.0 (513402759)|VF_EVALUATE_FORMULA_END
14:14:09.0 (513440537)|VF_EVALUATE_FORMULA_BEGIN|066Q0000000AmBn|#{IF(f.Label == 'Record Type ID','Sector',f.Label)}
14:14:09.0 (513610217)|VF_EVALUATE_FORMULA_END
14:14:09.0 (514997381)|VF_EVALUATE_FORMULA_BEGIN|066Q0000000AmBn|#{f.FieldPath} findMe
14:14:09.0 (515105710)|VF_EVALUATE_FORMULA_END
14:14:09.0 (515226162)|VF_EVALUATE_FORMULA_BEGIN|066Q0000000AmBn|#{if( f.Type == 'textarea', 'height:110px;', if(f.FieldPath == 'Survey_MSA__c' &#124;&#124; f.FieldPath == 'Survey_Submarket__c' &#124;&#124; f.FieldPath == 'Sub_Market_ID__c','height:50px;Width:100%;','height:50px;Width:50%;'))}
14:14:09.0 (515549014)|VF_EVALUATE_FORMULA_END
14:14:09.0 (515564163)|VF_EVALUATE_FORMULA_BEGIN|066Q0000000AmBn|#{if(tempRecord.RecordType.name = 'Affordable' &#124;&#124; (f.FieldPath !=  'Property_Owner_New__c'&& f.FieldPath != 'Property_Owner_Current__c'), '', 'display:none;')}
14:14:09.0 (516049221)|VF_EVALUATE_FORMULA_END
14:14:09.0 (516064357)|VF_EVALUATE_FORMULA_BEGIN|066Q0000000AmBn|#{if((tempRecord.RecordType.name != 'Affordable' && tempRecord.RecordType.name != 'Apartments') && (f.FieldPath = 'Residential_Type_New__c' &#124;&#124; f.FieldPath = 'Residential_Type_Current__c' &#124;&#124; f.FieldPath = 'Pricing_System_New__c' &#124;&#124; f.FieldPath = 'Pricing_System_Current__c'), 'display:none;', '')}
14:14:09.0 (517084151)|VF_EVALUATE_FORMULA_END
14:14:09.0 (517128485)|VF_EVALUATE_FORMULA_BEGIN|066Q0000000AmBn|#{IF(f.Label == 'Record Type ID','Sector',f.Label)}
14:14:09.0 (517277369)|VF_EVALUATE_FORMULA_END
14:14:09.0 (518366860)|VF_EVALUATE_FORMULA_BEGIN|066Q0000000AmBn|#{f.FieldPath} findMe
14:14:09.0 (518454094)|VF_EVALUATE_FORMULA_END
14:14:09.0 (518563167)|VF_EVALUATE_FORMULA_BEGIN|066Q0000000AmBn|#{if( f.Type == 'textarea', 'height:110px;', if(f.FieldPath == 'Survey_MSA__c' &#124;&#124; f.FieldPath == 'Survey_Submarket__c' &#124;&#124; f.FieldPath == 'Sub_Market_ID__c','height:50px;Width:100%;','height:50px;Width:50%;'))}
14:14:09.0 (518860974)|VF_EVALUATE_FORMULA_END
14:14:09.0 (518871940)|VF_EVALUATE_FORMULA_BEGIN|066Q0000000AmBn|#{if(tempRecord.RecordType.name = 'Affordable' &#124;&#124; (f.FieldPath !=  'Property_Owner_New__c'&& f.FieldPath != 'Property_Owner_Current__c'), '', 'display:none;')}
14:14:09.0 (519216096)|VF_EVALUATE_FORMULA_END
14:14:09.0 (519231615)|VF_EVALUATE_FORMULA_BEGIN|066Q0000000AmBn|#{if((tempRecord.RecordType.name != 'Affordable' && tempRecord.RecordType.name != 'Apartments') && (f.FieldPath = 'Residential_Type_New__c' &#124;&#124; f.FieldPath = 'Residential_Type_Current__c' &#124;&#124; f.FieldPath = 'Pricing_System_New__c' &#124;&#124; f.FieldPath = 'Pricing_System_Current__c'), 'display:none;', '')}
14:14:09.0 (520026297)|VF_EVALUATE_FORMULA_END
14:14:09.0 (520069678)|VF_EVALUATE_FORMULA_BEGIN|066Q0000000AmBn|#{IF(f.Label == 'Record Type ID','Sector',f.Label)}
14:14:09.0 (520240663)|VF_EVALUATE_FORMULA_END
14:14:09.0 (521479849)|VF_EVALUATE_FORMULA_BEGIN|066Q0000000AmBn|#{f.FieldPath} findMe
14:14:09.0 (521571416)|VF_EVALUATE_FORMULA_END
14:14:09.0 (521687825)|VF_EVALUATE_FORMULA_BEGIN|066Q0000000AmBn|#{if( f.Type == 'textarea', 'height:110px;', if(f.FieldPath == 'Survey_MSA__c' &#124;&#124; f.FieldPath == 'Survey_Submarket__c' &#124;&#124; f.FieldPath == 'Sub_Market_ID__c','height:50px;Width:100%;','height:50px;Width:50%;'))}
14:14:09.0 (521778839)|VF_EVALUATE_FORMULA_END
14:14:09.0 (521789907)|VF_EVALUATE_FORMULA_BEGIN|066Q0000000AmBn|#{if(tempRecord.RecordType.name = 'Affordable' &#124;&#124; (f.FieldPath !=  'Property_Owner_New__c'&& f.FieldPath != 'Property_Owner_Current__c'), '', 'display:none;')}
14:14:09.0 (522174712)|VF_EVALUATE_FORMULA_END
14:14:09.0 (522187085)|VF_EVALUATE_FORMULA_BEGIN|066Q0000000AmBn|#{if((tempRecord.RecordType.name != 'Affordable' && tempRecord.RecordType.name != 'Apartments') && (f.FieldPath = 'Residential_Type_New__c' &#124;&#124; f.FieldPath = 'Residential_Type_Current__c' &#124;&#124; f.FieldPath = 'Pricing_System_New__c' &#124;&#124; f.FieldPath = 'Pricing_System_Current__c'), 'display:none;', '')}
14:14:09.0 (522849096)|VF_EVALUATE_FORMULA_END
14:14:09.0 (522882949)|VF_EVALUATE_FORMULA_BEGIN|066Q0000000AmBn|#{IF(f.Label == 'Record Type ID','Sector',f.Label)}
14:14:09.0 (523038921)|VF_EVALUATE_FORMULA_END
14:14:09.0 (524329295)|VF_EVALUATE_FORMULA_BEGIN|066Q0000000AmBn|#{f.FieldPath} findMe
14:14:09.0 (524460478)|VF_EVALUATE_FORMULA_END
14:14:09.0 (524638681)|VF_EVALUATE_FORMULA_BEGIN|066Q0000000AmBn|#{if( f.Type == 'textarea', 'height:110px;', if(f.FieldPath == 'Survey_MSA__c' &#124;&#124; f.FieldPath == 'Survey_Submarket__c' &#124;&#124; f.FieldPath == 'Sub_Market_ID__c','height:50px;Width:100%;','height:50px;Width:50%;'))}
14:14:09.0 (524774682)|VF_EVALUATE_FORMULA_END
14:14:09.0 (524789462)|VF_EVALUATE_FORMULA_BEGIN|066Q0000000AmBn|#{if(tempRecord.RecordType.name = 'Affordable' &#124;&#124; (f.FieldPath !=  'Property_Owner_New__c'&& f.FieldPath != 'Property_Owner_Current__c'), '', 'display:none;')}
14:14:09.0 (525271367)|VF_EVALUATE_FORMULA_END
14:14:09.0 (525284000)|VF_EVALUATE_FORMULA_BEGIN|066Q0000000AmBn|#{if((tempRecord.RecordType.name != 'Affordable' && tempRecord.RecordType.name != 'Apartments') && (f.FieldPath = 'Residential_Type_New__c' &#124;&#124; f.FieldPath = 'Residential_Type_Current__c' &#124;&#124; f.FieldPath = 'Pricing_System_New__c' &#124;&#124; f.FieldPath = 'Pricing_System_Current__c'), 'display:none;', '')}
14:14:09.0 (525952413)|VF_EVALUATE_FORMULA_END
14:14:09.0 (525987203)|VF_EVALUATE_FORMULA_BEGIN|066Q0000000AmBn|#{IF(f.Label == 'Record Type ID','Sector',f.Label)}
14:14:09.0 (526133466)|VF_EVALUATE_FORMULA_END
14:14:09.0 (527390985)|VF_EVALUATE_FORMULA_BEGIN|066Q0000000AmBn|#{f.FieldPath} findMe
14:14:09.0 (527478289)|VF_EVALUATE_FORMULA_END
14:14:09.0 (527608514)|VF_EVALUATE_FORMULA_BEGIN|066Q0000000AmBn|#{if( f.Type == 'textarea', 'height:110px;', if(f.FieldPath == 'Survey_MSA__c' &#124;&#124; f.FieldPath == 'Survey_Submarket__c' &#124;&#124; f.FieldPath == 'Sub_Market_ID__c','height:50px;Width:100%;','height:50px;Width:50%;'))}
14:14:09.0 (527733535)|VF_EVALUATE_FORMULA_END
14:14:09.0 (527745322)|VF_EVALUATE_FORMULA_BEGIN|066Q0000000AmBn|#{if(tempRecord.RecordType.name = 'Affordable' &#124;&#124; (f.FieldPath !=  'Property_Owner_New__c'&& f.FieldPath != 'Property_Owner_Current__c'), '', 'display:none;')}
14:14:09.0 (528305412)|VF_EVALUATE_FORMULA_END
14:14:09.0 (528323067)|VF_EVALUATE_FORMULA_BEGIN|066Q0000000AmBn|#{if((tempRecord.RecordType.name != 'Affordable' && tempRecord.RecordType.name != 'Apartments') && (f.FieldPath = 'Residential_Type_New__c' &#124;&#124; f.FieldPath = 'Residential_Type_Current__c' &#124;&#124; f.FieldPath = 'Pricing_System_New__c' &#124;&#124; f.FieldPath = 'Pricing_System_Current__c'), 'display:none;', '')}
14:14:09.0 (529267576)|VF_EVALUATE_FORMULA_END
14:14:09.0 (529304245)|VF_EVALUATE_FORMULA_BEGIN|066Q0000000AmBn|#{IF(f.Label == 'Record Type ID','Sector',f.Label)}
14:14:09.0 (529451759)|VF_EVALUATE_FORMULA_END
14:14:09.0 (530523225)|VF_EVALUATE_FORMULA_BEGIN|066Q0000000AmBn|#{f.FieldPath} findMe
14:14:09.0 (530665739)|VF_EVALUATE_FORMULA_END
14:14:09.0 (530780743)|VF_EVALUATE_FORMULA_BEGIN|066Q0000000AmBn|#{if( f.Type == 'textarea', 'height:110px;', if(f.FieldPath == 'Survey_MSA__c' &#124;&#124; f.FieldPath == 'Survey_Submarket__c' &#124;&#124; f.FieldPath == 'Sub_Market_ID__c','height:50px;Width:100%;','height:50px;Width:50%;'))}
14:14:09.0 (530882003)|VF_EVALUATE_FORMULA_END
14:14:09.0 (530896595)|VF_EVALUATE_FORMULA_BEGIN|066Q0000000AmBn|#{if(tempRecord.RecordType.name = 'Affordable' &#124;&#124; (f.FieldPath !=  'Property_Owner_New__c'&& f.FieldPath != 'Property_Owner_Current__c'), '', 'display:none;')}
14:14:09.0 (531466068)|VF_EVALUATE_FORMULA_END
14:14:09.0 (531482266)|VF_EVALUATE_FORMULA_BEGIN|066Q0000000AmBn|#{if((tempRecord.RecordType.name != 'Affordable' && tempRecord.RecordType.name != 'Apartments') && (f.FieldPath = 'Residential_Type_New__c' &#124;&#124; f.FieldPath = 'Residential_Type_Current__c' &#124;&#124; f.FieldPath = 'Pricing_System_New__c' &#124;&#124; f.FieldPath = 'Pricing_System_Current__c'), 'display:none;', '')}
14:14:09.0 (532390525)|VF_EVALUATE_FORMULA_END
14:14:09.0 (532427517)|VF_EVALUATE_FORMULA_BEGIN|066Q0000000AmBn|#{IF(f.Label == 'Record Type ID','Sector',f.Label)}
14:14:09.0 (532621179)|VF_EVALUATE_FORMULA_END
14:14:09.0 (534135260)|VF_EVALUATE_FORMULA_BEGIN|066Q0000000AmBn|#{f.FieldPath} findMe
14:14:09.0 (534244628)|VF_EVALUATE_FORMULA_END
14:14:09.0 (534384830)|VF_EVALUATE_FORMULA_BEGIN|066Q0000000AmBn|#{if( f.Type == 'textarea', 'height:110px;', if(f.FieldPath == 'Survey_MSA__c' &#124;&#124; f.FieldPath == 'Survey_Submarket__c' &#124;&#124; f.FieldPath == 'Sub_Market_ID__c','height:50px;Width:100%;','height:50px;Width:50%;'))}
14:14:09.0 (534515643)|VF_EVALUATE_FORMULA_END
14:14:09.0 (534530377)|VF_EVALUATE_FORMULA_BEGIN|066Q0000000AmBn|#{if(tempRecord.RecordType.name = 'Affordable' &#124;&#124; (f.FieldPath !=  'Property_Owner_New__c'&& f.FieldPath != 'Property_Owner_Current__c'), '', 'display:none;')}
14:14:09.0 (535012081)|VF_EVALUATE_FORMULA_END
14:14:09.0 (535024638)|VF_EVALUATE_FORMULA_BEGIN|066Q0000000AmBn|#{if((tempRecord.RecordType.name != 'Affordable' && tempRecord.RecordType.name != 'Apartments') && (f.FieldPath = 'Residential_Type_New__c' &#124;&#124; f.FieldPath = 'Residential_Type_Current__c' &#124;&#124; f.FieldPath = 'Pricing_System_New__c' &#124;&#124; f.FieldPath = 'Pricing_System_Current__c'), 'display:none;', '')}
14:14:09.0 (536013496)|VF_EVALUATE_FORMULA_END
14:14:09.0 (536056921)|VF_EVALUATE_FORMULA_BEGIN|066Q0000000AmBn|#{IF(f.Label == 'Record Type ID','Sector',f.Label)}
14:14:09.0 (536281216)|VF_EVALUATE_FORMULA_END
14:14:09.0 (537984184)|VF_EVALUATE_FORMULA_BEGIN|066Q0000000AmBn|#{f.FieldPath} findMe
14:14:09.0 (538082839)|VF_EVALUATE_FORMULA_END
14:14:09.0 (538226753)|VF_EVALUATE_FORMULA_BEGIN|066Q0000000AmBn|#{tempRecord.RecordType.name == 'Self Storage'}
14:14:09.0 (538446784)|VF_EVALUATE_FORMULA_END
14:14:09.0 (538461268)|VF_EVALUATE_FORMULA_BEGIN|066Q0000000AmBn|#{tempRecord.RecordType.name == 'Senior Housing'}
14:14:09.0 (538662379)|VF_EVALUATE_FORMULA_END
14:14:09.0 (538675342)|VF_EVALUATE_FORMULA_BEGIN|066Q0000000AmBn|#{tempRecord.RecordType.name == 'Student Housing'}
14:14:09.0 (538932554)|VF_EVALUATE_FORMULA_END
14:14:09.0 (538955982)|VF_EVALUATE_FORMULA_BEGIN|066Q0000000AmBn|#{tempRecord.RecordType.name == 'Retail'}
14:14:09.0 (539173098)|VF_EVALUATE_FORMULA_END
14:14:09.0 (539194702)|VF_EVALUATE_FORMULA_BEGIN|066Q0000000AmBn|#{tempRecord.RecordType.name == 'Retail'}
14:14:09.0 (539515641)|VF_EVALUATE_FORMULA_END
14:14:09.0 (539533566)|VF_EVALUATE_FORMULA_BEGIN|066Q0000000AmBn|#{tempRecord.RecordType.name == 'Retail'}
14:14:09.0 (539781005)|VF_EVALUATE_FORMULA_END
14:14:09.0 (608553691)|VF_EVALUATE_FORMULA_BEGIN|066Q0000000AmBn|#{URLFOR($Asset.SLDS, '/assets/icons/action-sprite/svg/symbols.svg#new')}
14:14:09.0 (608663662)|VF_EVALUATE_FORMULA_END
14:14:09.0 (612873967)|VF_EVALUATE_FORMULA_BEGIN|066Q0000000AmBn|#{tempRecord.RecordType.name == 'Retail'}
14:14:09.0 (613308302)|VF_EVALUATE_FORMULA_END
14:14:09.0 (613332373)|VF_EVALUATE_FORMULA_BEGIN|066Q0000000AmBn|#{tempRecord.RecordType.name == 'Retail'}
14:14:09.0 (613542092)|VF_EVALUATE_FORMULA_END
14:14:09.0 (613558007)|VF_EVALUATE_FORMULA_BEGIN|066Q0000000AmBn|#{tempRecord.RecordType.name == 'Office' &#124;&#124; tempRecord.RecordType.name == 'Industrial'}
14:14:09.0 (614025707)|VF_EVALUATE_FORMULA_END
14:14:09.0 (614040342)|VF_EVALUATE_FORMULA_BEGIN|066Q0000000AmBn|#{tempRecord.RecordType.name == 'Apartments'}
14:14:09.0 (614237731)|VF_EVALUATE_FORMULA_END
14:14:09.0 (614257667)|VF_EVALUATE_FORMULA_BEGIN|066Q0000000AmBn|#{tempRecord.RecordType.name == 'Affordable'}
14:14:09.0 (614480309)|VF_EVALUATE_FORMULA_END
14:14:09.0 (614501881)|VF_EVALUATE_FORMULA_BEGIN|066Q0000000AmBn|#{tempRecord.RecordType.name == 'Industrial' &#124;&#124; tempRecord.RecordType.name == 'Apartments' &#124;&#124; tempRecord.RecordType.name == 'Affordable' &#124;&#124; tempRecord.RecordType.name == 'Senior Housing' &#124;&#124; tempRecord.RecordType.name == 'Self Storage' &#124;&#124; tempRecord.RecordType.name == 'Student Housing'}
14:14:09.0 (615823598)|VF_EVALUATE_FORMULA_END
14:14:09.0 (628404224)|VF_SERIALIZE_VIEWSTATE_BEGIN|066Q0000000AmBn
14:14:09.0 (649519023)|VF_SERIALIZE_VIEWSTATE_END
14:14:09.0 (653631406)|VF_EVALUATE_FORMULA_BEGIN|066Q0000000AmBn|#{f.fieldPath == 'Work_Phone__c' &#124;&#124; f.fieldPath == 'Mobile_Phone__c'}
14:14:09.0 (653741564)|VF_EVALUATE_FORMULA_END
14:14:09.0 (653797311)|VF_EVALUATE_FORMULA_BEGIN|066Q0000000AmBn|#{f.fieldPath == 'Work_Phone__c' &#124;&#124; f.fieldPath == 'Mobile_Phone__c'}
14:14:09.0 (653859760)|VF_EVALUATE_FORMULA_END
14:14:09.0 (653969247)|VF_EVALUATE_FORMULA_BEGIN|066Q0000000AmBn|#{f.fieldPath == 'Work_Phone__c' &#124;&#124; f.fieldPath == 'Mobile_Phone__c'}
14:14:09.0 (654054564)|VF_EVALUATE_FORMULA_END
14:14:09.0 (654137974)|VF_EVALUATE_FORMULA_BEGIN|066Q0000000AmBn|#{f.fieldPath == 'Work_Phone__c' &#124;&#124; f.fieldPath == 'Mobile_Phone__c'}
14:14:09.0 (654219573)|VF_EVALUATE_FORMULA_END
14:14:09.0 (654270443)|VF_EVALUATE_FORMULA_BEGIN|066Q0000000AmBn|#{f.fieldPath == 'Work_Phone__c' &#124;&#124; f.fieldPath == 'Mobile_Phone__c'}
14:14:09.0 (654349538)|VF_EVALUATE_FORMULA_END
14:14:09.0 (655151685)|VF_EVALUATE_FORMULA_BEGIN|066Q0000000AmBn|#{tempRecord.RecordType.name == 'Self Storage'}
14:14:09.0 (655748019)|VF_EVALUATE_FORMULA_END
14:14:09.0 (655768240)|VF_EVALUATE_FORMULA_BEGIN|066Q0000000AmBn|#{tempRecord.RecordType.name == 'Senior Housing'}
14:14:09.0 (656110271)|VF_EVALUATE_FORMULA_END
14:14:09.0 (656129530)|VF_EVALUATE_FORMULA_BEGIN|066Q0000000AmBn|#{tempRecord.RecordType.name == 'Student Housing'}
14:14:09.0 (656466988)|VF_EVALUATE_FORMULA_END
14:14:09.0 (656488182)|VF_EVALUATE_FORMULA_BEGIN|066Q0000000AmBn|#{tempRecord.RecordType.name == 'Retail'}
14:14:09.0 (656846954)|VF_EVALUATE_FORMULA_END
14:14:09.0 (657414629)|VF_EVALUATE_FORMULA_BEGIN|066Q0000000AmBn|#{tempRecord.RecordType.name == 'Office' &#124;&#124; tempRecord.RecordType.name == 'Industrial'}
14:14:09.0 (657967570)|VF_EVALUATE_FORMULA_END
14:14:09.0 (657984233)|VF_EVALUATE_FORMULA_BEGIN|066Q0000000AmBn|#{tempRecord.RecordType.name == 'Apartments'}
14:14:09.0 (658190601)|VF_EVALUATE_FORMULA_END
14:14:09.0 (658206997)|VF_EVALUATE_FORMULA_BEGIN|066Q0000000AmBn|#{tempRecord.RecordType.name == 'Affordable'}
14:14:09.0 (658406172)|VF_EVALUATE_FORMULA_END
14:14:09.0 (658422487)|VF_EVALUATE_FORMULA_BEGIN|066Q0000000AmBn|#{tempRecord.RecordType.name == 'Industrial' &#124;&#124; tempRecord.RecordType.name == 'Apartments' &#124;&#124; tempRecord.RecordType.name == 'Affordable' &#124;&#124; tempRecord.RecordType.name == 'Senior Housing' &#124;&#124; tempRecord.RecordType.name == 'Self Storage' &#124;&#124; tempRecord.RecordType.name == 'Student Housing'}
14:14:09.0 (659524099)|VF_EVALUATE_FORMULA_END
14:14:09.0 (660980189)|VF_EVALUATE_FORMULA_BEGIN|066Q0000000AmBn|renderSVG();closePage(#{goodToClose});greyOutFields();greyLookups();toggleUtilityCap(); return false;
14:14:09.0 (661041320)|VF_EVALUATE_FORMULA_END
14:14:09.0 (661058745)|VF_EVALUATE_FORMULA_BEGIN|066Q0000000AmBn|renderSVG();closePage(#{goodToClose});greyOutFields();greyLookups();toggleUtilityCap(); return false;
14:14:09.0 (661095825)|VF_EVALUATE_FORMULA_END
14:14:09.0 (661108424)|VF_EVALUATE_FORMULA_BEGIN|066Q0000000AmBn|renderSVG();closePage(#{goodToClose});greyOutFields();greyLookups();toggleUtilityCap(); return false;
14:14:09.0 (661142959)|VF_EVALUATE_FORMULA_END
14:14:09.663 (663097159)|CUMULATIVE_LIMIT_USAGE
14:14:09.663 (663097159)|LIMIT_USAGE_FOR_NS|(default)|
  Number of SOQL queries: 10 out of 100
  Number of query rows: 177 out of 50000
  Number of SOSL queries: 0 out of 20
  Number of DML statements: 0 out of 150
  Number of DML rows: 0 out of 10000
  Maximum CPU time: 222 out of 10000
  Maximum heap size: 0 out of 6000000
  Number of callouts: 0 out of 100
  Number of Email Invocations: 0 out of 10
  Number of future calls: 0 out of 50
  Number of queueable jobs added to the queue: 0 out of 50
  Number of Mobile Apex push calls: 0 out of 10

14:14:09.663 (663097159)|CUMULATIVE_LIMIT_USAGE_END

14:14:09.0 (663149609)|CODE_UNIT_FINISHED|VF: /apex/PropertySurveyOverridePage
14:14:09.0 (664453301)|EXECUTION_FINISHED
