35.0 APEX_CODE,DEBUG;APEX_PROFILING,INFO;CALLOUT,INFO;DB,INFO;SYSTEM,DEBUG;VALIDATION,INFO;VISUALFORCE,FINER;WAVE,INFO;WORKFLOW,INFO
11:00:59.0 (390001)|USER_INFO|[EXTERNAL]|005Q000000PbtzJ|amoodhangalorevadira@huronconsultinggroup.com.opsdev|Eastern Standard Time|GMT-05:00
11:00:59.0 (436052)|EXECUTION_STARTED
11:00:59.0 (440183)|CODE_UNIT_STARTED|[EXTERNAL]|066Q0000000AmBn|VFRemote: PropertySurveyOverrideController invoke(remoteSiteCheck)
11:00:59.0 (459884)|SYSTEM_MODE_ENTER|true
11:00:59.0 (3402218)|USER_DEBUG|[837]|DEBUG|null
11:00:59.0 (3569632)|USER_DEBUG|[838]|DEBUG|
11:00:59.0 (3730703)|CODE_UNIT_FINISHED|VFRemote: PropertySurveyOverrideController invoke(remoteSiteCheck)
11:00:59.0 (5735785)|EXECUTION_FINISHED
